IFIDSTAGE/wave.vcd
$version Generated by VerilatedVcd $end
$date Wed Jan 11 23:55:59 2023 $end
$timescale 1s $end

 $scope module top $end
  $var wire  1 { clk_i $end
  $var wire  1 z rst_i $end
  $scope module coretop $end
   $var wire  1 { clk_i $end
   $var wire 32 k idexe_imm [31:0] $end
   $var wire 32 i idexe_op1 [31:0] $end
   $var wire 32 j idexe_op2 [31:0] $end
   $var wire 32 h idexe_pc [31:0] $end
   $var wire  5 l idexe_rdaddr [4:0] $end
   $var wire  1 m idexe_we $end
   $var wire  5 } idreg_addr1 [4:0] $end
   $var wire  5 ~ idreg_addr2 [4:0] $end
   $var wire 32 f ifid_inst [31:0] $end
   $var wire 32 g ifid_pc [31:0] $end
   $var wire 32 e pc_wire [31:0] $end
   $var wire 32 # regid_data1 [31:0] $end
   $var wire 32 $ regid_data2 [31:0] $end
   $var wire 32 | romif_inst [31:0] $end
   $var wire 32 e romif_pc [31:0] $end
   $var wire  1 z rst_i $end
   $scope module decode0 $end
    $var wire  1 v Itype_imm $end
    $var wire  1 { clk_i $end
    $var wire  3 q funct3 [2:0] $end
    $var wire  7 r funct7 [6:0] $end
    $var wire  1 x imm $end
    $var wire  1 w immI $end
    $var wire 32 k imm_o [31:0] $end
    $var wire 32 f inst_i [31:0] $end
    $var wire 32 i op1_o [31:0] $end
    $var wire 32 j op2_o [31:0] $end
    $var wire  7 p opcode [6:0] $end
    $var wire 32 g pc_i [31:0] $end
    $var wire 32 h pc_o [31:0] $end
    $var wire  5 u rd_addr [4:0] $end
    $var wire  5 l rd_addr_o [4:0] $end
    $var wire  1 m rd_we_o $end
    $var wire  5 n reg_addr1_o [4:0] $end
    $var wire  5 o reg_addr2_o [4:0] $end
    $var wire 32 !! reg_data1_i [31:0] $end
    $var wire 32 "! reg_data2_i [31:0] $end
    $var wire  1 v reg_we $end
    $var wire  5 s rs1_addr [4:0] $end
    $var wire  5 t rs2_addr [4:0] $end
    $var wire  1 z rst_i $end
    $var wire 32 f rv32inst [31:0] $end
   $upscope $end
   $scope module inst_fetch0 $end
    $var wire  1 { clk_i $end
    $var wire 32 | inst_i [31:0] $end
    $var wire 32 f inst_o [31:0] $end
    $var wire 32 e pc_i [31:0] $end
    $var wire 32 g pc_o [31:0] $end
    $var wire  1 z rst_i $end
   $upscope $end
   $scope module program_counter0 $end
    $var wire  1 { clk_i $end
    $var wire 32 e pc_o [31:0] $end
    $var wire  1 z rst_i $end
   $upscope $end
   $scope module regfiles0 $end
    $var wire 32 N a0 [31:0] $end
    $var wire 32 O a1 [31:0] $end
    $var wire 32 P a2 [31:0] $end
    $var wire 32 Q a3 [31:0] $end
    $var wire 32 R a4 [31:0] $end
    $var wire 32 S a5 [31:0] $end
    $var wire 32 T a6 [31:0] $end
    $var wire 32 U a7 [31:0] $end
    $var wire  1 { clk_i $end
    $var wire 32 G gp [31:0] $end
    $var wire 32 d i [31:0] $end
    $var wire 32 E ra [31:0] $end
    $var wire  5 } rs1_addr_i [4:0] $end
    $var wire 32 # rs1_data_o [31:0] $end
    $var wire  5 ~ rs2_addr_i [4:0] $end
    $var wire 32 $ rs2_data_o [31:0] $end
    $var wire  1 z rst_i $end
    $var wire 32 L s0 [31:0] $end
    $var wire 32 M s1 [31:0] $end
    $var wire 32 ^ s10 [31:0] $end
    $var wire 32 _ s11 [31:0] $end
    $var wire 32 V s2 [31:0] $end
    $var wire 32 W s3 [31:0] $end
    $var wire 32 X s4 [31:0] $end
    $var wire 32 Y s5 [31:0] $end
    $var wire 32 Z s6 [31:0] $end
    $var wire 32 [ s7 [31:0] $end
    $var wire 32 \ s8 [31:0] $end
    $var wire 32 ] s9 [31:0] $end
    $var wire 32 F sp [31:0] $end
    $var wire 32 I t0 [31:0] $end
    $var wire 32 J t1 [31:0] $end
    $var wire 32 K t2 [31:0] $end
    $var wire 32 ` t3 [31:0] $end
    $var wire 32 a t4 [31:0] $end
    $var wire 32 b t5 [31:0] $end
    $var wire 32 c t6 [31:0] $end
    $var wire 32 H tp [31:0] $end
    $var wire 32 % x(0) [31:0] $end
    $var wire 32 & x(1) [31:0] $end
    $var wire 32 / x(10) [31:0] $end
    $var wire 32 0 x(11) [31:0] $end
    $var wire 32 1 x(12) [31:0] $end
    $var wire 32 2 x(13) [31:0] $end
    $var wire 32 3 x(14) [31:0] $end
    $var wire 32 4 x(15) [31:0] $end
    $var wire 32 5 x(16) [31:0] $end
    $var wire 32 6 x(17) [31:0] $end
    $var wire 32 7 x(18) [31:0] $end
    $var wire 32 8 x(19) [31:0] $end
    $var wire 32 ' x(2) [31:0] $end
    $var wire 32 9 x(20) [31:0] $end
    $var wire 32 : x(21) [31:0] $end
    $var wire 32 ; x(22) [31:0] $end
    $var wire 32 < x(23) [31:0] $end
    $var wire 32 = x(24) [31:0] $end
    $var wire 32 > x(25) [31:0] $end
    $var wire 32 ? x(26) [31:0] $end
    $var wire 32 @ x(27) [31:0] $end
    $var wire 32 A x(28) [31:0] $end
    $var wire 32 B x(29) [31:0] $end
    $var wire 32 ( x(3) [31:0] $end
    $var wire 32 C x(30) [31:0] $end
    $var wire 32 D x(31) [31:0] $end
    $var wire 32 ) x(4) [31:0] $end
    $var wire 32 * x(5) [31:0] $end
    $var wire 32 + x(6) [31:0] $end
    $var wire 32 , x(7) [31:0] $end
    $var wire 32 - x(8) [31:0] $end
    $var wire 32 . x(9) [31:0] $end
   $upscope $end
   $scope module rom0 $end
    $var wire 21 y addr4 [20:0] $end
    $var wire 32 e addr_i [31:0] $end
    $var wire  1 { clk_i $end
    $var wire 32 | inst_o [31:0] $end
    $var wire 32 e pc_o [31:0] $end
   $upscope $end
  $upscope $end
 $upscope $end
$enddefinitions $end


#5
b00000000000000000000000000000000 #
b00000000000000000000000000000000 $
b00000000000000000000000000000000 %
b00000000000000000000000000000000 &
b00000000000000000000000000000000 '
b00000000000000000000000000000000 (
b00000000000000000000000000000000 )
b00000000000000000000000000000000 *
b00000000000000000000000000000000 +
b00000000000000000000000000000000 ,
b00000000000000000000000000000000 -
b00000000000000000000000000000000 .
b00000000000000000000000000000000 /
b00000000000000000000000000000000 0
b00000000000000000000000000000000 1
b00000000000000000000000000000000 2
b00000000000000000000000000000000 3
b00000000000000000000000000000000 4
b00000000000000000000000000000000 5
b00000000000000000000000000000000 6
b00000000000000000000000000000000 7
b00000000000000000000000000000000 8
b00000000000000000000000000000000 9
b00000000000000000000000000000000 :
b00000000000000000000000000000000 ;
b00000000000000000000000000000000 <
b00000000000000000000000000000000 =
b00000000000000000000000000000000 >
b00000000000000000000000000000000 ?
b00000000000000000000000000000000 @
b00000000000000000000000000000000 A
b00000000000000000000000000000000 B
b00000000000000000000000000000000 C
b00000000000000000000000000000000 D
b00000000000000000000000000000000 E
b00000000000000000000000000000000 F
b00000000000000000000000000000000 G
b00000000000000000000000000000000 H
b00000000000000000000000000000000 I
b00000000000000000000000000000000 J
b00000000000000000000000000000000 K
b00000000000000000000000000000000 L
b00000000000000000000000000000000 M
b00000000000000000000000000000000 N
b00000000000000000000000000000000 O
b00000000000000000000000000000000 P
b00000000000000000000000000000000 Q
b00000000000000000000000000000000 R
b00000000000000000000000000000000 S
b00000000000000000000000000000000 T
b00000000000000000000000000000000 U
b00000000000000000000000000000000 V
b00000000000000000000000000000000 W
b00000000000000000000000000000000 X
b00000000000000000000000000000000 Y
b00000000000000000000000000000000 Z
b00000000000000000000000000000000 [
b00000000000000000000000000000000 \
b00000000000000000000000000000000 ]
b00000000000000000000000000000000 ^
b00000000000000000000000000000000 _
b00000000000000000000000000000000 `
b00000000000000000000000000000000 a
b00000000000000000000000000000000 b
b00000000000000000000000000000000 c
b00000000000000000000000000100000 d
b00000000000000000000000000000000 e
b00000000000000000000000000000000 f
b00000000000000000000000000000000 g
b00000000000000000000000000000000 h
b00000000000000000000000000000000 i
b00000000000000000000000000000000 j
b00000000000000000000000000000000 k
b00000 l
0m
b00000 n
b00000 o
b0000000 p
b000 q
b0000000 r
b00000 s
b00000 t
b00000 u
0v
0w
0x
b000000000000000000000 y
1z
0{
b00000000001100100110001010010011 |
b00000 }
b00000 ~
b00000000000000000000000000000000 !!
b00000000000000000000000000000000 "!
#10
1{
#15
0{
#20
1{
#25
0{
#30
1{
#35
0{
#40
1{
#45
0{
#50
1{
#55
0z
0{
#60
b00000000000000000000000000000100 e
b00000000001100100110001010010011 f
b0010011 p
b110 q
b00100 s
b00011 t
b00101 u
1v
1w
1x
b000000000000000000100 y
1{
b11111111111000011110001100010011 |
#65
0{
#70
b00000000000000000000000000001000 e
b11111111111000011110001100010011 f
b00000000000000000000000000000100 g
b00000000000000000000000000000001 k
b00101 l
1m
b00100 n
b00011 o
b1111111 r
b00011 s
b11110 t
b00110 u
0w
0x
b000000000000000001000 y
1{
b00000000000000000000000000000000 |
#75
0{
#80
b00000000000000000000000000001100 e
b00000000000000000000000000000000 f
b00000000000000000000000000001000 g
b00000000000000000000000000000100 h
b00000000000000000000000000000000 k
b00110 l
b00011 n
b11110 o
b0000000 p
b000 q
b0000000 r
b00000 s
b00000 t
b00000 u
0v
b000000000000000001100 y
1{
#85
0{
#90
b00000000000000000000000000010000 e
b00000000000000000000000000001100 g
b00000000000000000000000000001000 h
b00000 l
0m
b00000 n
b00000 o
b000000000000000010000 y
1{
#95
0{
#100
b00000000000000000000000000010100 e
b00000000000000000000000000010000 g
b00000000000000000000000000001100 h
b000000000000000010100 y
1{
#105
0{
#110
b00000000000000000000000000011000 e
b00000000000000000000000000010100 g
b00000000000000000000000000010000 h
b000000000000000011000 y
1{
#115
0{
#120
b00000000000000000000000000011100 e
b00000000000000000000000000011000 g
b00000000000000000000000000010100 h
b000000000000000011100 y
1{
#125
0{
#130
b00000000000000000000000000100000 e
b00000000000000000000000000011100 g
b00000000000000000000000000011000 h
b000000000000000100000 y
1{
#135
0{
#140
b00000000000000000000000000100100 e
b00000000000000000000000000100000 g
b00000000000000000000000000011100 h
b000000000000000100100 y
1{
#145
0{
#150
b00000000000000000000000000101000 e
b00000000000000000000000000100100 g
b00000000000000000000000000100000 h
b000000000000000101000 y
1{
#155
0{
#160
b00000000000000000000000000101100 e
b00000000000000000000000000101000 g
b00000000000000000000000000100100 h
b000000000000000101100 y
1{
#165
0{
#170
b00000000000000000000000000110000 e
b00000000000000000000000000101100 g
b00000000000000000000000000101000 h
b000000000000000110000 y
1{
#175
0{
#180
b00000000000000000000000000110100 e
b00000000000000000000000000110000 g
b00000000000000000000000000101100 h
b000000000000000110100 y
1{
#185
0{
#190
b00000000000000000000000000111000 e
b00000000000000000000000000110100 g
b00000000000000000000000000110000 h
b000000000000000111000 y
1{
#195
0{
#200
b00000000000000000000000000111100 e
b00000000000000000000000000111000 g
b00000000000000000000000000110100 h
b000000000000000111100 y
1{
#205
0{
#210
b00000000000000000000000001000000 e
b00000000000000000000000000111100 g
b00000000000000000000000000111000 h
b000000000000001000000 y
1{
#215
0{
#220
b00000000000000000000000001000100 e
b00000000000000000000000001000000 g
b00000000000000000000000000111100 h
b000000000000001000100 y
1{
#225
0{
#230
b00000000000000000000000001001000 e
b00000000000000000000000001000100 g
b00000000000000000000000001000000 h
b000000000000001001000 y
1{
#235
0{
#240
b00000000000000000000000001001100 e
b00000000000000000000000001001000 g
b00000000000000000000000001000100 h
b000000000000001001100 y
1{
#245
0{
#250
b00000000000000000000000001010000 e
b00000000000000000000000001001100 g
b00000000000000000000000001001000 h
b000000000000001010000 y
1{
