IFIDEXESTAGE/wave.vcd
$version Generated by VerilatedVcd $end
$date Thu Jan 12 02:28:16 2023 $end
$timescale 1s $end

 $scope module top $end
  $var wire  1 &! clk_i $end
  $var wire  1 %! rst_i $end
  $scope module coretop $end
   $var wire  1 &! clk_i $end
   $var wire  5 r exemem_rdaddr [4:0] $end
   $var wire 32 s exemem_rddata [31:0] $end
   $var wire  1 t exemem_we $end
   $var wire 32 m idexe_imm [31:0] $end
   $var wire 32 k idexe_op1 [31:0] $end
   $var wire 32 l idexe_op2 [31:0] $end
   $var wire  3 q idexe_opfunc3 [2:0] $end
   $var wire  1 p idexe_optype $end
   $var wire 32 j idexe_pc [31:0] $end
   $var wire  5 n idexe_rdaddr [4:0] $end
   $var wire  1 o idexe_we $end
   $var wire  5 f idreg_addr1 [4:0] $end
   $var wire  5 g idreg_addr2 [4:0] $end
   $var wire 32 d ifid_inst [31:0] $end
   $var wire 32 e ifid_pc [31:0] $end
   $var wire 32 c pc_wire [31:0] $end
   $var wire 32 h regid_data1 [31:0] $end
   $var wire 32 i regid_data2 [31:0] $end
   $var wire 32 '! romif_inst [31:0] $end
   $var wire 32 c romif_pc [31:0] $end
   $var wire  1 %! rst_i $end
   $scope module decode0 $end
    $var wire  1 | Itype_imm $end
    $var wire  1 ~ Rtype $end
    $var wire  1 &! clk_i $end
    $var wire  7 w funct7 [6:0] $end
    $var wire 32 !! imm [31:0] $end
    $var wire 32 } immI [31:0] $end
    $var wire 32 m imm_o [31:0] $end
    $var wire 32 d inst_i [31:0] $end
    $var wire 32 k op1_o [31:0] $end
    $var wire 32 l op2_o [31:0] $end
    $var wire  7 u opcode [6:0] $end
    $var wire  3 v opfunc3 [2:0] $end
    $var wire  3 q opfunc3_o [2:0] $end
    $var wire  1 { optype $end
    $var wire  1 p optype_o $end
    $var wire 32 e pc_i [31:0] $end
    $var wire 32 j pc_o [31:0] $end
    $var wire  5 z rd_addr [4:0] $end
    $var wire  5 n rd_addr_o [4:0] $end
    $var wire  1 o rd_we_o $end
    $var wire  5 f reg_addr1_o [4:0] $end
    $var wire  5 g reg_addr2_o [4:0] $end
    $var wire 32 h reg_data1_i [31:0] $end
    $var wire 32 i reg_data2_i [31:0] $end
    $var wire  1 | reg_we $end
    $var wire  5 x rs1_addr [4:0] $end
    $var wire  5 y rs2_addr [4:0] $end
    $var wire  1 %! rst_i $end
    $var wire 32 d rv32inst [31:0] $end
   $upscope $end
   $scope module exe0 $end
    $var wire  1 &! clk_i $end
    $var wire 32 m imm_i [31:0] $end
    $var wire 32 k op1_i [31:0] $end
    $var wire 32 l op2_i [31:0] $end
    $var wire 32 #! op_result [31:0] $end
    $var wire  3 q opfunc3_i [2:0] $end
    $var wire  1 p optype_i $end
    $var wire 32 j pc_i [31:0] $end
    $var wire  5 n rd_addr_i [4:0] $end
    $var wire  5 r rd_addr_o [4:0] $end
    $var wire 32 s rd_data_o [31:0] $end
    $var wire  1 o rd_we_i $end
    $var wire  1 t rd_we_o $end
    $var wire 32 k rs1 [31:0] $end
    $var wire 32 "! rs2 [31:0] $end
    $var wire  1 %! rst_i $end
   $upscope $end
   $scope module inst_fetch0 $end
    $var wire  1 &! clk_i $end
    $var wire 32 '! inst_i [31:0] $end
    $var wire 32 d inst_o [31:0] $end
    $var wire 32 c pc_i [31:0] $end
    $var wire 32 e pc_o [31:0] $end
    $var wire  1 %! rst_i $end
   $upscope $end
   $scope module program_counter0 $end
    $var wire  1 &! clk_i $end
    $var wire 32 c pc_o [31:0] $end
    $var wire  1 %! rst_i $end
   $upscope $end
   $scope module regfiles0 $end
    $var wire 32 L a0 [31:0] $end
    $var wire 32 M a1 [31:0] $end
    $var wire 32 N a2 [31:0] $end
    $var wire 32 O a3 [31:0] $end
    $var wire 32 P a4 [31:0] $end
    $var wire 32 Q a5 [31:0] $end
    $var wire 32 R a6 [31:0] $end
    $var wire 32 S a7 [31:0] $end
    $var wire  1 &! clk_i $end
    $var wire 32 E gp [31:0] $end
    $var wire 32 b i [31:0] $end
    $var wire 32 C ra [31:0] $end
    $var wire  5 f rs1_addr_i [4:0] $end
    $var wire 32 h rs1_data_o [31:0] $end
    $var wire  5 g rs2_addr_i [4:0] $end
    $var wire 32 i rs2_data_o [31:0] $end
    $var wire  1 %! rst_i $end
    $var wire 32 J s0 [31:0] $end
    $var wire 32 K s1 [31:0] $end
    $var wire 32 \ s10 [31:0] $end
    $var wire 32 ] s11 [31:0] $end
    $var wire 32 T s2 [31:0] $end
    $var wire 32 U s3 [31:0] $end
    $var wire 32 V s4 [31:0] $end
    $var wire 32 W s5 [31:0] $end
    $var wire 32 X s6 [31:0] $end
    $var wire 32 Y s7 [31:0] $end
    $var wire 32 Z s8 [31:0] $end
    $var wire 32 [ s9 [31:0] $end
    $var wire 32 D sp [31:0] $end
    $var wire 32 G t0 [31:0] $end
    $var wire 32 H t1 [31:0] $end
    $var wire 32 I t2 [31:0] $end
    $var wire 32 ^ t3 [31:0] $end
    $var wire 32 _ t4 [31:0] $end
    $var wire 32 ` t5 [31:0] $end
    $var wire 32 a t6 [31:0] $end
    $var wire 32 F tp [31:0] $end
    $var wire 32 # x(0) [31:0] $end
    $var wire 32 $ x(1) [31:0] $end
    $var wire 32 - x(10) [31:0] $end
    $var wire 32 . x(11) [31:0] $end
    $var wire 32 / x(12) [31:0] $end
    $var wire 32 0 x(13) [31:0] $end
    $var wire 32 1 x(14) [31:0] $end
    $var wire 32 2 x(15) [31:0] $end
    $var wire 32 3 x(16) [31:0] $end
    $var wire 32 4 x(17) [31:0] $end
    $var wire 32 5 x(18) [31:0] $end
    $var wire 32 6 x(19) [31:0] $end
    $var wire 32 % x(2) [31:0] $end
    $var wire 32 7 x(20) [31:0] $end
    $var wire 32 8 x(21) [31:0] $end
    $var wire 32 9 x(22) [31:0] $end
    $var wire 32 : x(23) [31:0] $end
    $var wire 32 ; x(24) [31:0] $end
    $var wire 32 < x(25) [31:0] $end
    $var wire 32 = x(26) [31:0] $end
    $var wire 32 > x(27) [31:0] $end
    $var wire 32 ? x(28) [31:0] $end
    $var wire 32 @ x(29) [31:0] $end
    $var wire 32 & x(3) [31:0] $end
    $var wire 32 A x(30) [31:0] $end
    $var wire 32 B x(31) [31:0] $end
    $var wire 32 ' x(4) [31:0] $end
    $var wire 32 ( x(5) [31:0] $end
    $var wire 32 ) x(6) [31:0] $end
    $var wire 32 * x(7) [31:0] $end
    $var wire 32 + x(8) [31:0] $end
    $var wire 32 , x(9) [31:0] $end
   $upscope $end
   $scope module rom0 $end
    $var wire 21 $! addr4 [20:0] $end
    $var wire 32 c addr_i [31:0] $end
    $var wire  1 &! clk_i $end
    $var wire 32 '! inst_o [31:0] $end
    $var wire 32 c pc_o [31:0] $end
   $upscope $end
  $upscope $end
 $upscope $end
$enddefinitions $end


#5
b00000000000000000000000000000000 #
b00000000000000000000000000000000 $
b00000000000000000000000000000000 %
b00000000000000000000000000000000 &
b00000000000000000000000000000000 '
b00000000000000000000000000000000 (
b00000000000000000000000000000000 )
b00000000000000000000000000000000 *
b00000000000000000000000000000000 +
b00000000000000000000000000000000 ,
b00000000000000000000000000000000 -
b00000000000000000000000000000000 .
b00000000000000000000000000000000 /
b00000000000000000000000000000000 0
b00000000000000000000000000000000 1
b00000000000000000000000000000000 2
b00000000000000000000000000000000 3
b00000000000000000000000000000000 4
b00000000000000000000000000000000 5
b00000000000000000000000000000000 6
b00000000000000000000000000000000 7
b00000000000000000000000000000000 8
b00000000000000000000000000000000 9
b00000000000000000000000000000000 :
b00000000000000000000000000000000 ;
b00000000000000000000000000000000 <
b00000000000000000000000000000000 =
b00000000000000000000000000000000 >
b00000000000000000000000000000000 ?
b00000000000000000000000000000000 @
b00000000000000000000000000000000 A
b00000000000000000000000000000000 B
b00000000000000000000000000000000 C
b00000000000000000000000000000000 D
b00000000000000000000000000000000 E
b00000000000000000000000000000000 F
b00000000000000000000000000000000 G
b00000000000000000000000000000000 H
b00000000000000000000000000000000 I
b00000000000000000000000000000000 J
b00000000000000000000000000000000 K
b00000000000000000000000000000000 L
b00000000000000000000000000000000 M
b00000000000000000000000000000000 N
b00000000000000000000000000000000 O
b00000000000000000000000000000000 P
b00000000000000000000000000000000 Q
b00000000000000000000000000000000 R
b00000000000000000000000000000000 S
b00000000000000000000000000000000 T
b00000000000000000000000000000000 U
b00000000000000000000000000000000 V
b00000000000000000000000000000000 W
b00000000000000000000000000000000 X
b00000000000000000000000000000000 Y
b00000000000000000000000000000000 Z
b00000000000000000000000000000000 [
b00000000000000000000000000000000 \
b00000000000000000000000000000000 ]
b00000000000000000000000000000000 ^
b00000000000000000000000000000000 _
b00000000000000000000000000000000 `
b00000000000000000000000000000000 a
b00000000000000000000000000100000 b
b00000000000000000000000000000000 c
b00000000000000000000000000000000 d
b00000000000000000000000000000000 e
b00000 f
b00000 g
b00000000000000000000000000000000 h
b00000000000000000000000000000000 i
b00000000000000000000000000000000 j
b00000000000000000000000000000000 k
b00000000000000000000000000000000 l
b00000000000000000000000000000000 m
b00000 n
0o
0p
b000 q
b00000 r
b00000000000000000000000000000000 s
0t
b0000000 u
b000 v
b0000000 w
b00000 x
b00000 y
b00000 z
0{
0|
b00000000000000000000000000000000 }
0~
b00000000000000000000000000000000 !!
b00000000000000000000000000000000 "!
b00000000000000000000000000000000 #!
b000000000000000000000 $!
1%!
0&!
b00000000001100100110001010010011 '!
#10
1&!
#15
0&!
#20
1&!
#25
0&!
#30
1&!
#35
0&!
#40
1&!
#45
0&!
#50
1&!
#55
0%!
0&!
#60
b00000000000000000000000000000100 c
b00000000001100100110001010010011 d
b0010011 u
b110 v
b00100 x
b00011 y
b00101 z
1{
1|
b00000000000000000000000000000011 }
b00000000000000000000000000000011 !!
b000000000000000000100 $!
1&!
b11111111111000011110001100010011 '!
#65
0&!
#70
b00000000000000000000000000001000 c
b11111111111000011110001100010011 d
b00000000000000000000000000000100 e
b00100 f
b00011 g
b00000000000000000000000000000011 m
b00101 n
1o
1p
b110 q
b1111111 w
b00011 x
b11110 y
b00110 z
b11111111111111111111111111111110 }
b11111111111111111111111111111110 !!
b00000000000000000000000000000011 "!
b00000000000000000000000000000011 #!
b000000000000000001000 $!
1&!
b00000000000000000000000000000000 '!
#75
0&!
#80
b00000000000000000000000000001100 c
b00000000000000000000000000000000 d
b00000000000000000000000000001000 e
b00011 f
b11110 g
b00000000000000000000000000000100 j
b11111111111111111111111111111110 m
b00110 n
b00101 r
b00000000000000000000000000000011 s
1t
b0000000 u
b000 v
b0000000 w
b00000 x
b00000 y
b00000 z
0{
0|
b00000000000000000000000000000000 }
b00000000000000000000000000000000 !!
b11111111111111111111111111111110 "!
b11111111111111111111111111111110 #!
b000000000000000001100 $!
1&!
#85
0&!
#90
b00000000000000000000000000010000 c
b00000000000000000000000000001100 e
b00000 f
b00000 g
b00000000000000000000000000001000 j
b00000000000000000000000000000000 m
b00000 n
0o
0p
b000 q
b00110 r
b11111111111111111111111111111110 s
b00000000000000000000000000000000 "!
b000000000000000010000 $!
1&!
#95
0&!
#100
b00000000000000000000000000010100 c
b00000000000000000000000000010000 e
b00000000000000000000000000001100 j
b00000 r
0t
b000000000000000010100 $!
1&!
#105
0&!
#110
b00000000000000000000000000011000 c
b00000000000000000000000000010100 e
b00000000000000000000000000010000 j
b000000000000000011000 $!
1&!
#115
0&!
#120
b00000000000000000000000000011100 c
b00000000000000000000000000011000 e
b00000000000000000000000000010100 j
b000000000000000011100 $!
1&!
#125
0&!
#130
b00000000000000000000000000100000 c
b00000000000000000000000000011100 e
b00000000000000000000000000011000 j
b000000000000000100000 $!
1&!
#135
0&!
#140
b00000000000000000000000000100100 c
b00000000000000000000000000100000 e
b00000000000000000000000000011100 j
b000000000000000100100 $!
1&!
#145
0&!
#150
b00000000000000000000000000101000 c
b00000000000000000000000000100100 e
b00000000000000000000000000100000 j
b000000000000000101000 $!
1&!
#155
0&!
#160
b00000000000000000000000000101100 c
b00000000000000000000000000101000 e
b00000000000000000000000000100100 j
b000000000000000101100 $!
1&!
#165
0&!
#170
b00000000000000000000000000110000 c
b00000000000000000000000000101100 e
b00000000000000000000000000101000 j
b000000000000000110000 $!
1&!
#175
0&!
#180
b00000000000000000000000000110100 c
b00000000000000000000000000110000 e
b00000000000000000000000000101100 j
b000000000000000110100 $!
1&!
#185
0&!
#190
b00000000000000000000000000111000 c
b00000000000000000000000000110100 e
b00000000000000000000000000110000 j
b000000000000000111000 $!
1&!
#195
0&!
#200
b00000000000000000000000000111100 c
b00000000000000000000000000111000 e
b00000000000000000000000000110100 j
b000000000000000111100 $!
1&!
#205
0&!
#210
b00000000000000000000000001000000 c
b00000000000000000000000000111100 e
b00000000000000000000000000111000 j
b000000000000001000000 $!
1&!
#215
0&!
#220
b00000000000000000000000001000100 c
b00000000000000000000000001000000 e
b00000000000000000000000000111100 j
b000000000000001000100 $!
1&!
#225
0&!
#230
b00000000000000000000000001001000 c
b00000000000000000000000001000100 e
b00000000000000000000000001000000 j
b000000000000001001000 $!
1&!
#235
0&!
#240
b00000000000000000000000001001100 c
b00000000000000000000000001001000 e
b00000000000000000000000001000100 j
b000000000000001001100 $!
1&!
#245
0&!
#250
b00000000000000000000000001010000 c
b00000000000000000000000001001100 e
b00000000000000000000000001001000 j
b000000000000001010000 $!
1&!
