FiveStage_RISB/wave.vcd
$version Generated by VerilatedVcd $end
$date Wed Feb  1 19:48:38 2023 $end
$timescale 1s $end

 $scope module top $end
  $var wire  1 h! clk_i $end
  $var wire  1 g! rst_i $end
  $scope module coretop $end
   $var wire  1 h! clk_i $end
   $var wire 32 C exemem_memaddr [31:0] $end
   $var wire  1 D exemem_memre $end
   $var wire  1 E exemem_memwe $end
   $var wire  3 F exemem_opfunc3 [2:0] $end
   $var wire  5 @ exemem_rdaddr [4:0] $end
   $var wire 32 A exemem_rddata [31:0] $end
   $var wire  1 B exemem_we $end
   $var wire  1 $ exepipe_je $end
   $var wire 32 # exepipe_jumpaddr [31:0] $end
   $var wire 32 > fwdexe_rs1 [31:0] $end
   $var wire 32 ? fwdexe_rs2 [31:0] $end
   $var wire  1 6 idexe_addsubsel $end
   $var wire 32 0 idexe_imm [31:0] $end
   $var wire  1 7 idexe_jtypesel $end
   $var wire  1 9 idexe_memre $end
   $var wire  1 8 idexe_memwe $end
   $var wire  3 4 idexe_opfunc3 [2:0] $end
   $var wire  3 3 idexe_optype [2:0] $end
   $var wire 32 / idexe_pc [31:0] $end
   $var wire  5 1 idexe_rdaddr [4:0] $end
   $var wire  1 5 idexe_shiftsel $end
   $var wire  1 2 idexe_we $end
   $var wire  5 < idfwd_addr1 [4:0] $end
   $var wire  5 = idfwd_addr2 [4:0] $end
   $var wire 32 : idfwd_rs1 [31:0] $end
   $var wire 32 ; idfwd_rs2 [31:0] $end
   $var wire  1 % idpipectrl_loadusehazard $end
   $var wire  5 - idreg_addr1 [4:0] $end
   $var wire  5 . idreg_addr2 [4:0] $end
   $var wire 32 ) ifid_inst [31:0] $end
   $var wire 32 * ifid_pc [31:0] $end
   $var wire  1 L memrom_memwe $end
   $var wire 32 J memrom_ramaddr [31:0] $end
   $var wire 32 K memrom_ramdata [31:0] $end
   $var wire  5 G memwb_rdaddr [4:0] $end
   $var wire 32 H memwb_rddata [31:0] $end
   $var wire  1 I memwb_we $end
   $var wire 32 ' pc_wire [31:0] $end
   $var wire  1 & pipectrl_flushid $end
   $var wire  1 $ pipectrl_flushif $end
   $var wire  1 % pipectrl_stallif $end
   $var wire  1 % pipectrl_stallpc $end
   $var wire  1 $ pipectrlpc_je $end
   $var wire 32 # pipectrlpc_jumpaddr [31:0] $end
   $var wire 32 + regid_data1 [31:0] $end
   $var wire 32 , regid_data2 [31:0] $end
   $var wire 32 i! romif_inst [31:0] $end
   $var wire 32 ' romif_pc [31:0] $end
   $var wire 32 ( rommem_ramdata [31:0] $end
   $var wire  1 g! rst_i $end
   $var wire  5 M wbreg_rdaddr [4:0] $end
   $var wire 32 N wbreg_rddata [31:0] $end
   $var wire  1 O wbreg_we $end
   $scope module decode0 $end
    $var wire  1 a AUPICtype $end
    $var wire  1 d Btype $end
    $var wire  1 ^ Itype $end
    $var wire  1 c JALRtype $end
    $var wire  1 b JALtype $end
    $var wire  1 ` LUItype $end
    $var wire  1 U Ltype $end
    $var wire  1 _ Rtype $end
    $var wire  1 V Stype $end
    $var wire  1 f addsubsel $end
    $var wire  1 6 addsubsel_o $end
    $var wire  1 h! clk_i $end
    $var wire  1 & flush_i $end
    $var wire  5 < fwd_raddr1_o [4:0] $end
    $var wire  5 = fwd_raddr2_o [4:0] $end
    $var wire 32 j imm [31:0] $end
    $var wire 32 ] immB [31:0] $end
    $var wire 32 X immI [31:0] $end
    $var wire 32 \ immJ [31:0] $end
    $var wire 32 Y immL [31:0] $end
    $var wire 32 Z immS [31:0] $end
    $var wire 32 [ immU [31:0] $end
    $var wire 32 0 imm_o [31:0] $end
    $var wire 32 ) inst_i [31:0] $end
    $var wire  1 g jtypesel $end
    $var wire  1 7 jtypesel_o $end
    $var wire  1 % loaduse_hazard_o $end
    $var wire  1 U mem_re $end
    $var wire  1 9 mem_re_o $end
    $var wire  1 V mem_we $end
    $var wire  1 8 mem_we_o $end
    $var wire  7 P opcode [6:0] $end
    $var wire  3 Q opfunc3 [2:0] $end
    $var wire  3 4 opfunc3_o [2:0] $end
    $var wire  7 R opfunc7 [6:0] $end
    $var wire  3 T optype [2:0] $end
    $var wire  3 3 optype_o [2:0] $end
    $var wire 32 * pc_i [31:0] $end
    $var wire 32 / pc_o [31:0] $end
    $var wire  1 h raddr1_thesame $end
    $var wire  1 i raddr2_thesame $end
    $var wire  5 S rd_addr [4:0] $end
    $var wire  5 1 rd_addr_o [4:0] $end
    $var wire  1 2 rd_we_o $end
    $var wire 32 + reg_data1_i [31:0] $end
    $var wire 32 , reg_data2_i [31:0] $end
    $var wire  1 W reg_we $end
    $var wire  5 - rs1_addr_o [4:0] $end
    $var wire 32 : rs1_o [31:0] $end
    $var wire  5 . rs2_addr_o [4:0] $end
    $var wire 32 ; rs2_o [31:0] $end
    $var wire  1 g! rst_i $end
    $var wire 32 ) rv32inst [31:0] $end
    $var wire  1 e shiftsel $end
    $var wire  1 5 shiftsel_o $end
   $upscope $end
   $scope module exe0 $end
    $var wire  1 6 addsubsel_i $end
    $var wire  1 h! clk_i $end
    $var wire 32 0 imm_i [31:0] $end
    $var wire  1 p je $end
    $var wire  1 $ je_o $end
    $var wire  1 7 jtypesel_i $end
    $var wire 32 n jump_addr [31:0] $end
    $var wire 32 # jump_addr_o [31:0] $end
    $var wire 32 o mem_addr [31:0] $end
    $var wire 32 C mem_addr_o [31:0] $end
    $var wire  1 9 mem_re_i $end
    $var wire  1 D mem_re_o $end
    $var wire  1 8 mem_we_i $end
    $var wire  1 E mem_we_o $end
    $var wire 32 k op1 [31:0] $end
    $var wire 32 l op2 [31:0] $end
    $var wire 32 m op_result [31:0] $end
    $var wire  3 4 opfunc3_i [2:0] $end
    $var wire  3 F opfunc3_o [2:0] $end
    $var wire  3 3 optype_i [2:0] $end
    $var wire 32 / pc_i [31:0] $end
    $var wire  5 1 rd_addr_i [4:0] $end
    $var wire  5 @ rd_addr_o [4:0] $end
    $var wire 32 A rd_data_o [31:0] $end
    $var wire  1 2 rd_we_i $end
    $var wire  1 B rd_we_o $end
    $var wire 32 > rs1_i [31:0] $end
    $var wire 32 ? rs2_i [31:0] $end
    $var wire  1 g! rst_i $end
    $var wire  1 5 shiftsel_i $end
   $upscope $end
   $scope module forwarding0 $end
    $var wire  1 u exe_addr_not0 $end
    $var wire  5 @ exe_rdaddr_i [4:0] $end
    $var wire 32 A exe_rddata_i [31:0] $end
    $var wire  1 B exe_rdwe $end
    $var wire  1 | exedata1_forward $end
    $var wire  1 } exedata2_forward $end
    $var wire  1 s exeid_addr1_same $end
    $var wire  1 t exeid_addr2_same $end
    $var wire  1 x mem_addr_not0 $end
    $var wire  5 G mem_rdaddr_i [4:0] $end
    $var wire 32 H mem_rddata_i [31:0] $end
    $var wire  1 I mem_rdwe $end
    $var wire  1 ~ memdata1_forward $end
    $var wire  1 !! memdata2_forward $end
    $var wire  1 v memid_addr1_same $end
    $var wire  1 w memid_addr2_same $end
    $var wire  5 < rs1_addr_i [4:0] $end
    $var wire 32 : rs1_data_i [31:0] $end
    $var wire 32 > rs1_data_o [31:0] $end
    $var wire  5 = rs2_addr_i [4:0] $end
    $var wire 32 ; rs2_data_i [31:0] $end
    $var wire 32 ? rs2_data_o [31:0] $end
    $var wire  1 { wb_addr_not0 $end
    $var wire  5 M wb_rdaddr_i [4:0] $end
    $var wire 32 N wb_rddata_i [31:0] $end
    $var wire  1 O wb_rdwe $end
    $var wire  1 "! wbdata1_forward $end
    $var wire  1 #! wbdata2_forward $end
    $var wire  1 y wbid_addr1_same $end
    $var wire  1 z wbid_addr2_same $end
   $upscope $end
   $scope module inst_fetch0 $end
    $var wire  1 h! clk_i $end
    $var wire  1 $ flush_i $end
    $var wire 32 i! inst_i [31:0] $end
    $var wire 32 ) inst_o [31:0] $end
    $var wire 32 ' pc_i [31:0] $end
    $var wire 32 * pc_o [31:0] $end
    $var wire  1 g! rst_i $end
    $var wire  1 % stall_i $end
   $upscope $end
   $scope module mem0 $end
    $var wire  1 h! clk_i $end
    $var wire 32 C mem_addr_i [31:0] $end
    $var wire  1 D mem_re_i $end
    $var wire  1 E mem_we_i $end
    $var wire  3 F opfunc3_i [2:0] $end
    $var wire 32 J ram_addr_o [31:0] $end
    $var wire  2 q ram_addr_offset [1:0] $end
    $var wire 32 ( ram_data_i [31:0] $end
    $var wire 32 K ram_data_o [31:0] $end
    $var wire  1 L ram_we_o $end
    $var wire  5 @ rd_addr_i [4:0] $end
    $var wire  5 G rd_addr_o [4:0] $end
    $var wire 32 r rd_data [31:0] $end
    $var wire 32 A rd_data_i [31:0] $end
    $var wire 32 H rd_data_o [31:0] $end
    $var wire  1 B rd_we_i $end
    $var wire  1 I rd_we_o $end
    $var wire  1 g! rst_i $end
   $upscope $end
   $scope module pipectrl0 $end
    $var wire  1 & flushid_o $end
    $var wire  1 $ flushif_o $end
    $var wire  1 $ je_i $end
    $var wire  1 $ je_o $end
    $var wire 32 # jump_addr_i [31:0] $end
    $var wire 32 # jump_addr_o [31:0] $end
    $var wire  1 % loaduse_hazard_i $end
    $var wire  1 % stallif_o $end
    $var wire  1 % stallpc_o $end
   $upscope $end
   $scope module program_counter0 $end
    $var wire  1 h! clk_i $end
    $var wire  1 $ je_i $end
    $var wire 32 # jump_addr_i [31:0] $end
    $var wire 32 ' pc_o [31:0] $end
    $var wire  1 g! rst_i $end
    $var wire  1 % stall_i $end
   $upscope $end
   $scope module regfiles0 $end
    $var wire 32 O! a0 [31:0] $end
    $var wire 32 P! a1 [31:0] $end
    $var wire 32 Q! a2 [31:0] $end
    $var wire 32 R! a3 [31:0] $end
    $var wire 32 S! a4 [31:0] $end
    $var wire 32 T! a5 [31:0] $end
    $var wire 32 U! a6 [31:0] $end
    $var wire 32 V! a7 [31:0] $end
    $var wire  1 h! clk_i $end
    $var wire 32 H! gp [31:0] $end
    $var wire 32 f! i [31:0] $end
    $var wire 32 F! ra [31:0] $end
    $var wire  5 M rd_addr_i [4:0] $end
    $var wire 32 N rd_data_i [31:0] $end
    $var wire  1 O rd_we_i $end
    $var wire  5 - rs1_addr_i [4:0] $end
    $var wire 32 + rs1_data_o [31:0] $end
    $var wire  5 . rs2_addr_i [4:0] $end
    $var wire 32 , rs2_data_o [31:0] $end
    $var wire  1 g! rst_i $end
    $var wire 32 M! s0 [31:0] $end
    $var wire 32 N! s1 [31:0] $end
    $var wire 32 _! s10 [31:0] $end
    $var wire 32 `! s11 [31:0] $end
    $var wire 32 W! s2 [31:0] $end
    $var wire 32 X! s3 [31:0] $end
    $var wire 32 Y! s4 [31:0] $end
    $var wire 32 Z! s5 [31:0] $end
    $var wire 32 [! s6 [31:0] $end
    $var wire 32 \! s7 [31:0] $end
    $var wire 32 ]! s8 [31:0] $end
    $var wire 32 ^! s9 [31:0] $end
    $var wire 32 G! sp [31:0] $end
    $var wire 32 J! t0 [31:0] $end
    $var wire 32 K! t1 [31:0] $end
    $var wire 32 L! t2 [31:0] $end
    $var wire 32 a! t3 [31:0] $end
    $var wire 32 b! t4 [31:0] $end
    $var wire 32 c! t5 [31:0] $end
    $var wire 32 d! t6 [31:0] $end
    $var wire 32 I! tp [31:0] $end
    $var wire  1 e! we $end
    $var wire 32 &! x(0) [31:0] $end
    $var wire 32 '! x(1) [31:0] $end
    $var wire 32 0! x(10) [31:0] $end
    $var wire 32 1! x(11) [31:0] $end
    $var wire 32 2! x(12) [31:0] $end
    $var wire 32 3! x(13) [31:0] $end
    $var wire 32 4! x(14) [31:0] $end
    $var wire 32 5! x(15) [31:0] $end
    $var wire 32 6! x(16) [31:0] $end
    $var wire 32 7! x(17) [31:0] $end
    $var wire 32 8! x(18) [31:0] $end
    $var wire 32 9! x(19) [31:0] $end
    $var wire 32 (! x(2) [31:0] $end
    $var wire 32 :! x(20) [31:0] $end
    $var wire 32 ;! x(21) [31:0] $end
    $var wire 32 <! x(22) [31:0] $end
    $var wire 32 =! x(23) [31:0] $end
    $var wire 32 >! x(24) [31:0] $end
    $var wire 32 ?! x(25) [31:0] $end
    $var wire 32 @! x(26) [31:0] $end
    $var wire 32 A! x(27) [31:0] $end
    $var wire 32 B! x(28) [31:0] $end
    $var wire 32 C! x(29) [31:0] $end
    $var wire 32 )! x(3) [31:0] $end
    $var wire 32 D! x(30) [31:0] $end
    $var wire 32 E! x(31) [31:0] $end
    $var wire 32 *! x(4) [31:0] $end
    $var wire 32 +! x(5) [31:0] $end
    $var wire 32 ,! x(6) [31:0] $end
    $var wire 32 -! x(7) [31:0] $end
    $var wire 32 .! x(8) [31:0] $end
    $var wire 32 /! x(9) [31:0] $end
   $upscope $end
   $scope module rom0 $end
    $var wire 21 $! addr4 [20:0] $end
    $var wire 32 ' addr_i [31:0] $end
    $var wire  1 h! clk_i $end
    $var wire 32 i! inst_o [31:0] $end
    $var wire  1 L mem_we_i $end
    $var wire 32 ' pc_o [31:0] $end
    $var wire 32 J ram_addr_i [31:0] $end
    $var wire 32 K ram_data_i [31:0] $end
    $var wire 32 ( ram_data_o [31:0] $end
    $var wire 21 %! ramaddr4 [20:0] $end
   $upscope $end
   $scope module writeback0 $end
    $var wire  1 h! clk_i $end
    $var wire  5 G rd_addr_i [4:0] $end
    $var wire  5 M rd_addr_o [4:0] $end
    $var wire 32 H rd_data_i [31:0] $end
    $var wire 32 N rd_data_o [31:0] $end
    $var wire  1 I rd_we_i $end
    $var wire  1 O rd_we_o $end
    $var wire  1 g! rst_i $end
   $upscope $end
  $upscope $end
 $upscope $end
$enddefinitions $end


#5
b00000000000000000000000000000000 #
0$
0%
0&
b00000000000000000000000000000000 '
b00000000000100000000000110010011 (
b00000000000000000000000000000000 )
b00000000000000000000000000000000 *
b00000000000000000000000000000000 +
b00000000000000000000000000000000 ,
b00000 -
b00000 .
b00000000000000000000000000000000 /
b00000000000000000000000000000000 0
b00000 1
02
b000 3
b000 4
05
06
07
08
09
b00000000000000000000000000000000 :
b00000000000000000000000000000000 ;
b00000 <
b00000 =
b00000000000000000000000000000000 >
b00000000000000000000000000000000 ?
b00000 @
b00000000000000000000000000000000 A
0B
b00000000000000000000000000000000 C
0D
0E
b000 F
b00000 G
b00000000000000000000000000000000 H
0I
b00000000000000000000000000000000 J
b00000000000000000000000000000000 K
0L
b00000 M
b00000000000000000000000000000000 N
0O
b0000000 P
b000 Q
b0000000 R
b00000 S
b111 T
0U
0V
0W
b00000000000000000000000000000000 X
b00000000000000000000000000000000 Y
b00000000000000000000000000000000 Z
b00000000000000000000000000000000 [
b00000000000000000000000000000000 \
b00000000000000000000000000000000 ]
0^
0_
0`
0a
0b
0c
0d
0e
0f
0g
0h
0i
b00000000000000000000000000000000 j
b00000000000000000000000000000000 k
b00000000000000000000000000000000 l
b00000000000000000000000000000000 m
b00000000000000000000000000000000 n
b00000000000000000000000000000000 o
0p
b00 q
b00000000000000000000000000000000 r
1s
1t
0u
1v
1w
0x
1y
1z
0{
0|
0}
0~
0!!
0"!
0#!
b000000000000000000000 $!
b000000000000000000000 %!
b00000000000000000000000000000000 &!
b00000000000000000000000000000000 '!
b00000000000000000000000000000000 (!
b00000000000000000000000000000000 )!
b00000000000000000000000000000000 *!
b00000000000000000000000000000000 +!
b00000000000000000000000000000000 ,!
b00000000000000000000000000000000 -!
b00000000000000000000000000000000 .!
b00000000000000000000000000000000 /!
b00000000000000000000000000000000 0!
b00000000000000000000000000000000 1!
b00000000000000000000000000000000 2!
b00000000000000000000000000000000 3!
b00000000000000000000000000000000 4!
b00000000000000000000000000000000 5!
b00000000000000000000000000000000 6!
b00000000000000000000000000000000 7!
b00000000000000000000000000000000 8!
b00000000000000000000000000000000 9!
b00000000000000000000000000000000 :!
b00000000000000000000000000000000 ;!
b00000000000000000000000000000000 <!
b00000000000000000000000000000000 =!
b00000000000000000000000000000000 >!
b00000000000000000000000000000000 ?!
b00000000000000000000000000000000 @!
b00000000000000000000000000000000 A!
b00000000000000000000000000000000 B!
b00000000000000000000000000000000 C!
b00000000000000000000000000000000 D!
b00000000000000000000000000000000 E!
b00000000000000000000000000000000 F!
b00000000000000000000000000000000 G!
b00000000000000000000000000000000 H!
b00000000000000000000000000000000 I!
b00000000000000000000000000000000 J!
b00000000000000000000000000000000 K!
b00000000000000000000000000000000 L!
b00000000000000000000000000000000 M!
b00000000000000000000000000000000 N!
b00000000000000000000000000000000 O!
b00000000000000000000000000000000 P!
b00000000000000000000000000000000 Q!
b00000000000000000000000000000000 R!
b00000000000000000000000000000000 S!
b00000000000000000000000000000000 T!
b00000000000000000000000000000000 U!
b00000000000000000000000000000000 V!
b00000000000000000000000000000000 W!
b00000000000000000000000000000000 X!
b00000000000000000000000000000000 Y!
b00000000000000000000000000000000 Z!
b00000000000000000000000000000000 [!
b00000000000000000000000000000000 \!
b00000000000000000000000000000000 ]!
b00000000000000000000000000000000 ^!
b00000000000000000000000000000000 _!
b00000000000000000000000000000000 `!
b00000000000000000000000000000000 a!
b00000000000000000000000000000000 b!
b00000000000000000000000000000000 c!
b00000000000000000000000000000000 d!
0e!
b00000000000000000000000000000000 f!
1g!
0h!
b00000000000100000000000110010011 i!
#10
b00000000000000000000000000100000 f!
1h!
#15
0h!
#20
1h!
#25
0h!
#30
1h!
#35
0h!
#40
1h!
#45
0h!
#50
1h!
#55
0g!
0h!
#60
b00000000000000000000000000000100 '
b00000000000100000000000110010011 )
b00001 .
b111 3
b0010011 P
b00011 S
b001 T
1W
b00000000000000000000000000000001 X
b00000000000000000000000000000001 Y
b00000000000000000000000000000011 Z
b00000000000100000000000000000000 [
b00000000000000000000100000000000 \
b00000000000000000000100000000010 ]
1^
1h
b00000000000000000000000000000001 j
b000000000000000000100 $!
1h!
b00000000000100000000000100010011 i!
#65
0h!
#70
b00000000000000000000000000001000 '
b00000000000100000000000100010011 )
b00000000000000000000000000000100 *
b00000000000000000000000000000001 0
b00011 1
12
b001 3
b00001 =
b00010 S
b00000000000000000000000000000010 Z
b00000000000000000000000000000010 ]
0h
b00000000000000000000000000000001 l
b00000000000000000000000000000001 m
b00000000000000000000000000000001 o
0t
0w
0z
b000000000000000001000 $!
1h!
b00000000001100010001100001100011 i!
#75
0h!
#80
b00000000000000000000000000001100 '
b00000000001100010001100001100011 )
b00000000000000000000000000001000 *
b00010 -
b00011 .
b00000000000000000000000000000100 /
b00010 1
b00011 @
b00000000000000000000000000000001 A
1B
b00000000000000000000000000000001 C
b1100011 P
b001 Q
b10000 S
b010 T
0W
b00000000000000000000000000000011 X
b00000000000000000000000000000011 Y
b00000000000000000000000000010000 Z
b00000000001100010001000000000000 [
b00000000000000010001100000000010 \
b00000000000000000000000000010000 ]
0^
1d
1h
b00000000000000000000000000010000 j
b01 q
b00000000000000000000000000000001 r
0s
1u
b000000000000000001100 $!
1h!
b00000000000100000000010100010011 i!
#85
0h!
#90
b00000000000000000000000000010000 '
b00000000000100000000010100010011 )
b00000000000000000000000000001100 *
b00000 -
b00001 .
b00000000000000000000000000001000 /
b00000000000000000000000000010000 0
b10000 1
02
b010 3
b001 4
b00010 <
b00011 =
b00000000000000000000000000000001 >
b00000000000000000000000000000001 ?
b00010 @
b00011 G
b00000000000000000000000000000001 H
1I
b0010011 P
b000 Q
b01010 S
b001 T
1W
b00000000000000000000000000000001 X
b00000000000000000000000000000001 Y
b00000000000000000000000000001010 Z
b00000000000100000000000000000000 [
b00000000000000000000100000000000 \
b00000000000000000000000000001010 ]
1^
0d
0h
b00000000000000000000000000000001 j
b00000000000000000000000000000001 k
b00000000000000000000000000000000 m
b00000000000000000000000000011000 n
b00000000000000000000000000010001 o
1s
0v
1w
1x
0y
1|
1!!
b000000000000000010000 $!
1h!
b00000000001100000000010110010011 i!
#95
0h!
#100
b00000000000000000000000000011000 #
b00000000000000000000000000010100 '
b00000000001100000000010110010011 )
b00000000000000000000000000010000 *
b00000000000000000000000000000001 ,
b00011 .
b00000000000000000000000000001100 /
b00000000000000000000000000000001 0
b01010 1
12
b001 3
b000 4
b00000 <
b00001 =
b00000000000000000000000000000000 >
b00000000000000000000000000000000 ?
b10000 @
b00000000000000000000000000000000 A
0B
b00000000000000000000000000010001 C
b001 F
b00010 G
b00011 M
b00000000000000000000000000000001 N
1O
b01011 S
b00000000000000000000000000000011 X
b00000000000000000000000000000011 Y
b00000000000000000000000000001011 Z
b00000000001100000000000000000000 [
b00000000000000000000100000000010 \
b00000000000000000000100000001010 ]
b00000000000000000000000000000011 j
b00000000000000000000000000000000 k
b00000000000000000000000000000001 m
b00000000000000000000000000000000 n
b00000000000000000000000000000001 o
b00000000000000000000000000000000 r
0s
0w
1{
0|
0!!
b000000000000000010100 $!
1e!
1h!
b00000000101101010001011001100011 i!
#105
0h!
#110
b00000000000000000000000000000000 #
b00000000000000000000000000011000 '
b00000000101101010001011001100011 )
b00000000000000000000000000010100 *
b00000000000000000000000000000000 ,
b01010 -
b01011 .
b00000000000000000000000000010000 /
b00000000000000000000000000000011 0
b01011 1
b00000000000000000000000000000001 ;
b00011 =
b00000000000000000000000000000001 ?
b01010 @
b00000000000000000000000000000001 A
1B
b00000000000000000000000000000001 C
b000 F
b10000 G
b00000000000000000000000000000000 H
0I
b00010 M
b1100011 P
b001 Q
b01100 S
b010 T
0W
b00000000000000000000000000001011 X
b00000000000000000000000000001011 Y
b00000000000000000000000000001100 Z
b00000000101101010001000000000000 [
b00000000000001010001100000001010 \
b00000000000000000000000000001100 ]
0^
1d
1i
b00000000000000000000000000001100 j
b00000000000000000000000000000011 l
b00000000000000000000000000000011 m
b00000000000000000000000000000011 o
b00000000000000000000000000000001 r
b000000000000000011000 $!
b00000000000000000000000000000001 )!
b00000000000000000000000000000001 H!
1h!
b00000000000100000000010000010011 i!
#115
0h!
#120
b00000000000000000000000000011100 '
b00000000000100000000010000010011 )
b00000000000000000000000000011000 *
b00000 -
b00001 .
b00000000000000000000000000010100 /
b00000000000000000000000000001100 0
b01100 1
02
b010 3
b001 4
b00000000000000000000000000000000 ;
b01010 <
b01011 =
b00000000000000000000000000000001 >
b00000000000000000000000000000011 ?
b01011 @
b00000000000000000000000000000011 A
b00000000000000000000000000000011 C
b01010 G
b00000000000000000000000000000001 H
1I
b10000 M
b00000000000000000000000000000000 N
0O
b0010011 P
b000 Q
b01000 S
b001 T
1W
b00000000000000000000000000000001 X
b00000000000000000000000000000001 Y
b00000000000000000000000000001000 Z
b00000000000100000000000000000000 [
b00000000000000000000100000000000 \
b00000000000000000000000000001000 ]
1^
0d
0i
b00000000000000000000000000000001 j
b00000000000000000000000000000001 k
b00000000000000000000000000000000 m
b00000000000000000000000000100000 n
b00000000000000000000000000001101 o
1p
b11 q
b00000000000000000000000000000011 r
1t
1v
1}
1~
b000000000000000011100 $!
b00000000000000000000000000000001 (!
b00000000000000000000000000000001 G!
0e!
1h!
b00000000001000000000010010010011 i!
#125
0h!
#130
b00000000000000000000000000100000 #
1$
1&
b00000000000000000000000000100000 '
b00000000001000000000010010010011 )
b00000000000000000000000000011100 *
b00000000000000000000000000000001 ,
b00010 .
b00000000000000000000000000011000 /
b00000000000000000000000000000001 0
b01000 1
12
b001 3
b000 4
b00000 <
b00001 =
b00000000000000000000000000000000 >
b00000000000000000000000000000000 ?
b01100 @
b00000000000000000000000000000000 A
0B
b00000000000000000000000000001101 C
b001 F
b01011 G
b00000000000000000000000000000011 H
b01010 M
b00000000000000000000000000000001 N
1O
b01001 S
b00000000000000000000000000000010 X
b00000000000000000000000000000010 Y
b00000000000000000000000000001001 Z
b00000000001000000000000000000000 [
b00000000000000000000000000000010 \
b00000000000000000000100000001000 ]
b00000000000000000000000000000010 j
b00000000000000000000000000000000 k
b00000000000000000000000000000001 l
b00000000000000000000000000000001 m
b00000000000000000000000000000000 n
b00000000000000000000000000000001 o
0p
b01 q
b00000000000000000000000000000000 r
0t
0v
0}
0~
b000000000000000100000 $!
1e!
1h!
b00000000000000000000000000000000 i!
#135
0h!
#140
b00000000000000000000000000000000 #
0$
0&
b00000000000000000000000000000000 )
b00000000000000000000000000000000 *
b00000000000000000000000000000000 ,
b00000 .
b00000000000000000000000000000000 /
b00000000000000000000000000000000 0
b00000 1
02
b000 3
b00000 =
b01000 @
b00000000000000000000000000000001 A
1B
b00000000000000000000000000000001 C
b000 F
b01100 G
b00000000000000000000000000000000 H
0I
b01011 M
b00000000000000000000000000000011 N
b0000000 P
b00000 S
b111 T
0W
b00000000000000000000000000000000 X
b00000000000000000000000000000000 Y
b00000000000000000000000000000000 Z
b00000000000000000000000000000000 [
b00000000000000000000000000000000 \
b00000000000000000000000000000000 ]
0^
b00000000000000000000000000000000 j
b00000000000000000000000000000000 l
b00000000000000000000000000000000 m
b00000000000000000000000000000000 o
b00000000000000000000000000000001 r
b00000000000000000000000000000001 0!
b00000000000000000000000000000001 O!
1h!
#145
0h!
#150
b00000000000000000000000000100100 '
b00000000000000000000000000100000 *
b111 3
b00000 @
b00000000000000000000000000000000 A
0B
b00000000000000000000000000000000 C
b01000 G
b00000000000000000000000000000001 H
1I
b01100 M
b00000000000000000000000000000000 N
0O
b00 q
b00000000000000000000000000000000 r
1s
1t
0u
b000000000000000100100 $!
b00000000000000000000000000000011 1!
b00000000000000000000000000000011 P!
0e!
1h!
#155
0h!
#160
b00000000000000000000000000101000 '
b00000000000000000000000000100100 *
b00000000000000000000000000100000 /
b00000 G
b00000000000000000000000000000000 H
0I
b01000 M
b00000000000000000000000000000001 N
1O
1v
1w
0x
b000000000000000101000 $!
1e!
1h!
#165
0h!
#170
b00000000000000000000000000101100 '
b00000000000000000000000000101000 *
b00000000000000000000000000100100 /
b00000 M
b00000000000000000000000000000000 N
0O
1y
1z
0{
b000000000000000101100 $!
b00000000000000000000000000000001 .!
b00000000000000000000000000000001 M!
0e!
1h!
#175
0h!
#180
b00000000000000000000000000110000 '
b00000000000000000000000000101100 *
b00000000000000000000000000101000 /
b000000000000000110000 $!
1h!
#185
0h!
#190
b00000000000000000000000000110100 '
b00000000000000000000000000110000 *
b00000000000000000000000000101100 /
b000000000000000110100 $!
1h!
#195
0h!
#200
b00000000000000000000000000111000 '
b00000000000000000000000000110100 *
b00000000000000000000000000110000 /
b000000000000000111000 $!
1h!
#205
0h!
#210
b00000000000000000000000000111100 '
b00000000000000000000000000111000 *
b00000000000000000000000000110100 /
b000000000000000111100 $!
1h!
#215
0h!
#220
b00000000000000000000000001000000 '
b00000000000000000000000000111100 *
b00000000000000000000000000111000 /
b000000000000001000000 $!
1h!
#225
0h!
#230
b00000000000000000000000001000100 '
b00000000000000000000000001000000 *
b00000000000000000000000000111100 /
b000000000000001000100 $!
1h!
#235
0h!
#240
b00000000000000000000000001001000 '
b00000000000000000000000001000100 *
b00000000000000000000000001000000 /
b000000000000001001000 $!
1h!
#245
0h!
#250
b00000000000000000000000001001100 '
b00000000000000000000000001001000 *
b00000000000000000000000001000100 /
b000000000000001001100 $!
1h!
#255
0h!
#260
b00000000000000000000000001010000 '
b00000000000000000000000001001100 *
b00000000000000000000000001001000 /
b000000000000001010000 $!
1h!
#265
0h!
#270
b00000000000000000000000001010100 '
b00000000000000000000000001010000 *
b00000000000000000000000001001100 /
b000000000000001010100 $!
1h!
#275
0h!
#280
b00000000000000000000000001011000 '
b00000000000000000000000001010100 *
b00000000000000000000000001010000 /
b000000000000001011000 $!
1h!
#285
0h!
#290
b00000000000000000000000001011100 '
b00000000000000000000000001011000 *
b00000000000000000000000001010100 /
b000000000000001011100 $!
1h!
#295
0h!
#300
b00000000000000000000000001100000 '
b00000000000000000000000001011100 *
b00000000000000000000000001011000 /
b000000000000001100000 $!
1h!
#305
0h!
#310
b00000000000000000000000001100100 '
b00000000000000000000000001100000 *
b00000000000000000000000001011100 /
b000000000000001100100 $!
1h!
#315
0h!
#320
b00000000000000000000000001101000 '
b00000000000000000000000001100100 *
b00000000000000000000000001100000 /
b000000000000001101000 $!
1h!
#325
0h!
#330
b00000000000000000000000001101100 '
b00000000000000000000000001101000 *
b00000000000000000000000001100100 /
b000000000000001101100 $!
1h!
#335
0h!
#340
b00000000000000000000000001110000 '
b00000000000000000000000001101100 *
b00000000000000000000000001101000 /
b000000000000001110000 $!
1h!
#345
0h!
#350
b00000000000000000000000001110100 '
b00000000000000000000000001110000 *
b00000000000000000000000001101100 /
b000000000000001110100 $!
1h!
#355
0h!
#360
b00000000000000000000000001111000 '
b00000000000000000000000001110100 *
b00000000000000000000000001110000 /
b000000000000001111000 $!
1h!
#365
0h!
#370
b00000000000000000000000001111100 '
b00000000000000000000000001111000 *
b00000000000000000000000001110100 /
b000000000000001111100 $!
1h!
#375
0h!
#380
b00000000000000000000000010000000 '
b00000000000000000000000001111100 *
b00000000000000000000000001111000 /
b000000000000010000000 $!
1h!
#385
0h!
#390
b00000000000000000000000010000100 '
b00000000000000000000000010000000 *
b00000000000000000000000001111100 /
b000000000000010000100 $!
1h!
#395
0h!
#400
b00000000000000000000000010001000 '
b00000000000000000000000010000100 *
b00000000000000000000000010000000 /
b000000000000010001000 $!
1h!
#405
0h!
#410
b00000000000000000000000010001100 '
b00000000000000000000000010001000 *
b00000000000000000000000010000100 /
b000000000000010001100 $!
1h!
#415
0h!
#420
b00000000000000000000000010010000 '
b00000000000000000000000010001100 *
b00000000000000000000000010001000 /
b000000000000010010000 $!
1h!
#425
0h!
#430
b00000000000000000000000010010100 '
b00000000000000000000000010010000 *
b00000000000000000000000010001100 /
b000000000000010010100 $!
1h!
#435
0h!
#440
b00000000000000000000000010011000 '
b00000000000000000000000010010100 *
b00000000000000000000000010010000 /
b000000000000010011000 $!
1h!
#445
0h!
#450
b00000000000000000000000010011100 '
b00000000000000000000000010011000 *
b00000000000000000000000010010100 /
b000000000000010011100 $!
1h!
#455
0h!
