FiveStage_RISB/wave.vcd
$version Generated by VerilatedVcd $end
$date Wed Feb  1 20:30:40 2023 $end
$timescale 1s $end

 $scope module top $end
  $var wire  1 f! clk_i $end
  $var wire  1 e! rst_i $end
  $scope module coretop $end
   $var wire  1 f! clk_i $end
   $var wire 32 C exemem_memaddr [31:0] $end
   $var wire  1 D exemem_memre $end
   $var wire  1 E exemem_memwe $end
   $var wire  3 F exemem_opfunc3 [2:0] $end
   $var wire  5 @ exemem_rdaddr [4:0] $end
   $var wire 32 A exemem_rddata [31:0] $end
   $var wire  1 B exemem_we $end
   $var wire  1 $ exepipe_je $end
   $var wire 32 # exepipe_jumpaddr [31:0] $end
   $var wire 32 > fwdexe_rs1 [31:0] $end
   $var wire 32 ? fwdexe_rs2 [31:0] $end
   $var wire  1 6 idexe_addsubsel $end
   $var wire 32 0 idexe_imm [31:0] $end
   $var wire  1 7 idexe_jtypesel $end
   $var wire  1 9 idexe_memre $end
   $var wire  1 8 idexe_memwe $end
   $var wire  3 4 idexe_opfunc3 [2:0] $end
   $var wire  3 3 idexe_optype [2:0] $end
   $var wire 32 / idexe_pc [31:0] $end
   $var wire  5 1 idexe_rdaddr [4:0] $end
   $var wire  1 5 idexe_shiftsel $end
   $var wire  1 2 idexe_we $end
   $var wire  5 < idfwd_addr1 [4:0] $end
   $var wire  5 = idfwd_addr2 [4:0] $end
   $var wire 32 : idfwd_rs1 [31:0] $end
   $var wire 32 ; idfwd_rs2 [31:0] $end
   $var wire  1 % idpipectrl_loadusehazard $end
   $var wire  5 - idreg_addr1 [4:0] $end
   $var wire  5 . idreg_addr2 [4:0] $end
   $var wire 32 ) ifid_inst [31:0] $end
   $var wire 32 * ifid_pc [31:0] $end
   $var wire  1 L memrom_memwe $end
   $var wire 32 J memrom_ramaddr [31:0] $end
   $var wire 32 K memrom_ramdata [31:0] $end
   $var wire  5 G memwb_rdaddr [4:0] $end
   $var wire 32 H memwb_rddata [31:0] $end
   $var wire  1 I memwb_we $end
   $var wire 32 ' pc_wire [31:0] $end
   $var wire  1 & pipectrl_flushid $end
   $var wire  1 $ pipectrl_flushif $end
   $var wire  1 % pipectrl_stallif $end
   $var wire  1 % pipectrl_stallpc $end
   $var wire  1 $ pipectrlpc_je $end
   $var wire 32 # pipectrlpc_jumpaddr [31:0] $end
   $var wire 32 + regid_data1 [31:0] $end
   $var wire 32 , regid_data2 [31:0] $end
   $var wire 32 g! romif_inst [31:0] $end
   $var wire 32 ' romif_pc [31:0] $end
   $var wire 32 ( rommem_ramdata [31:0] $end
   $var wire  1 e! rst_i $end
   $var wire  5 M wbreg_rdaddr [4:0] $end
   $var wire 32 N wbreg_rddata [31:0] $end
   $var wire  1 O wbreg_we $end
   $scope module decode0 $end
    $var wire  1 a AUPICtype $end
    $var wire  1 d Btype $end
    $var wire  1 ^ Itype $end
    $var wire  1 c JALRtype $end
    $var wire  1 b JALtype $end
    $var wire  1 ` LUItype $end
    $var wire  1 U Ltype $end
    $var wire  1 _ Rtype $end
    $var wire  1 V Stype $end
    $var wire  1 f addsubsel $end
    $var wire  1 6 addsubsel_o $end
    $var wire  1 f! clk_i $end
    $var wire  1 & flush_i $end
    $var wire  5 < fwd_raddr1_o [4:0] $end
    $var wire  5 = fwd_raddr2_o [4:0] $end
    $var wire 32 j imm [31:0] $end
    $var wire 32 ] immB [31:0] $end
    $var wire 32 X immI [31:0] $end
    $var wire 32 \ immJ [31:0] $end
    $var wire 32 Y immL [31:0] $end
    $var wire 32 Z immS [31:0] $end
    $var wire 32 [ immU [31:0] $end
    $var wire 32 0 imm_o [31:0] $end
    $var wire 32 ) inst_i [31:0] $end
    $var wire  1 g jtypesel $end
    $var wire  1 7 jtypesel_o $end
    $var wire  1 % loaduse_hazard_o $end
    $var wire  1 U mem_re $end
    $var wire  1 9 mem_re_o $end
    $var wire  1 V mem_we $end
    $var wire  1 8 mem_we_o $end
    $var wire  7 P opcode [6:0] $end
    $var wire  3 Q opfunc3 [2:0] $end
    $var wire  3 4 opfunc3_o [2:0] $end
    $var wire  7 R opfunc7 [6:0] $end
    $var wire  3 T optype [2:0] $end
    $var wire  3 3 optype_o [2:0] $end
    $var wire 32 * pc_i [31:0] $end
    $var wire 32 / pc_o [31:0] $end
    $var wire  1 h raddr1_thesame $end
    $var wire  1 i raddr2_thesame $end
    $var wire  5 S rd_addr [4:0] $end
    $var wire  5 1 rd_addr_o [4:0] $end
    $var wire  1 2 rd_we_o $end
    $var wire 32 + reg_data1_i [31:0] $end
    $var wire 32 , reg_data2_i [31:0] $end
    $var wire  1 W reg_we $end
    $var wire  5 - rs1_addr_o [4:0] $end
    $var wire 32 : rs1_o [31:0] $end
    $var wire  5 . rs2_addr_o [4:0] $end
    $var wire 32 ; rs2_o [31:0] $end
    $var wire  1 e! rst_i $end
    $var wire 32 ) rv32inst [31:0] $end
    $var wire  1 e shiftsel $end
    $var wire  1 5 shiftsel_o $end
   $upscope $end
   $scope module dpram0 $end
    $var wire 21 "! addr4 [20:0] $end
    $var wire 32 ' addr_i [31:0] $end
    $var wire  1 f! clk_i $end
    $var wire 32 g! inst_o [31:0] $end
    $var wire  1 L mem_we_i $end
    $var wire 32 ' pc_o [31:0] $end
    $var wire 32 J ram_addr_i [31:0] $end
    $var wire 32 K ram_data_i [31:0] $end
    $var wire 32 ( ram_data_o [31:0] $end
    $var wire 21 #! ramaddr4 [20:0] $end
   $upscope $end
   $scope module exe0 $end
    $var wire  1 6 addsubsel_i $end
    $var wire  1 f! clk_i $end
    $var wire 32 0 imm_i [31:0] $end
    $var wire  1 $ je_o $end
    $var wire  1 7 jtypesel_i $end
    $var wire 32 # jump_addr_o [31:0] $end
    $var wire 32 n mem_addr [31:0] $end
    $var wire 32 C mem_addr_o [31:0] $end
    $var wire  1 9 mem_re_i $end
    $var wire  1 D mem_re_o $end
    $var wire  1 8 mem_we_i $end
    $var wire  1 E mem_we_o $end
    $var wire 32 k op1 [31:0] $end
    $var wire 32 l op2 [31:0] $end
    $var wire 32 m op_result [31:0] $end
    $var wire  3 4 opfunc3_i [2:0] $end
    $var wire  3 F opfunc3_o [2:0] $end
    $var wire  3 3 optype_i [2:0] $end
    $var wire 32 / pc_i [31:0] $end
    $var wire  5 1 rd_addr_i [4:0] $end
    $var wire  5 @ rd_addr_o [4:0] $end
    $var wire 32 A rd_data_o [31:0] $end
    $var wire  1 2 rd_we_i $end
    $var wire  1 B rd_we_o $end
    $var wire 32 > rs1_i [31:0] $end
    $var wire 32 ? rs2_i [31:0] $end
    $var wire  1 e! rst_i $end
    $var wire  1 5 shiftsel_i $end
   $upscope $end
   $scope module forwarding0 $end
    $var wire  1 s exe_addr_not0 $end
    $var wire  5 @ exe_rdaddr_i [4:0] $end
    $var wire 32 A exe_rddata_i [31:0] $end
    $var wire  1 B exe_rdwe $end
    $var wire  1 z exedata1_forward $end
    $var wire  1 { exedata2_forward $end
    $var wire  1 q exeid_addr1_same $end
    $var wire  1 r exeid_addr2_same $end
    $var wire  1 v mem_addr_not0 $end
    $var wire  5 G mem_rdaddr_i [4:0] $end
    $var wire 32 H mem_rddata_i [31:0] $end
    $var wire  1 I mem_rdwe $end
    $var wire  1 | memdata1_forward $end
    $var wire  1 } memdata2_forward $end
    $var wire  1 t memid_addr1_same $end
    $var wire  1 u memid_addr2_same $end
    $var wire  5 < rs1_addr_i [4:0] $end
    $var wire 32 : rs1_data_i [31:0] $end
    $var wire 32 > rs1_data_o [31:0] $end
    $var wire  5 = rs2_addr_i [4:0] $end
    $var wire 32 ; rs2_data_i [31:0] $end
    $var wire 32 ? rs2_data_o [31:0] $end
    $var wire  1 y wb_addr_not0 $end
    $var wire  5 M wb_rdaddr_i [4:0] $end
    $var wire 32 N wb_rddata_i [31:0] $end
    $var wire  1 O wb_rdwe $end
    $var wire  1 ~ wbdata1_forward $end
    $var wire  1 !! wbdata2_forward $end
    $var wire  1 w wbid_addr1_same $end
    $var wire  1 x wbid_addr2_same $end
   $upscope $end
   $scope module inst_fetch0 $end
    $var wire  1 f! clk_i $end
    $var wire  1 $ flush_i $end
    $var wire 32 g! inst_i [31:0] $end
    $var wire 32 ) inst_o [31:0] $end
    $var wire 32 ' pc_i [31:0] $end
    $var wire 32 * pc_o [31:0] $end
    $var wire  1 e! rst_i $end
    $var wire  1 % stall_i $end
   $upscope $end
   $scope module mem0 $end
    $var wire  1 f! clk_i $end
    $var wire 32 C mem_addr_i [31:0] $end
    $var wire  1 D mem_re_i $end
    $var wire  1 E mem_we_i $end
    $var wire  3 F opfunc3_i [2:0] $end
    $var wire 32 J ram_addr_o [31:0] $end
    $var wire  2 o ram_addr_offset [1:0] $end
    $var wire 32 ( ram_data_i [31:0] $end
    $var wire 32 K ram_data_o [31:0] $end
    $var wire  1 L ram_we_o $end
    $var wire  5 @ rd_addr_i [4:0] $end
    $var wire  5 G rd_addr_o [4:0] $end
    $var wire 32 p rd_data [31:0] $end
    $var wire 32 A rd_data_i [31:0] $end
    $var wire 32 H rd_data_o [31:0] $end
    $var wire  1 B rd_we_i $end
    $var wire  1 I rd_we_o $end
    $var wire  1 e! rst_i $end
   $upscope $end
   $scope module pipectrl0 $end
    $var wire  1 & flushid_o $end
    $var wire  1 $ flushif_o $end
    $var wire  1 $ je_i $end
    $var wire  1 $ je_o $end
    $var wire 32 # jump_addr_i [31:0] $end
    $var wire 32 # jump_addr_o [31:0] $end
    $var wire  1 % loaduse_hazard_i $end
    $var wire  1 % stallif_o $end
    $var wire  1 % stallpc_o $end
   $upscope $end
   $scope module program_counter0 $end
    $var wire  1 f! clk_i $end
    $var wire  1 $ je_i $end
    $var wire 32 # jump_addr_i [31:0] $end
    $var wire 32 ' pc_o [31:0] $end
    $var wire  1 e! rst_i $end
    $var wire  1 % stall_i $end
   $upscope $end
   $scope module regfiles0 $end
    $var wire 32 M! a0 [31:0] $end
    $var wire 32 N! a1 [31:0] $end
    $var wire 32 O! a2 [31:0] $end
    $var wire 32 P! a3 [31:0] $end
    $var wire 32 Q! a4 [31:0] $end
    $var wire 32 R! a5 [31:0] $end
    $var wire 32 S! a6 [31:0] $end
    $var wire 32 T! a7 [31:0] $end
    $var wire  1 f! clk_i $end
    $var wire 32 F! gp [31:0] $end
    $var wire 32 d! i [31:0] $end
    $var wire 32 D! ra [31:0] $end
    $var wire  5 M rd_addr_i [4:0] $end
    $var wire 32 N rd_data_i [31:0] $end
    $var wire  1 O rd_we_i $end
    $var wire  5 - rs1_addr_i [4:0] $end
    $var wire 32 + rs1_data_o [31:0] $end
    $var wire  5 . rs2_addr_i [4:0] $end
    $var wire 32 , rs2_data_o [31:0] $end
    $var wire  1 e! rst_i $end
    $var wire 32 K! s0 [31:0] $end
    $var wire 32 L! s1 [31:0] $end
    $var wire 32 ]! s10 [31:0] $end
    $var wire 32 ^! s11 [31:0] $end
    $var wire 32 U! s2 [31:0] $end
    $var wire 32 V! s3 [31:0] $end
    $var wire 32 W! s4 [31:0] $end
    $var wire 32 X! s5 [31:0] $end
    $var wire 32 Y! s6 [31:0] $end
    $var wire 32 Z! s7 [31:0] $end
    $var wire 32 [! s8 [31:0] $end
    $var wire 32 \! s9 [31:0] $end
    $var wire 32 E! sp [31:0] $end
    $var wire 32 H! t0 [31:0] $end
    $var wire 32 I! t1 [31:0] $end
    $var wire 32 J! t2 [31:0] $end
    $var wire 32 _! t3 [31:0] $end
    $var wire 32 `! t4 [31:0] $end
    $var wire 32 a! t5 [31:0] $end
    $var wire 32 b! t6 [31:0] $end
    $var wire 32 G! tp [31:0] $end
    $var wire  1 c! we $end
    $var wire 32 $! x(0) [31:0] $end
    $var wire 32 %! x(1) [31:0] $end
    $var wire 32 .! x(10) [31:0] $end
    $var wire 32 /! x(11) [31:0] $end
    $var wire 32 0! x(12) [31:0] $end
    $var wire 32 1! x(13) [31:0] $end
    $var wire 32 2! x(14) [31:0] $end
    $var wire 32 3! x(15) [31:0] $end
    $var wire 32 4! x(16) [31:0] $end
    $var wire 32 5! x(17) [31:0] $end
    $var wire 32 6! x(18) [31:0] $end
    $var wire 32 7! x(19) [31:0] $end
    $var wire 32 &! x(2) [31:0] $end
    $var wire 32 8! x(20) [31:0] $end
    $var wire 32 9! x(21) [31:0] $end
    $var wire 32 :! x(22) [31:0] $end
    $var wire 32 ;! x(23) [31:0] $end
    $var wire 32 <! x(24) [31:0] $end
    $var wire 32 =! x(25) [31:0] $end
    $var wire 32 >! x(26) [31:0] $end
    $var wire 32 ?! x(27) [31:0] $end
    $var wire 32 @! x(28) [31:0] $end
    $var wire 32 A! x(29) [31:0] $end
    $var wire 32 '! x(3) [31:0] $end
    $var wire 32 B! x(30) [31:0] $end
    $var wire 32 C! x(31) [31:0] $end
    $var wire 32 (! x(4) [31:0] $end
    $var wire 32 )! x(5) [31:0] $end
    $var wire 32 *! x(6) [31:0] $end
    $var wire 32 +! x(7) [31:0] $end
    $var wire 32 ,! x(8) [31:0] $end
    $var wire 32 -! x(9) [31:0] $end
   $upscope $end
   $scope module writeback0 $end
    $var wire  1 f! clk_i $end
    $var wire  5 G rd_addr_i [4:0] $end
    $var wire  5 M rd_addr_o [4:0] $end
    $var wire 32 H rd_data_i [31:0] $end
    $var wire 32 N rd_data_o [31:0] $end
    $var wire  1 I rd_we_i $end
    $var wire  1 O rd_we_o $end
    $var wire  1 e! rst_i $end
   $upscope $end
  $upscope $end
 $upscope $end
$enddefinitions $end


#5
b00000000000000000000000000000000 #
0$
0%
0&
b00000000000000000000000000000000 '
b00000000000100000000000110010011 (
b00000000000000000000000000000000 )
b00000000000000000000000000000000 *
b00000000000000000000000000000000 +
b00000000000000000000000000000000 ,
b00000 -
b00000 .
b00000000000000000000000000000000 /
b00000000000000000000000000000000 0
b00000 1
02
b000 3
b000 4
05
06
07
08
09
b00000000000000000000000000000000 :
b00000000000000000000000000000000 ;
b00000 <
b00000 =
b00000000000000000000000000000000 >
b00000000000000000000000000000000 ?
b00000 @
b00000000000000000000000000000000 A
0B
b00000000000000000000000000000000 C
0D
0E
b000 F
b00000 G
b00000000000000000000000000000000 H
0I
b00000000000000000000000000000000 J
b00000000000000000000000000000000 K
0L
b00000 M
b00000000000000000000000000000000 N
0O
b0000000 P
b000 Q
b0000000 R
b00000 S
b111 T
0U
0V
0W
b00000000000000000000000000000000 X
b00000000000000000000000000000000 Y
b00000000000000000000000000000000 Z
b00000000000000000000000000000000 [
b00000000000000000000000000000000 \
b00000000000000000000000000000000 ]
0^
0_
0`
0a
0b
0c
0d
0e
0f
0g
0h
0i
b00000000000000000000000000000000 j
b00000000000000000000000000000000 k
b00000000000000000000000000000000 l
b00000000000000000000000000000000 m
b00000000000000000000000000000000 n
b00 o
b00000000000000000000000000000000 p
1q
1r
0s
1t
1u
0v
1w
1x
0y
0z
0{
0|
0}
0~
0!!
b000000000000000000000 "!
b000000000000000000000 #!
b00000000000000000000000000000000 $!
b00000000000000000000000000000000 %!
b00000000000000000000000000000000 &!
b00000000000000000000000000000000 '!
b00000000000000000000000000000000 (!
b00000000000000000000000000000000 )!
b00000000000000000000000000000000 *!
b00000000000000000000000000000000 +!
b00000000000000000000000000000000 ,!
b00000000000000000000000000000000 -!
b00000000000000000000000000000000 .!
b00000000000000000000000000000000 /!
b00000000000000000000000000000000 0!
b00000000000000000000000000000000 1!
b00000000000000000000000000000000 2!
b00000000000000000000000000000000 3!
b00000000000000000000000000000000 4!
b00000000000000000000000000000000 5!
b00000000000000000000000000000000 6!
b00000000000000000000000000000000 7!
b00000000000000000000000000000000 8!
b00000000000000000000000000000000 9!
b00000000000000000000000000000000 :!
b00000000000000000000000000000000 ;!
b00000000000000000000000000000000 <!
b00000000000000000000000000000000 =!
b00000000000000000000000000000000 >!
b00000000000000000000000000000000 ?!
b00000000000000000000000000000000 @!
b00000000000000000000000000000000 A!
b00000000000000000000000000000000 B!
b00000000000000000000000000000000 C!
b00000000000000000000000000000000 D!
b00000000000000000000000000000000 E!
b00000000000000000000000000000000 F!
b00000000000000000000000000000000 G!
b00000000000000000000000000000000 H!
b00000000000000000000000000000000 I!
b00000000000000000000000000000000 J!
b00000000000000000000000000000000 K!
b00000000000000000000000000000000 L!
b00000000000000000000000000000000 M!
b00000000000000000000000000000000 N!
b00000000000000000000000000000000 O!
b00000000000000000000000000000000 P!
b00000000000000000000000000000000 Q!
b00000000000000000000000000000000 R!
b00000000000000000000000000000000 S!
b00000000000000000000000000000000 T!
b00000000000000000000000000000000 U!
b00000000000000000000000000000000 V!
b00000000000000000000000000000000 W!
b00000000000000000000000000000000 X!
b00000000000000000000000000000000 Y!
b00000000000000000000000000000000 Z!
b00000000000000000000000000000000 [!
b00000000000000000000000000000000 \!
b00000000000000000000000000000000 ]!
b00000000000000000000000000000000 ^!
b00000000000000000000000000000000 _!
b00000000000000000000000000000000 `!
b00000000000000000000000000000000 a!
b00000000000000000000000000000000 b!
0c!
b00000000000000000000000000000000 d!
1e!
0f!
b00000000000100000000000110010011 g!
#10
b00000000000000000000000000100000 d!
1f!
#15
0f!
#20
1f!
#25
0f!
#30
1f!
#35
0f!
#40
1f!
#45
0f!
#50
1f!
#55
0e!
0f!
#60
b00000000000000000000000000000100 '
b00000000000100000000000110010011 )
b00001 .
b111 3
b0010011 P
b00011 S
b001 T
1W
b00000000000000000000000000000001 X
b00000000000000000000000000000001 Y
b00000000000000000000000000000011 Z
b00000000000100000000000000000000 [
b00000000000000000000100000000000 \
b00000000000000000000100000000010 ]
1^
1h
b00000000000000000000000000000001 j
b000000000000000000100 "!
1f!
b00000000000100000000000100010011 g!
#65
0f!
#70
b00000000000000000000000000001000 '
b00000000000100000000000100010011 )
b00000000000000000000000000000100 *
b00000000000000000000000000000001 0
b00011 1
12
b001 3
b00001 =
b00010 S
b00000000000000000000000000000010 Z
b00000000000000000000000000000010 ]
0h
b00000000000000000000000000000001 l
b00000000000000000000000000000001 m
b00000000000000000000000000000001 n
0r
0u
0x
b000000000000000001000 "!
1f!
b00000000001100010001100001100011 g!
#75
0f!
#80
b00000000000000000000000000001100 '
b00000000001100010001100001100011 )
b00000000000000000000000000001000 *
b00010 -
b00011 .
b00000000000000000000000000000100 /
b00010 1
b00011 @
b00000000000000000000000000000001 A
1B
b00000000000000000000000000000001 C
b1100011 P
b001 Q
b10000 S
b010 T
0W
b00000000000000000000000000000011 X
b00000000000000000000000000000011 Y
b00000000000000000000000000010000 Z
b00000000001100010001000000000000 [
b00000000000000010001100000000010 \
b00000000000000000000000000010000 ]
0^
1d
1h
b00000000000000000000000000010000 j
b01 o
b00000000000000000000000000000001 p
0q
1s
b000000000000000001100 "!
1f!
b00000000000100000000010100010011 g!
#85
0f!
#90
b00000000000000000000000000011000 #
b00000000000000000000000000010000 '
b00000000000100000000010100010011 )
b00000000000000000000000000001100 *
b00000 -
b00001 .
b00000000000000000000000000001000 /
b00000000000000000000000000010000 0
b10000 1
02
b010 3
b001 4
b00010 <
b00011 =
b00000000000000000000000000000001 >
b00000000000000000000000000000001 ?
b00010 @
b00011 G
b00000000000000000000000000000001 H
1I
b0010011 P
b000 Q
b01010 S
b001 T
1W
b00000000000000000000000000000001 X
b00000000000000000000000000000001 Y
b00000000000000000000000000001010 Z
b00000000000100000000000000000000 [
b00000000000000000000100000000000 \
b00000000000000000000000000001010 ]
1^
0d
0h
b00000000000000000000000000000001 j
b00000000000000000000000000000001 k
b00000000000000000000000000000000 m
b00000000000000000000000000010001 n
1q
0t
1u
1v
0w
1z
1}
b000000000000000010000 "!
1f!
b00000000001100000000010110010011 g!
#95
0f!
#100
b00000000000000000000000000000000 #
b00000000000000000000000000010100 '
b00000000001100000000010110010011 )
b00000000000000000000000000010000 *
b00000000000000000000000000000001 ,
b00011 .
b00000000000000000000000000001100 /
b00000000000000000000000000000001 0
b01010 1
12
b001 3
b000 4
b00000 <
b00001 =
b00000000000000000000000000000000 >
b00000000000000000000000000000000 ?
b10000 @
b00000000000000000000000000000000 A
0B
b00000000000000000000000000010001 C
b001 F
b00010 G
b00011 M
b00000000000000000000000000000001 N
1O
b01011 S
b00000000000000000000000000000011 X
b00000000000000000000000000000011 Y
b00000000000000000000000000001011 Z
b00000000001100000000000000000000 [
b00000000000000000000100000000010 \
b00000000000000000000100000001010 ]
b00000000000000000000000000000011 j
b00000000000000000000000000000000 k
b00000000000000000000000000000001 m
b00000000000000000000000000000001 n
b00000000000000000000000000000000 p
0q
0u
1y
0z
0}
b000000000000000010100 "!
1c!
1f!
b00000000101101010001011001100011 g!
#105
0f!
#110
b00000000000000000000000000011000 '
b00000000101101010001011001100011 )
b00000000000000000000000000010100 *
b00000000000000000000000000000000 ,
b01010 -
b01011 .
b00000000000000000000000000010000 /
b00000000000000000000000000000011 0
b01011 1
b00000000000000000000000000000001 ;
b00011 =
b00000000000000000000000000000001 ?
b01010 @
b00000000000000000000000000000001 A
1B
b00000000000000000000000000000001 C
b000 F
b10000 G
b00000000000000000000000000000000 H
0I
b00010 M
b1100011 P
b001 Q
b01100 S
b010 T
0W
b00000000000000000000000000001011 X
b00000000000000000000000000001011 Y
b00000000000000000000000000001100 Z
b00000000101101010001000000000000 [
b00000000000001010001100000001010 \
b00000000000000000000000000001100 ]
0^
1d
1i
b00000000000000000000000000001100 j
b00000000000000000000000000000011 l
b00000000000000000000000000000011 m
b00000000000000000000000000000011 n
b00000000000000000000000000000001 p
b000000000000000011000 "!
b00000000000000000000000000000001 '!
b00000000000000000000000000000001 F!
1f!
b00000000000100000000010000010011 g!
#115
0f!
#120
b00000000000000000000000000100000 #
1$
1&
b00000000000000000000000000011100 '
b00000000000100000000010000010011 )
b00000000000000000000000000011000 *
b00000 -
b00001 .
b00000000000000000000000000010100 /
b00000000000000000000000000001100 0
b01100 1
02
b010 3
b001 4
b00000000000000000000000000000000 ;
b01010 <
b01011 =
b00000000000000000000000000000001 >
b00000000000000000000000000000011 ?
b01011 @
b00000000000000000000000000000011 A
b00000000000000000000000000000011 C
b01010 G
b00000000000000000000000000000001 H
1I
b10000 M
b00000000000000000000000000000000 N
0O
b0010011 P
b000 Q
b01000 S
b001 T
1W
b00000000000000000000000000000001 X
b00000000000000000000000000000001 Y
b00000000000000000000000000001000 Z
b00000000000100000000000000000000 [
b00000000000000000000100000000000 \
b00000000000000000000000000001000 ]
1^
0d
0i
b00000000000000000000000000000001 j
b00000000000000000000000000000001 k
b00000000000000000000000000000000 m
b00000000000000000000000000001101 n
b11 o
b00000000000000000000000000000011 p
1r
1t
1{
1|
b000000000000000011100 "!
b00000000000000000000000000000001 &!
b00000000000000000000000000000001 E!
0c!
1f!
b00000000001000000000010010010011 g!
#125
0f!
#130
b00000000000000000000000000000000 #
0$
0&
b00000000000000000000000000100000 '
b00000000000000000000000000000000 )
b00000000000000000000000000000000 *
b00000 .
b00000000000000000000000000000000 /
b00000000000000000000000000000000 0
b00000 1
b000 3
b000 4
b00000 <
b00000 =
b00000000000000000000000000000000 >
b00000000000000000000000000000000 ?
b01100 @
b00000000000000000000000000000000 A
0B
b00000000000000000000000000001101 C
b001 F
b01011 G
b00000000000000000000000000000011 H
b01010 M
b00000000000000000000000000000001 N
1O
b0000000 P
b00000 S
b111 T
0W
b00000000000000000000000000000000 X
b00000000000000000000000000000000 Y
b00000000000000000000000000000000 Z
b00000000000000000000000000000000 [
b00000000000000000000000000000000 \
b00000000000000000000000000000000 ]
0^
b00000000000000000000000000000000 j
b00000000000000000000000000000000 k
b00000000000000000000000000000000 l
b00000000000000000000000000000000 n
b01 o
b00000000000000000000000000000000 p
0r
0t
0{
0|
b000000000000000100000 "!
1c!
1f!
b00000000000000000000000000000000 g!
#135
0f!
#140
b00000000000000000000000000100100 '
b00000000000000000000000000100000 *
b111 3
b00000 @
b00000000000000000000000000000000 C
b000 F
b01100 G
b00000000000000000000000000000000 H
0I
b01011 M
b00000000000000000000000000000011 N
b00 o
1q
1r
0s
b000000000000000100100 "!
b00000000000000000000000000000001 .!
b00000000000000000000000000000001 M!
1f!
#145
0f!
#150
b00000000000000000000000000101000 '
b00000000000000000000000000100100 *
b00000000000000000000000000100000 /
b00000 G
b01100 M
b00000000000000000000000000000000 N
0O
1t
1u
0v
b000000000000000101000 "!
b00000000000000000000000000000011 /!
b00000000000000000000000000000011 N!
0c!
1f!
#155
0f!
#160
b00000000000000000000000000101100 '
b00000000000000000000000000101000 *
b00000000000000000000000000100100 /
b00000 M
1w
1x
0y
b000000000000000101100 "!
1f!
#165
0f!
#170
b00000000000000000000000000110000 '
b00000000000000000000000000101100 *
b00000000000000000000000000101000 /
b000000000000000110000 "!
1f!
#175
0f!
#180
b00000000000000000000000000110100 '
b00000000000000000000000000110000 *
b00000000000000000000000000101100 /
b000000000000000110100 "!
1f!
#185
0f!
#190
b00000000000000000000000000111000 '
b00000000000000000000000000110100 *
b00000000000000000000000000110000 /
b000000000000000111000 "!
1f!
#195
0f!
#200
b00000000000000000000000000111100 '
b00000000000000000000000000111000 *
b00000000000000000000000000110100 /
b000000000000000111100 "!
1f!
#205
0f!
#210
b00000000000000000000000001000000 '
b00000000000000000000000000111100 *
b00000000000000000000000000111000 /
b000000000000001000000 "!
1f!
#215
0f!
#220
b00000000000000000000000001000100 '
b00000000000000000000000001000000 *
b00000000000000000000000000111100 /
b000000000000001000100 "!
1f!
#225
0f!
#230
b00000000000000000000000001001000 '
b00000000000000000000000001000100 *
b00000000000000000000000001000000 /
b000000000000001001000 "!
1f!
#235
0f!
#240
b00000000000000000000000001001100 '
b00000000000000000000000001001000 *
b00000000000000000000000001000100 /
b000000000000001001100 "!
1f!
#245
0f!
#250
b00000000000000000000000001010000 '
b00000000000000000000000001001100 *
b00000000000000000000000001001000 /
b000000000000001010000 "!
1f!
#255
0f!
#260
b00000000000000000000000001010100 '
b00000000000000000000000001010000 *
b00000000000000000000000001001100 /
b000000000000001010100 "!
1f!
#265
0f!
#270
b00000000000000000000000001011000 '
b00000000000000000000000001010100 *
b00000000000000000000000001010000 /
b000000000000001011000 "!
1f!
#275
0f!
#280
b00000000000000000000000001011100 '
b00000000000000000000000001011000 *
b00000000000000000000000001010100 /
b000000000000001011100 "!
1f!
#285
0f!
#290
b00000000000000000000000001100000 '
b00000000000000000000000001011100 *
b00000000000000000000000001011000 /
b000000000000001100000 "!
1f!
#295
0f!
#300
b00000000000000000000000001100100 '
b00000000000000000000000001100000 *
b00000000000000000000000001011100 /
b000000000000001100100 "!
1f!
#305
0f!
#310
b00000000000000000000000001101000 '
b00000000000000000000000001100100 *
b00000000000000000000000001100000 /
b000000000000001101000 "!
1f!
#315
0f!
#320
b00000000000000000000000001101100 '
b00000000000000000000000001101000 *
b00000000000000000000000001100100 /
b000000000000001101100 "!
1f!
#325
0f!
#330
b00000000000000000000000001110000 '
b00000000000000000000000001101100 *
b00000000000000000000000001101000 /
b000000000000001110000 "!
1f!
#335
0f!
#340
b00000000000000000000000001110100 '
b00000000000000000000000001110000 *
b00000000000000000000000001101100 /
b000000000000001110100 "!
1f!
#345
0f!
#350
b00000000000000000000000001111000 '
b00000000000000000000000001110100 *
b00000000000000000000000001110000 /
b000000000000001111000 "!
1f!
#355
0f!
#360
b00000000000000000000000001111100 '
b00000000000000000000000001111000 *
b00000000000000000000000001110100 /
b000000000000001111100 "!
1f!
#365
0f!
#370
b00000000000000000000000010000000 '
b00000000000000000000000001111100 *
b00000000000000000000000001111000 /
b000000000000010000000 "!
1f!
#375
0f!
#380
b00000000000000000000000010000100 '
b00000000000000000000000010000000 *
b00000000000000000000000001111100 /
b000000000000010000100 "!
1f!
#385
0f!
#390
b00000000000000000000000010001000 '
b00000000000000000000000010000100 *
b00000000000000000000000010000000 /
b000000000000010001000 "!
1f!
#395
0f!
#400
b00000000000000000000000010001100 '
b00000000000000000000000010001000 *
b00000000000000000000000010000100 /
b000000000000010001100 "!
1f!
#405
0f!
#410
b00000000000000000000000010010000 '
b00000000000000000000000010001100 *
b00000000000000000000000010001000 /
b000000000000010010000 "!
1f!
#415
0f!
#420
b00000000000000000000000010010100 '
b00000000000000000000000010010000 *
b00000000000000000000000010001100 /
b000000000000010010100 "!
1f!
#425
0f!
#430
b00000000000000000000000010011000 '
b00000000000000000000000010010100 *
b00000000000000000000000010010000 /
b000000000000010011000 "!
1f!
#435
0f!
#440
b00000000000000000000000010011100 '
b00000000000000000000000010011000 *
b00000000000000000000000010010100 /
b000000000000010011100 "!
1f!
#445
0f!
#450
b00000000000000000000000010100000 '
b00000000000000000000000010011100 *
b00000000000000000000000010011000 /
b000000000000010100000 "!
1f!
#455
0f!
#460
b00000000000000000000000010100100 '
b00000000000000000000000010100000 *
b00000000000000000000000010011100 /
b000000000000010100100 "!
1f!
#465
0f!
#470
b00000000000000000000000010101000 '
b00000000000000000000000010100100 *
b00000000000000000000000010100000 /
b000000000000010101000 "!
1f!
#475
0f!
#480
b00000000000000000000000010101100 '
b00000000000000000000000010101000 *
b00000000000000000000000010100100 /
b000000000000010101100 "!
1f!
#485
0f!
#490
b00000000000000000000000010110000 '
b00000000000000000000000010101100 *
b00000000000000000000000010101000 /
b000000000000010110000 "!
1f!
#495
0f!
#500
b00000000000000000000000010110100 '
b00000000000000000000000010110000 *
b00000000000000000000000010101100 /
b000000000000010110100 "!
1f!
#505
0f!
#510
b00000000000000000000000010111000 '
b00000000000000000000000010110100 *
b00000000000000000000000010110000 /
b000000000000010111000 "!
1f!
#515
0f!
#520
b00000000000000000000000010111100 '
b00000000000000000000000010111000 *
b00000000000000000000000010110100 /
b000000000000010111100 "!
1f!
#525
0f!
#530
b00000000000000000000000011000000 '
b00000000000000000000000010111100 *
b00000000000000000000000010111000 /
b000000000000011000000 "!
1f!
#535
0f!
