FiveStage_RISB/wave.vcd
$version Generated by VerilatedVcd $end
$date Fri Feb  3 19:29:20 2023 $end
$timescale 1s $end

 $scope module top $end
  $var wire  1 g! clk_i $end
  $var wire  1 h! halt_o $end
  $var wire  1 f! rst_i $end
  $scope module coretop $end
   $var wire  1 g! clk_i $end
   $var wire 32 D exemem_memaddr [31:0] $end
   $var wire  1 E exemem_memre $end
   $var wire  1 F exemem_memwe $end
   $var wire  3 G exemem_opfunc3 [2:0] $end
   $var wire  5 A exemem_rdaddr [4:0] $end
   $var wire 32 B exemem_rddata [31:0] $end
   $var wire  1 C exemem_we $end
   $var wire  1 % exepipe_je $end
   $var wire 32 $ exepipe_jumpaddr [31:0] $end
   $var wire 32 ? fwdexe_rs1 [31:0] $end
   $var wire 32 @ fwdexe_rs2 [31:0] $end
   $var wire  1 # halt_o $end
   $var wire  1 7 idexe_addsubsel $end
   $var wire 32 1 idexe_imm [31:0] $end
   $var wire  1 8 idexe_jtypesel $end
   $var wire  1 : idexe_memre $end
   $var wire  1 9 idexe_memwe $end
   $var wire  3 5 idexe_opfunc3 [2:0] $end
   $var wire  3 4 idexe_optype [2:0] $end
   $var wire 32 0 idexe_pc [31:0] $end
   $var wire  5 2 idexe_rdaddr [4:0] $end
   $var wire  1 6 idexe_shiftsel $end
   $var wire  1 3 idexe_we $end
   $var wire  5 = idfwd_addr1 [4:0] $end
   $var wire  5 > idfwd_addr2 [4:0] $end
   $var wire 32 ; idfwd_rs1 [31:0] $end
   $var wire 32 < idfwd_rs2 [31:0] $end
   $var wire  1 & idpipectrl_loadusehazard $end
   $var wire  5 . idreg_addr1 [4:0] $end
   $var wire  5 / idreg_addr2 [4:0] $end
   $var wire 32 * ifid_inst [31:0] $end
   $var wire 32 + ifid_pc [31:0] $end
   $var wire  1 # mem_halt $end
   $var wire  1 M memrom_memwe $end
   $var wire 32 K memrom_ramaddr [31:0] $end
   $var wire 32 L memrom_ramdata [31:0] $end
   $var wire  5 H memwb_rdaddr [4:0] $end
   $var wire 32 I memwb_rddata [31:0] $end
   $var wire  1 J memwb_we $end
   $var wire 32 ( pc_wire [31:0] $end
   $var wire  1 ' pipectrl_flushid $end
   $var wire  1 % pipectrl_flushif $end
   $var wire  1 & pipectrl_stallif $end
   $var wire  1 & pipectrl_stallpc $end
   $var wire  1 % pipectrlpc_je $end
   $var wire 32 $ pipectrlpc_jumpaddr [31:0] $end
   $var wire 32 , regid_data1 [31:0] $end
   $var wire 32 - regid_data2 [31:0] $end
   $var wire 32 i! romif_inst [31:0] $end
   $var wire 32 ( romif_pc [31:0] $end
   $var wire 32 ) rommem_ramdata [31:0] $end
   $var wire  1 f! rst_i $end
   $var wire  5 N wbreg_rdaddr [4:0] $end
   $var wire 32 O wbreg_rddata [31:0] $end
   $var wire  1 P wbreg_we $end
   $scope module decode0 $end
    $var wire  1 b AUPICtype $end
    $var wire  1 e Btype $end
    $var wire  1 _ Itype $end
    $var wire  1 d JALRtype $end
    $var wire  1 c JALtype $end
    $var wire  1 a LUItype $end
    $var wire  1 V Ltype $end
    $var wire  1 ` Rtype $end
    $var wire  1 W Stype $end
    $var wire  1 g addsubsel $end
    $var wire  1 7 addsubsel_o $end
    $var wire  1 g! clk_i $end
    $var wire  1 ' flush_i $end
    $var wire  5 = fwd_raddr1_o [4:0] $end
    $var wire  5 > fwd_raddr2_o [4:0] $end
    $var wire 32 k imm [31:0] $end
    $var wire 32 ^ immB [31:0] $end
    $var wire 32 Y immI [31:0] $end
    $var wire 32 ] immJ [31:0] $end
    $var wire 32 Z immL [31:0] $end
    $var wire 32 [ immS [31:0] $end
    $var wire 32 \ immU [31:0] $end
    $var wire 32 1 imm_o [31:0] $end
    $var wire 32 * inst_i [31:0] $end
    $var wire  1 h jtypesel $end
    $var wire  1 8 jtypesel_o $end
    $var wire  1 & loaduse_hazard_o $end
    $var wire  1 V mem_re $end
    $var wire  1 : mem_re_o $end
    $var wire  1 W mem_we $end
    $var wire  1 9 mem_we_o $end
    $var wire  7 Q opcode [6:0] $end
    $var wire  3 R opfunc3 [2:0] $end
    $var wire  3 5 opfunc3_o [2:0] $end
    $var wire  7 S opfunc7 [6:0] $end
    $var wire  3 U optype [2:0] $end
    $var wire  3 4 optype_o [2:0] $end
    $var wire 32 + pc_i [31:0] $end
    $var wire 32 0 pc_o [31:0] $end
    $var wire  1 i raddr1_thesame $end
    $var wire  1 j raddr2_thesame $end
    $var wire  5 T rd_addr [4:0] $end
    $var wire  5 2 rd_addr_o [4:0] $end
    $var wire  1 3 rd_we_o $end
    $var wire 32 , reg_data1_i [31:0] $end
    $var wire 32 - reg_data2_i [31:0] $end
    $var wire  1 X reg_we $end
    $var wire  5 . rs1_addr_o [4:0] $end
    $var wire 32 ; rs1_o [31:0] $end
    $var wire  5 / rs2_addr_o [4:0] $end
    $var wire 32 < rs2_o [31:0] $end
    $var wire  1 f! rst_i $end
    $var wire 32 * rv32inst [31:0] $end
    $var wire  1 f shiftsel $end
    $var wire  1 6 shiftsel_o $end
   $upscope $end
   $scope module dpram0 $end
    $var wire 21 #! addr4 [20:0] $end
    $var wire 32 ( addr_i [31:0] $end
    $var wire  1 g! clk_i $end
    $var wire 32 i! inst_o [31:0] $end
    $var wire  1 M mem_we_i $end
    $var wire 32 ( pc_o [31:0] $end
    $var wire 32 K ram_addr_i [31:0] $end
    $var wire 32 L ram_data_i [31:0] $end
    $var wire 32 ) ram_data_o [31:0] $end
    $var wire 21 $! ramaddr4 [20:0] $end
   $upscope $end
   $scope module exe0 $end
    $var wire  1 7 addsubsel_i $end
    $var wire  1 g! clk_i $end
    $var wire 32 1 imm_i [31:0] $end
    $var wire  1 % je_o $end
    $var wire  1 8 jtypesel_i $end
    $var wire 32 $ jump_addr_o [31:0] $end
    $var wire 32 o mem_addr [31:0] $end
    $var wire 32 D mem_addr_o [31:0] $end
    $var wire  1 : mem_re_i $end
    $var wire  1 E mem_re_o $end
    $var wire  1 9 mem_we_i $end
    $var wire  1 F mem_we_o $end
    $var wire 32 l op1 [31:0] $end
    $var wire 32 m op2 [31:0] $end
    $var wire 32 n op_result [31:0] $end
    $var wire  3 5 opfunc3_i [2:0] $end
    $var wire  3 G opfunc3_o [2:0] $end
    $var wire  3 4 optype_i [2:0] $end
    $var wire 32 0 pc_i [31:0] $end
    $var wire  5 2 rd_addr_i [4:0] $end
    $var wire  5 A rd_addr_o [4:0] $end
    $var wire 32 B rd_data_o [31:0] $end
    $var wire  1 3 rd_we_i $end
    $var wire  1 C rd_we_o $end
    $var wire 32 ? rs1_i [31:0] $end
    $var wire 32 @ rs2_i [31:0] $end
    $var wire  1 f! rst_i $end
    $var wire  1 6 shiftsel_i $end
   $upscope $end
   $scope module forwarding0 $end
    $var wire  1 t exe_addr_not0 $end
    $var wire  5 A exe_rdaddr_i [4:0] $end
    $var wire 32 B exe_rddata_i [31:0] $end
    $var wire  1 C exe_rdwe $end
    $var wire  1 { exedata1_forward $end
    $var wire  1 | exedata2_forward $end
    $var wire  1 r exeid_addr1_same $end
    $var wire  1 s exeid_addr2_same $end
    $var wire  1 w mem_addr_not0 $end
    $var wire  5 H mem_rdaddr_i [4:0] $end
    $var wire 32 I mem_rddata_i [31:0] $end
    $var wire  1 J mem_rdwe $end
    $var wire  1 } memdata1_forward $end
    $var wire  1 ~ memdata2_forward $end
    $var wire  1 u memid_addr1_same $end
    $var wire  1 v memid_addr2_same $end
    $var wire  5 = rs1_addr_i [4:0] $end
    $var wire 32 ; rs1_data_i [31:0] $end
    $var wire 32 ? rs1_data_o [31:0] $end
    $var wire  5 > rs2_addr_i [4:0] $end
    $var wire 32 < rs2_data_i [31:0] $end
    $var wire 32 @ rs2_data_o [31:0] $end
    $var wire  1 z wb_addr_not0 $end
    $var wire  5 N wb_rdaddr_i [4:0] $end
    $var wire 32 O wb_rddata_i [31:0] $end
    $var wire  1 P wb_rdwe $end
    $var wire  1 !! wbdata1_forward $end
    $var wire  1 "! wbdata2_forward $end
    $var wire  1 x wbid_addr1_same $end
    $var wire  1 y wbid_addr2_same $end
   $upscope $end
   $scope module inst_fetch0 $end
    $var wire  1 g! clk_i $end
    $var wire  1 % flush_i $end
    $var wire 32 i! inst_i [31:0] $end
    $var wire 32 * inst_o [31:0] $end
    $var wire 32 ( pc_i [31:0] $end
    $var wire 32 + pc_o [31:0] $end
    $var wire  1 f! rst_i $end
    $var wire  1 & stall_i $end
   $upscope $end
   $scope module mem0 $end
    $var wire  1 g! clk_i $end
    $var wire  1 # halt_o $end
    $var wire 32 D mem_addr_i [31:0] $end
    $var wire  1 E mem_re_i $end
    $var wire  1 F mem_we_i $end
    $var wire  3 G opfunc3_i [2:0] $end
    $var wire 32 K ram_addr_o [31:0] $end
    $var wire  2 p ram_addr_offset [1:0] $end
    $var wire 32 ) ram_data_i [31:0] $end
    $var wire 32 L ram_data_o [31:0] $end
    $var wire  1 M ram_we_o $end
    $var wire  5 A rd_addr_i [4:0] $end
    $var wire  5 H rd_addr_o [4:0] $end
    $var wire 32 q rd_data [31:0] $end
    $var wire 32 B rd_data_i [31:0] $end
    $var wire 32 I rd_data_o [31:0] $end
    $var wire  1 C rd_we_i $end
    $var wire  1 J rd_we_o $end
    $var wire  1 f! rst_i $end
   $upscope $end
   $scope module pipectrl0 $end
    $var wire  1 ' flushid_o $end
    $var wire  1 % flushif_o $end
    $var wire  1 % je_i $end
    $var wire  1 % je_o $end
    $var wire 32 $ jump_addr_i [31:0] $end
    $var wire 32 $ jump_addr_o [31:0] $end
    $var wire  1 & loaduse_hazard_i $end
    $var wire  1 & stallif_o $end
    $var wire  1 & stallpc_o $end
   $upscope $end
   $scope module program_counter0 $end
    $var wire  1 g! clk_i $end
    $var wire  1 % je_i $end
    $var wire 32 $ jump_addr_i [31:0] $end
    $var wire 32 ( pc_o [31:0] $end
    $var wire  1 f! rst_i $end
    $var wire  1 & stall_i $end
   $upscope $end
   $scope module regfiles0 $end
    $var wire 32 N! a0 [31:0] $end
    $var wire 32 O! a1 [31:0] $end
    $var wire 32 P! a2 [31:0] $end
    $var wire 32 Q! a3 [31:0] $end
    $var wire 32 R! a4 [31:0] $end
    $var wire 32 S! a5 [31:0] $end
    $var wire 32 T! a6 [31:0] $end
    $var wire 32 U! a7 [31:0] $end
    $var wire  1 g! clk_i $end
    $var wire 32 G! gp [31:0] $end
    $var wire 32 e! i [31:0] $end
    $var wire 32 E! ra [31:0] $end
    $var wire  5 N rd_addr_i [4:0] $end
    $var wire 32 O rd_data_i [31:0] $end
    $var wire  1 P rd_we_i $end
    $var wire  5 . rs1_addr_i [4:0] $end
    $var wire 32 , rs1_data_o [31:0] $end
    $var wire  5 / rs2_addr_i [4:0] $end
    $var wire 32 - rs2_data_o [31:0] $end
    $var wire  1 f! rst_i $end
    $var wire 32 L! s0 [31:0] $end
    $var wire 32 M! s1 [31:0] $end
    $var wire 32 ^! s10 [31:0] $end
    $var wire 32 _! s11 [31:0] $end
    $var wire 32 V! s2 [31:0] $end
    $var wire 32 W! s3 [31:0] $end
    $var wire 32 X! s4 [31:0] $end
    $var wire 32 Y! s5 [31:0] $end
    $var wire 32 Z! s6 [31:0] $end
    $var wire 32 [! s7 [31:0] $end
    $var wire 32 \! s8 [31:0] $end
    $var wire 32 ]! s9 [31:0] $end
    $var wire 32 F! sp [31:0] $end
    $var wire 32 I! t0 [31:0] $end
    $var wire 32 J! t1 [31:0] $end
    $var wire 32 K! t2 [31:0] $end
    $var wire 32 `! t3 [31:0] $end
    $var wire 32 a! t4 [31:0] $end
    $var wire 32 b! t5 [31:0] $end
    $var wire 32 c! t6 [31:0] $end
    $var wire 32 H! tp [31:0] $end
    $var wire  1 d! we $end
    $var wire 32 %! x(0) [31:0] $end
    $var wire 32 &! x(1) [31:0] $end
    $var wire 32 /! x(10) [31:0] $end
    $var wire 32 0! x(11) [31:0] $end
    $var wire 32 1! x(12) [31:0] $end
    $var wire 32 2! x(13) [31:0] $end
    $var wire 32 3! x(14) [31:0] $end
    $var wire 32 4! x(15) [31:0] $end
    $var wire 32 5! x(16) [31:0] $end
    $var wire 32 6! x(17) [31:0] $end
    $var wire 32 7! x(18) [31:0] $end
    $var wire 32 8! x(19) [31:0] $end
    $var wire 32 '! x(2) [31:0] $end
    $var wire 32 9! x(20) [31:0] $end
    $var wire 32 :! x(21) [31:0] $end
    $var wire 32 ;! x(22) [31:0] $end
    $var wire 32 <! x(23) [31:0] $end
    $var wire 32 =! x(24) [31:0] $end
    $var wire 32 >! x(25) [31:0] $end
    $var wire 32 ?! x(26) [31:0] $end
    $var wire 32 @! x(27) [31:0] $end
    $var wire 32 A! x(28) [31:0] $end
    $var wire 32 B! x(29) [31:0] $end
    $var wire 32 (! x(3) [31:0] $end
    $var wire 32 C! x(30) [31:0] $end
    $var wire 32 D! x(31) [31:0] $end
    $var wire 32 )! x(4) [31:0] $end
    $var wire 32 *! x(5) [31:0] $end
    $var wire 32 +! x(6) [31:0] $end
    $var wire 32 ,! x(7) [31:0] $end
    $var wire 32 -! x(8) [31:0] $end
    $var wire 32 .! x(9) [31:0] $end
   $upscope $end
   $scope module writeback0 $end
    $var wire  1 g! clk_i $end
    $var wire  5 H rd_addr_i [4:0] $end
    $var wire  5 N rd_addr_o [4:0] $end
    $var wire 32 I rd_data_i [31:0] $end
    $var wire 32 O rd_data_o [31:0] $end
    $var wire  1 J rd_we_i $end
    $var wire  1 P rd_we_o $end
    $var wire  1 f! rst_i $end
   $upscope $end
  $upscope $end
 $upscope $end
$enddefinitions $end


#5
0#
b00000000000000000000000000000000 $
0%
0&
0'
b00000000000000000000000000000000 (
b00000100100000000000000001101111 )
b00000000000000000000000000000000 *
b00000000000000000000000000000000 +
b00000000000000000000000000000000 ,
b00000000000000000000000000000000 -
b00000 .
b00000 /
b00000000000000000000000000000000 0
b00000000000000000000000000000000 1
b00000 2
03
b000 4
b000 5
06
07
08
09
0:
b00000000000000000000000000000000 ;
b00000000000000000000000000000000 <
b00000 =
b00000 >
b00000000000000000000000000000000 ?
b00000000000000000000000000000000 @
b00000 A
b00000000000000000000000000000000 B
0C
b00000000000000000000000000000000 D
0E
0F
b000 G
b00000 H
b00000000000000000000000000000000 I
0J
b00000000000000000000000000000000 K
b00000000000000000000000000000000 L
0M
b00000 N
b00000000000000000000000000000000 O
0P
b0000000 Q
b000 R
b0000000 S
b00000 T
b111 U
0V
0W
0X
b00000000000000000000000000000000 Y
b00000000000000000000000000000000 Z
b00000000000000000000000000000000 [
b00000000000000000000000000000000 \
b00000000000000000000000000000000 ]
b00000000000000000000000000000000 ^
0_
0`
0a
0b
0c
0d
0e
0f
0g
0h
0i
0j
b00000000000000000000000000000000 k
b00000000000000000000000000000000 l
b00000000000000000000000000000000 m
b00000000000000000000000000000000 n
b00000000000000000000000000000000 o
b00 p
b00000000000000000000000000000000 q
1r
1s
0t
1u
1v
0w
1x
1y
0z
0{
0|
0}
0~
0!!
0"!
b000000000000000000000 #!
b000000000000000000000 $!
b00000000000000000000000000000000 %!
b00000000000000000000000000000000 &!
b00000000000000000000000000000000 '!
b00000000000000000000000000000000 (!
b00000000000000000000000000000000 )!
b00000000000000000000000000000000 *!
b00000000000000000000000000000000 +!
b00000000000000000000000000000000 ,!
b00000000000000000000000000000000 -!
b00000000000000000000000000000000 .!
b00000000000000000000000000000000 /!
b00000000000000000000000000000000 0!
b00000000000000000000000000000000 1!
b00000000000000000000000000000000 2!
b00000000000000000000000000000000 3!
b00000000000000000000000000000000 4!
b00000000000000000000000000000000 5!
b00000000000000000000000000000000 6!
b00000000000000000000000000000000 7!
b00000000000000000000000000000000 8!
b00000000000000000000000000000000 9!
b00000000000000000000000000000000 :!
b00000000000000000000000000000000 ;!
b00000000000000000000000000000000 <!
b00000000000000000000000000000000 =!
b00000000000000000000000000000000 >!
b00000000000000000000000000000000 ?!
b00000000000000000000000000000000 @!
b00000000000000000000000000000000 A!
b00000000000000000000000000000000 B!
b00000000000000000000000000000000 C!
b00000000000000000000000000000000 D!
b00000000000000000000000000000000 E!
b00000000000000000000000000000000 F!
b00000000000000000000000000000000 G!
b00000000000000000000000000000000 H!
b00000000000000000000000000000000 I!
b00000000000000000000000000000000 J!
b00000000000000000000000000000000 K!
b00000000000000000000000000000000 L!
b00000000000000000000000000000000 M!
b00000000000000000000000000000000 N!
b00000000000000000000000000000000 O!
b00000000000000000000000000000000 P!
b00000000000000000000000000000000 Q!
b00000000000000000000000000000000 R!
b00000000000000000000000000000000 S!
b00000000000000000000000000000000 T!
b00000000000000000000000000000000 U!
b00000000000000000000000000000000 V!
b00000000000000000000000000000000 W!
b00000000000000000000000000000000 X!
b00000000000000000000000000000000 Y!
b00000000000000000000000000000000 Z!
b00000000000000000000000000000000 [!
b00000000000000000000000000000000 \!
b00000000000000000000000000000000 ]!
b00000000000000000000000000000000 ^!
b00000000000000000000000000000000 _!
b00000000000000000000000000000000 `!
b00000000000000000000000000000000 a!
b00000000000000000000000000000000 b!
b00000000000000000000000000000000 c!
0d!
b00000000000000000000000000000000 e!
1f!
0g!
0h!
b00000100100000000000000001101111 i!
#10
b00000000000000000000000000100000 e!
1g!
#15
0g!
#20
1g!
#25
0g!
#30
1g!
#35
0g!
#40
1g!
#45
0g!
#50
1g!
#55
0f!
0g!
#60
b00000000000000000000000000000100 (
b00000100100000000000000001101111 *
b01000 /
b111 4
b1101111 Q
b0000010 S
b110 U
1X
b00000000000000000000000001001000 Y
b00000000000000000000000001001000 Z
b00000000000000000000000001000000 [
b00000100100000000000000000000000 \
b00000000000000000000000001001000 ]
b00000000000000000000000001000000 ^
1c
1h
b00000000000000000000000001001000 k
b000000000000000000100 #!
1g!
b00110100001000000010111101110011 i!
#65
0g!
#70
b00000000000000000000000001001000 $
1%
1'
b00000000000000000000000000001000 (
b00110100001000000010111101110011 *
b00000000000000000000000000000100 +
b00010 /
b00000000000000000000000001001000 1
13
b110 4
18
b01000 >
b1110011 Q
b010 R
b0011010 S
b11110 T
b111 U
0X
b00000000000000000000001101000010 Y
b00000000000000000000001101000010 Z
b00000000000000000000001101011110 [
b00110100001000000010000000000000 \
b00000000000000000010001101000010 ]
b00000000000000000000001101011110 ^
0c
0h
b00000000000000000000000000000000 k
b00000000000000000000000000000100 n
b00000000000000000000000001001000 o
0s
0v
0y
b000000000000000001000 #!
1g!
b00000000100000000000111110010011 i!
#75
0g!
#80
b00000000000000000000000000000000 $
0%
0'
b00000000000000000000000001001000 (
b00000000000000000000000000000000 *
b00000000000000000000000000000000 +
b00000 /
b00000000000000000000000000000000 1
03
b000 4
08
b00000 >
b00000000000000000000000000000100 B
1C
b00000000000000000000000001001000 D
b0000000 Q
b000 R
b0000000 S
b00000 T
b00000000000000000000000000000000 Y
b00000000000000000000000000000000 Z
b00000000000000000000000000000000 [
b00000000000000000000000000000000 \
b00000000000000000000000000000000 ]
b00000000000000000000000000000000 ^
b00000000000000000000000000000000 n
b00000000000000000000000000000000 o
b00000000000000000000000000000100 q
1s
1v
1y
b000000000000001001000 #!
1g!
b00000000000000000000000010010011 i!
#85
0g!
#90
b00000000000000000000000001001100 (
b00000000000000000000000010010011 *
b00000000000000000000000001001000 +
b111 4
b00000000000000000000000000000000 B
0C
b00000000000000000000000000000000 D
b00000000000000000000000000000100 I
1J
b0010011 Q
b00001 T
b001 U
1X
b00000000000000000000000000000001 [
b00000000000000000000100000000000 ^
1_
1i
b00000000000000000000000000000000 q
b000000000000001001100 #!
1g!
b00000000000000000000000100010011 i!
#95
0g!
#100
b00000000000000000000000001010000 (
b00000000000000000000000100010011 *
b00000000000000000000000001001100 +
b00000000000000000000000001001000 0
b00001 2
13
b001 4
b00000000000000000000000000000000 I
0J
b00000000000000000000000000000100 O
1P
b00010 T
b00000000000000000000000000000010 [
b00000000000000000000000000000010 ^
0i
b000000000000001010000 #!
1g!
b00000000000000000000000110010011 i!
#105
0g!
#110
b00000000000000000000000001010100 (
b00000000000000000000000110010011 *
b00000000000000000000000001010000 +
b00000000000000000000000001001100 0
b00010 2
b00001 A
1C
b00000000000000000000000000000000 O
0P
b00011 T
b00000000000000000000000000000011 [
b00000000000000000000100000000010 ^
0r
0s
1t
b000000000000001010100 #!
1g!
b00000000000000000000001000010011 i!
#115
0g!
#120
b00000000000000000000000001011000 (
b00000000000000000000001000010011 *
b00000000000000000000000001010100 +
b00000000000000000000000001010000 0
b00011 2
b00010 A
b00001 H
1J
b00100 T
b00000000000000000000000000000100 [
b00000000000000000000000000000100 ^
0u
0v
1w
b000000000000001011000 #!
1g!
b00000000000000000000001010010011 i!
#125
0g!
#130
b00000000000000000000000001011100 (
b00000000000000000000001010010011 *
b00000000000000000000000001011000 +
b00000000000000000000000001010100 0
b00100 2
b00011 A
b00010 H
b00001 N
1P
b00101 T
b00000000000000000000000000000101 [
b00000000000000000000100000000100 ^
0x
0y
1z
b000000000000001011100 #!
1d!
1g!
b00000000000000000000001100010011 i!
#135
0g!
#140
b00000000000000000000000001100000 (
b00000000000000000000001100010011 *
b00000000000000000000000001011100 +
b00000000000000000000000001011000 0
b00101 2
b00100 A
b00011 H
b00010 N
b00110 T
b00000000000000000000000000000110 [
b00000000000000000000000000000110 ^
b000000000000001100000 #!
1g!
b00000000000000000000001110010011 i!
#145
0g!
#150
b00000000000000000000000001100100 (
b00000000000000000000001110010011 *
b00000000000000000000000001100000 +
b00000000000000000000000001011100 0
b00110 2
b00101 A
b00100 H
b00011 N
b00111 T
b00000000000000000000000000000111 [
b00000000000000000000100000000110 ^
b000000000000001100100 #!
1g!
b00000000000000000000010000010011 i!
#155
0g!
#160
b00000000000000000000000001101000 (
b00000000000000000000010000010011 *
b00000000000000000000000001100100 +
b00000000000000000000000001100000 0
b00111 2
b00110 A
b00101 H
b00100 N
b01000 T
b00000000000000000000000000001000 [
b00000000000000000000000000001000 ^
b000000000000001101000 #!
1g!
b00000000000000000000010010010011 i!
#165
0g!
#170
b00000000000000000000000001101100 (
b00000000000000000000010010010011 *
b00000000000000000000000001101000 +
b00000000000000000000000001100100 0
b01000 2
b00111 A
b00110 H
b00101 N
b01001 T
b00000000000000000000000000001001 [
b00000000000000000000100000001000 ^
b000000000000001101100 #!
1g!
b00000000000000000000010100010011 i!
#175
0g!
#180
b00000000000000000000000001110000 (
b00000000000000000000010100010011 *
b00000000000000000000000001101100 +
b00000000000000000000000001101000 0
b01001 2
b01000 A
b00111 H
b00110 N
b01010 T
b00000000000000000000000000001010 [
b00000000000000000000000000001010 ^
b000000000000001110000 #!
1g!
b00000000000000000000010110010011 i!
#185
0g!
#190
b00000000000000000000000001110100 (
b00000000000000000000010110010011 *
b00000000000000000000000001110000 +
b00000000000000000000000001101100 0
b01010 2
b01001 A
b01000 H
b00111 N
b01011 T
b00000000000000000000000000001011 [
b00000000000000000000100000001010 ^
b000000000000001110100 #!
1g!
b00000000000000000000011000010011 i!
#195
0g!
#200
b00000000000000000000000001111000 (
b00000000000000000000011000010011 *
b00000000000000000000000001110100 +
b00000000000000000000000001110000 0
b01011 2
b01010 A
b01001 H
b01000 N
b01100 T
b00000000000000000000000000001100 [
b00000000000000000000000000001100 ^
b000000000000001111000 #!
1g!
b00000000000000000000011010010011 i!
#205
0g!
#210
b00000000000000000000000001111100 (
b00000000000000000000011010010011 *
b00000000000000000000000001111000 +
b00000000000000000000000001110100 0
b01100 2
b01011 A
b01010 H
b01001 N
b01101 T
b00000000000000000000000000001101 [
b00000000000000000000100000001100 ^
b000000000000001111100 #!
1g!
b00000000000000000000011100010011 i!
#215
0g!
#220
b00000000000000000000000010000000 (
b00000000000000000000011100010011 *
b00000000000000000000000001111100 +
b00000000000000000000000001111000 0
b01101 2
b01100 A
b01011 H
b01010 N
b01110 T
b00000000000000000000000000001110 [
b00000000000000000000000000001110 ^
b000000000000010000000 #!
1g!
b00000000000000000000011110010011 i!
#225
0g!
#230
b00000000000000000000000010000100 (
b00000000000000000000011110010011 *
b00000000000000000000000010000000 +
b00000000000000000000000001111100 0
b01110 2
b01101 A
b01100 H
b01011 N
b01111 T
b00000000000000000000000000001111 [
b00000000000000000000100000001110 ^
b000000000000010000100 #!
1g!
b00000000000000000000100000010011 i!
#235
0g!
#240
b00000000000000000000000010001000 (
b00000000000000000000100000010011 *
b00000000000000000000000010000100 +
b00000000000000000000000010000000 0
b01111 2
b01110 A
b01101 H
b01100 N
b10000 T
b00000000000000000000000000010000 [
b00000000000000000000000000010000 ^
b000000000000010001000 #!
1g!
b00000000000000000000100010010011 i!
#245
0g!
#250
b00000000000000000000000010001100 (
b00000000000000000000100010010011 *
b00000000000000000000000010001000 +
b00000000000000000000000010000100 0
b10000 2
b01111 A
b01110 H
b01101 N
b10001 T
b00000000000000000000000000010001 [
b00000000000000000000100000010000 ^
b000000000000010001100 #!
1g!
b00000000000000000000100100010011 i!
#255
0g!
#260
b00000000000000000000000010010000 (
b00000000000000000000100100010011 *
b00000000000000000000000010001100 +
b00000000000000000000000010001000 0
b10001 2
b10000 A
b01111 H
b01110 N
b10010 T
b00000000000000000000000000010010 [
b00000000000000000000000000010010 ^
b000000000000010010000 #!
1g!
b00000000000000000000100110010011 i!
#265
0g!
#270
b00000000000000000000000010010100 (
b00000000000000000000100110010011 *
b00000000000000000000000010010000 +
b00000000000000000000000010001100 0
b10010 2
b10001 A
b10000 H
b01111 N
b10011 T
b00000000000000000000000000010011 [
b00000000000000000000100000010010 ^
b000000000000010010100 #!
1g!
b00000000000000000000101000010011 i!
#275
0g!
#280
b00000000000000000000000010011000 (
b00000000000000000000101000010011 *
b00000000000000000000000010010100 +
b00000000000000000000000010010000 0
b10011 2
b10010 A
b10001 H
b10000 N
b10100 T
b00000000000000000000000000010100 [
b00000000000000000000000000010100 ^
b000000000000010011000 #!
1g!
b00000000000000000000101010010011 i!
#285
0g!
#290
b00000000000000000000000010011100 (
b00000000000000000000101010010011 *
b00000000000000000000000010011000 +
b00000000000000000000000010010100 0
b10100 2
b10011 A
b10010 H
b10001 N
b10101 T
b00000000000000000000000000010101 [
b00000000000000000000100000010100 ^
b000000000000010011100 #!
1g!
b00000000000000000000101100010011 i!
#295
0g!
#300
b00000000000000000000000010100000 (
b00000000000000000000101100010011 *
b00000000000000000000000010011100 +
b00000000000000000000000010011000 0
b10101 2
b10100 A
b10011 H
b10010 N
b10110 T
b00000000000000000000000000010110 [
b00000000000000000000000000010110 ^
b000000000000010100000 #!
1g!
b00000000000000000000101110010011 i!
#305
0g!
#310
b00000000000000000000000010100100 (
b00000000000000000000101110010011 *
b00000000000000000000000010100000 +
b00000000000000000000000010011100 0
b10110 2
b10101 A
b10100 H
b10011 N
b10111 T
b00000000000000000000000000010111 [
b00000000000000000000100000010110 ^
b000000000000010100100 #!
1g!
b00000000000000000000110000010011 i!
#315
0g!
#320
b00000000000000000000000010101000 (
b00000000000000000000110000010011 *
b00000000000000000000000010100100 +
b00000000000000000000000010100000 0
b10111 2
b10110 A
b10101 H
b10100 N
b11000 T
b00000000000000000000000000011000 [
b00000000000000000000000000011000 ^
b000000000000010101000 #!
1g!
b00000000000000000000110010010011 i!
#325
0g!
#330
b00000000000000000000000010101100 (
b00000000000000000000110010010011 *
b00000000000000000000000010101000 +
b00000000000000000000000010100100 0
b11000 2
b10111 A
b10110 H
b10101 N
b11001 T
b00000000000000000000000000011001 [
b00000000000000000000100000011000 ^
b000000000000010101100 #!
1g!
b00000000000000000000110100010011 i!
#335
0g!
#340
b00000000000000000000000010110000 (
b00000000000000000000110100010011 *
b00000000000000000000000010101100 +
b00000000000000000000000010101000 0
b11001 2
b11000 A
b10111 H
b10110 N
b11010 T
b00000000000000000000000000011010 [
b00000000000000000000000000011010 ^
b000000000000010110000 #!
1g!
b00000000000000000000110110010011 i!
#345
0g!
#350
b00000000000000000000000010110100 (
b00000000000000000000110110010011 *
b00000000000000000000000010110000 +
b00000000000000000000000010101100 0
b11010 2
b11001 A
b11000 H
b10111 N
b11011 T
b00000000000000000000000000011011 [
b00000000000000000000100000011010 ^
b000000000000010110100 #!
1g!
b00000000000000000000111000010011 i!
#355
0g!
#360
b00000000000000000000000010111000 (
b00000000000000000000111000010011 *
b00000000000000000000000010110100 +
b00000000000000000000000010110000 0
b11011 2
b11010 A
b11001 H
b11000 N
b11100 T
b00000000000000000000000000011100 [
b00000000000000000000000000011100 ^
b000000000000010111000 #!
1g!
b00000000000000000000111010010011 i!
#365
0g!
#370
b00000000000000000000000010111100 (
b00000000000000000000111010010011 *
b00000000000000000000000010111000 +
b00000000000000000000000010110100 0
b11100 2
b11011 A
b11010 H
b11001 N
b11101 T
b00000000000000000000000000011101 [
b00000000000000000000100000011100 ^
b000000000000010111100 #!
1g!
b00000000000000000000111100010011 i!
#375
0g!
#380
b00000000000000000000000011000000 (
b00000000000000000000111100010011 *
b00000000000000000000000010111100 +
b00000000000000000000000010111000 0
b11101 2
b11100 A
b11011 H
b11010 N
b11110 T
b00000000000000000000000000011110 [
b00000000000000000000000000011110 ^
b000000000000011000000 #!
1g!
b00000000000000000000111110010011 i!
#385
0g!
#390
b00000000000000000000000011000100 (
b00000000000000000000111110010011 *
b00000000000000000000000011000000 +
b00000000000000000000000010111100 0
b11110 2
b11101 A
b11100 H
b11011 N
b11111 T
b00000000000000000000000000011111 [
b00000000000000000000100000011110 ^
b000000000000011000100 #!
1g!
b11110001010000000010010101110011 i!
#395
0g!
