RV32_IM/wave.vcd
$version Generated by VerilatedVcd $end
$date Mon Feb  6 20:02:46 2023 $end
$timescale 1s $end

 $scope module top $end
  $var wire  1 =" clk_i $end
  $var wire  1 >" halt_o $end
  $var wire  1 <" rst_i $end
  $scope module coretop $end
   $var wire  1 =" clk_i $end
   $var wire 32 G exemem_memaddr [31:0] $end
   $var wire  1 H exemem_memre $end
   $var wire  1 I exemem_memwe $end
   $var wire  3 J exemem_opfunc3 [2:0] $end
   $var wire  5 D exemem_rdaddr [4:0] $end
   $var wire 32 E exemem_rddata [31:0] $end
   $var wire  1 F exemem_we $end
   $var wire  1 % exepipe_je $end
   $var wire 32 $ exepipe_jumpaddr [31:0] $end
   $var wire  1 ( exepipe_stall $end
   $var wire 32 B fwdexe_rs1 [31:0] $end
   $var wire 32 C fwdexe_rs2 [31:0] $end
   $var wire  1 # halt_o $end
   $var wire  1 9 idexe_addsubsel $end
   $var wire 32 3 idexe_imm [31:0] $end
   $var wire  1 < idexe_memre $end
   $var wire  1 ; idexe_memwe $end
   $var wire  3 7 idexe_opfunc3 [2:0] $end
   $var wire  3 6 idexe_optype [2:0] $end
   $var wire 32 2 idexe_pc [31:0] $end
   $var wire  5 4 idexe_rdaddr [4:0] $end
   $var wire  1 8 idexe_shiftsel $end
   $var wire  1 : idexe_typesel $end
   $var wire  1 5 idexe_we $end
   $var wire  5 ? idfwd_addr1 [4:0] $end
   $var wire  5 @ idfwd_addr2 [4:0] $end
   $var wire 32 = idfwd_rs1 [31:0] $end
   $var wire 32 > idfwd_rs2 [31:0] $end
   $var wire  1 A idpipectrl_loadusehazard $end
   $var wire  5 0 idreg_addr1 [4:0] $end
   $var wire  5 1 idreg_addr2 [4:0] $end
   $var wire 32 , ifid_inst [31:0] $end
   $var wire 32 - ifid_pc [31:0] $end
   $var wire  1 # mem_halt $end
   $var wire  1 P memrom_memwe $end
   $var wire 32 N memrom_ramaddr [31:0] $end
   $var wire 32 O memrom_ramdata [31:0] $end
   $var wire  5 K memwb_rdaddr [4:0] $end
   $var wire 32 L memwb_rddata [31:0] $end
   $var wire  1 M memwb_we $end
   $var wire 32 * pc_wire [31:0] $end
   $var wire  1 ) pipectrl_flushid $end
   $var wire  1 % pipectrl_flushif $end
   $var wire  1 ( pipectrl_stallexe $end
   $var wire  1 ( pipectrl_stallid $end
   $var wire  1 ' pipectrl_stallif $end
   $var wire  1 ( pipectrl_stallmem $end
   $var wire  1 & pipectrl_stallpc $end
   $var wire  1 ( pipectrl_stallwb $end
   $var wire  1 % pipectrlpc_je $end
   $var wire 32 $ pipectrlpc_jumpaddr [31:0] $end
   $var wire 32 . regid_data1 [31:0] $end
   $var wire 32 / regid_data2 [31:0] $end
   $var wire 32 ?" romif_inst [31:0] $end
   $var wire 32 * romif_pc [31:0] $end
   $var wire 32 + rommem_ramdata [31:0] $end
   $var wire  1 <" rst_i $end
   $var wire  5 Q wbreg_rdaddr [4:0] $end
   $var wire 32 R wbreg_rddata [31:0] $end
   $var wire  1 S wbreg_we $end
   $scope module decode0 $end
    $var wire  1 f AUPICtype $end
    $var wire  1 i Btype $end
    $var wire  1 b Itype $end
    $var wire  1 h JALRtype $end
    $var wire  1 g JALtype $end
    $var wire  1 e LUItype $end
    $var wire  1 Y Ltype $end
    $var wire  1 d Mtype $end
    $var wire  1 c Rtype $end
    $var wire  1 Z Stype $end
    $var wire  1 k addsubsel $end
    $var wire  1 9 addsubsel_o $end
    $var wire  1 =" clk_i $end
    $var wire  1 ) flush_i $end
    $var wire  5 ? fwd_raddr1_o [4:0] $end
    $var wire  5 @ fwd_raddr2_o [4:0] $end
    $var wire 32 o imm [31:0] $end
    $var wire 32 a immB [31:0] $end
    $var wire 32 \ immI [31:0] $end
    $var wire 32 ` immJ [31:0] $end
    $var wire 32 ] immL [31:0] $end
    $var wire 32 ^ immS [31:0] $end
    $var wire 32 _ immU [31:0] $end
    $var wire 32 3 imm_o [31:0] $end
    $var wire 32 , inst_i [31:0] $end
    $var wire  1 A loaduse_hazard_o $end
    $var wire  1 Y mem_re $end
    $var wire  1 < mem_re_o $end
    $var wire  1 Z mem_we $end
    $var wire  1 ; mem_we_o $end
    $var wire  7 T opcode [6:0] $end
    $var wire  3 U opfunc3 [2:0] $end
    $var wire  3 7 opfunc3_o [2:0] $end
    $var wire  7 V opfunc7 [6:0] $end
    $var wire  3 X optype [2:0] $end
    $var wire  3 6 optype_o [2:0] $end
    $var wire 32 - pc_i [31:0] $end
    $var wire 32 2 pc_o [31:0] $end
    $var wire  1 m raddr1_thesame $end
    $var wire  1 n raddr2_thesame $end
    $var wire  5 W rd_addr [4:0] $end
    $var wire  5 4 rd_addr_o [4:0] $end
    $var wire  1 5 rd_we_o $end
    $var wire 32 . reg_data1_i [31:0] $end
    $var wire 32 / reg_data2_i [31:0] $end
    $var wire  1 [ reg_we $end
    $var wire  5 0 rs1_addr_o [4:0] $end
    $var wire 32 = rs1_o [31:0] $end
    $var wire  5 1 rs2_addr_o [4:0] $end
    $var wire 32 > rs2_o [31:0] $end
    $var wire  1 <" rst_i $end
    $var wire 32 , rv32inst [31:0] $end
    $var wire  1 j shiftsel $end
    $var wire  1 8 shiftsel_o $end
    $var wire  1 ( stall_i $end
    $var wire  1 l typesel $end
    $var wire  1 : typesel_o $end
   $upscope $end
   $scope module dpram0 $end
    $var wire 21 W! addr4 [20:0] $end
    $var wire 32 * addr_i [31:0] $end
    $var wire  1 =" clk_i $end
    $var wire 32 ?" inst_o [31:0] $end
    $var wire  1 P mem_we_i $end
    $var wire 32 * pc_o [31:0] $end
    $var wire 32 N ram_addr_i [31:0] $end
    $var wire 32 O ram_data_i [31:0] $end
    $var wire 32 + ram_data_o [31:0] $end
    $var wire 21 X! ramaddr4 [20:0] $end
   $upscope $end
   $scope module exe0 $end
    $var wire  1 9 addsubsel_i $end
    $var wire  1 =" clk_i $end
    $var wire  1 !! divisdone $end
    $var wire 32 v divresult [31:0] $end
    $var wire  1 | divstart $end
    $var wire 32 3 imm_i [31:0] $end
    $var wire 64 y invertresult [63:0] $end
    $var wire  1 "! is_b_zero $end
    $var wire  1 } is_q_operation $end
    $var wire  1 % je_o $end
    $var wire 32 $ jump_addr_o [31:0] $end
    $var wire 32 u mem_addr [31:0] $end
    $var wire 32 G mem_addr_o [31:0] $end
    $var wire  1 < mem_re_i $end
    $var wire  1 H mem_re_o $end
    $var wire  1 ; mem_we_i $end
    $var wire  1 I mem_we_o $end
    $var wire  1 ( mtype_stall_o $end
    $var wire 32 s mtypea [31:0] $end
    $var wire 32 t mtypeb [31:0] $end
    $var wire  1 ~ mulisdone $end
    $var wire 64 w mulresult [63:0] $end
    $var wire  1 { mulstart $end
    $var wire 32 p op1 [31:0] $end
    $var wire 32 q op2 [31:0] $end
    $var wire 32 r op_result [31:0] $end
    $var wire  3 7 opfunc3_i [2:0] $end
    $var wire  3 J opfunc3_o [2:0] $end
    $var wire  3 6 optype_i [2:0] $end
    $var wire 32 2 pc_i [31:0] $end
    $var wire  5 4 rd_addr_i [4:0] $end
    $var wire  5 D rd_addr_o [4:0] $end
    $var wire 32 E rd_data_o [31:0] $end
    $var wire  1 5 rd_we_i $end
    $var wire  1 F rd_we_o $end
    $var wire 32 B rs1_i [31:0] $end
    $var wire 32 C rs2_i [31:0] $end
    $var wire  1 <" rst_i $end
    $var wire  1 8 shiftsel_i $end
    $var wire  1 ( stall_i $end
    $var wire  1 : typesel_i $end
    $scope module div0 $end
     $var wire  3 >! S [2:0] $end
     $var wire  3 A" S_CALC [2:0] $end
     $var wire  3 B" S_DONE [2:0] $end
     $var wire  3 @" S_IDLE [2:0] $end
     $var wire  3 ?! S_next [2:0] $end
     $var wire 32 s a_i [31:0] $end
     $var wire 32 t b_i [31:0] $end
     $var wire  1 =" clk_i $end
     $var wire  6 ;! cnt [5:0] $end
     $var wire  1 @! div_sub $end
     $var wire 32 v divresult_o [31:0] $end
     $var wire  1 4! is_a_zero $end
     $var wire  1 5! is_b_zero $end
     $var wire  1 6! is_calc_done $end
     $var wire  1 } is_q_i $end
     $var wire  1 !! isdone_o $end
     $var wire 32 s op_a [31:0] $end
     $var wire 32 t op_b [31:0] $end
     $var wire 32 <! quotient [31:0] $end
     $var wire 32 7! reg32 [31:0] $end
     $var wire 32 =! remainder [31:0] $end
     $var wire 65 8! result [64:0] $end
     $var wire 65 C! result_tmp [64:0] $end
     $var wire  1 <" rst_i $end
     $var wire  1 | start_i $end
     $var wire 33 A! sub_tmp [32:0] $end
    $upscope $end
    $scope module mul0 $end
     $var wire  3 +! S [2:0] $end
     $var wire  3 A" S_CALC [2:0] $end
     $var wire  3 B" S_DONE [2:0] $end
     $var wire  3 @" S_IDLE [2:0] $end
     $var wire  3 ,! S_nxt [2:0] $end
     $var wire 32 s a_i [31:0] $end
     $var wire 32 &! adder_opa [31:0] $end
     $var wire 32 .! adder_opb [31:0] $end
     $var wire 33 /! adder_tmp [32:0] $end
     $var wire 32 t b_i [31:0] $end
     $var wire  1 =" clk_i $end
     $var wire  6 *! cnt [5:0] $end
     $var wire  1 #! is_a_zero $end
     $var wire  1 $! is_b_zero $end
     $var wire  1 %! is_calc_done $end
     $var wire  1 ~ isdone_o $end
     $var wire  1 -! mul_add $end
     $var wire 64 w mulresult_o [63:0] $end
     $var wire 32 s op_a [31:0] $end
     $var wire 32 t op_b [31:0] $end
     $var wire 32 &! reg32 [31:0] $end
     $var wire 65 '! result [64:0] $end
     $var wire 65 1! result_tmp [64:0] $end
     $var wire  1 <" rst_i $end
     $var wire  1 { start_i $end
    $upscope $end
   $upscope $end
   $scope module forwarding0 $end
    $var wire  1 J! exe_addr_not0 $end
    $var wire  5 D exe_rdaddr_i [4:0] $end
    $var wire 32 E exe_rddata_i [31:0] $end
    $var wire  1 F exe_rdwe $end
    $var wire  1 Q! exedata1_forward $end
    $var wire  1 R! exedata2_forward $end
    $var wire  1 H! exeid_addr1_same $end
    $var wire  1 I! exeid_addr2_same $end
    $var wire  1 M! mem_addr_not0 $end
    $var wire  5 K mem_rdaddr_i [4:0] $end
    $var wire 32 L mem_rddata_i [31:0] $end
    $var wire  1 M mem_rdwe $end
    $var wire  1 S! memdata1_forward $end
    $var wire  1 T! memdata2_forward $end
    $var wire  1 K! memid_addr1_same $end
    $var wire  1 L! memid_addr2_same $end
    $var wire  5 ? rs1_addr_i [4:0] $end
    $var wire 32 = rs1_data_i [31:0] $end
    $var wire 32 B rs1_data_o [31:0] $end
    $var wire  5 @ rs2_addr_i [4:0] $end
    $var wire 32 > rs2_data_i [31:0] $end
    $var wire 32 C rs2_data_o [31:0] $end
    $var wire  1 P! wb_addr_not0 $end
    $var wire  5 Q wb_rdaddr_i [4:0] $end
    $var wire 32 R wb_rddata_i [31:0] $end
    $var wire  1 S wb_rdwe $end
    $var wire  1 U! wbdata1_forward $end
    $var wire  1 V! wbdata2_forward $end
    $var wire  1 N! wbid_addr1_same $end
    $var wire  1 O! wbid_addr2_same $end
   $upscope $end
   $scope module inst_fetch0 $end
    $var wire  1 =" clk_i $end
    $var wire  1 % flush_i $end
    $var wire 32 ?" inst_i [31:0] $end
    $var wire 32 , inst_o [31:0] $end
    $var wire 32 * pc_i [31:0] $end
    $var wire 32 - pc_o [31:0] $end
    $var wire  1 <" rst_i $end
    $var wire  1 ' stall_i $end
   $upscope $end
   $scope module mem0 $end
    $var wire  1 =" clk_i $end
    $var wire  1 # halt_o $end
    $var wire 32 G mem_addr_i [31:0] $end
    $var wire  1 H mem_re_i $end
    $var wire  1 I mem_we_i $end
    $var wire  3 J opfunc3_i [2:0] $end
    $var wire 32 N ram_addr_o [31:0] $end
    $var wire  2 F! ram_addr_offset [1:0] $end
    $var wire 32 + ram_data_i [31:0] $end
    $var wire 32 O ram_data_o [31:0] $end
    $var wire  1 P ram_we_o $end
    $var wire  5 D rd_addr_i [4:0] $end
    $var wire  5 K rd_addr_o [4:0] $end
    $var wire 32 G! rd_data [31:0] $end
    $var wire 32 E rd_data_i [31:0] $end
    $var wire 32 L rd_data_o [31:0] $end
    $var wire  1 F rd_we_i $end
    $var wire  1 M rd_we_o $end
    $var wire  1 <" rst_i $end
    $var wire  1 ( stall_i $end
   $upscope $end
   $scope module pipectrl0 $end
    $var wire  1 ) flushid_o $end
    $var wire  1 % flushif_o $end
    $var wire  1 % je_i $end
    $var wire  1 % je_o $end
    $var wire 32 $ jump_addr_i [31:0] $end
    $var wire 32 $ jump_addr_o [31:0] $end
    $var wire  1 A loaduse_hazard_i $end
    $var wire  1 ( mtype_stall_i $end
    $var wire  1 ( stallexe_o $end
    $var wire  1 ( stallid_o $end
    $var wire  1 ' stallif_o $end
    $var wire  1 ( stallmem_o $end
    $var wire  1 & stallpc_o $end
    $var wire  1 ( stallwb_o $end
   $upscope $end
   $scope module program_counter0 $end
    $var wire  1 =" clk_i $end
    $var wire  1 % je_i $end
    $var wire 32 $ jump_addr_i [31:0] $end
    $var wire 32 * pc_o [31:0] $end
    $var wire  1 <" rst_i $end
    $var wire  1 & stall_i $end
   $upscope $end
   $scope module regfiles0 $end
    $var wire 32 $" a0 [31:0] $end
    $var wire 32 %" a1 [31:0] $end
    $var wire 32 &" a2 [31:0] $end
    $var wire 32 '" a3 [31:0] $end
    $var wire 32 (" a4 [31:0] $end
    $var wire 32 )" a5 [31:0] $end
    $var wire 32 *" a6 [31:0] $end
    $var wire 32 +" a7 [31:0] $end
    $var wire  1 =" clk_i $end
    $var wire 32 {! gp [31:0] $end
    $var wire 32 ;" i [31:0] $end
    $var wire 32 y! ra [31:0] $end
    $var wire  5 Q rd_addr_i [4:0] $end
    $var wire 32 R rd_data_i [31:0] $end
    $var wire  1 S rd_we_i $end
    $var wire  5 0 rs1_addr_i [4:0] $end
    $var wire 32 . rs1_data_o [31:0] $end
    $var wire  5 1 rs2_addr_i [4:0] $end
    $var wire 32 / rs2_data_o [31:0] $end
    $var wire  1 <" rst_i $end
    $var wire 32 "" s0 [31:0] $end
    $var wire 32 #" s1 [31:0] $end
    $var wire 32 4" s10 [31:0] $end
    $var wire 32 5" s11 [31:0] $end
    $var wire 32 ," s2 [31:0] $end
    $var wire 32 -" s3 [31:0] $end
    $var wire 32 ." s4 [31:0] $end
    $var wire 32 /" s5 [31:0] $end
    $var wire 32 0" s6 [31:0] $end
    $var wire 32 1" s7 [31:0] $end
    $var wire 32 2" s8 [31:0] $end
    $var wire 32 3" s9 [31:0] $end
    $var wire 32 z! sp [31:0] $end
    $var wire 32 }! t0 [31:0] $end
    $var wire 32 ~! t1 [31:0] $end
    $var wire 32 !" t2 [31:0] $end
    $var wire 32 6" t3 [31:0] $end
    $var wire 32 7" t4 [31:0] $end
    $var wire 32 8" t5 [31:0] $end
    $var wire 32 9" t6 [31:0] $end
    $var wire 32 |! tp [31:0] $end
    $var wire  1 :" we $end
    $var wire 32 Y! x(0) [31:0] $end
    $var wire 32 Z! x(1) [31:0] $end
    $var wire 32 c! x(10) [31:0] $end
    $var wire 32 d! x(11) [31:0] $end
    $var wire 32 e! x(12) [31:0] $end
    $var wire 32 f! x(13) [31:0] $end
    $var wire 32 g! x(14) [31:0] $end
    $var wire 32 h! x(15) [31:0] $end
    $var wire 32 i! x(16) [31:0] $end
    $var wire 32 j! x(17) [31:0] $end
    $var wire 32 k! x(18) [31:0] $end
    $var wire 32 l! x(19) [31:0] $end
    $var wire 32 [! x(2) [31:0] $end
    $var wire 32 m! x(20) [31:0] $end
    $var wire 32 n! x(21) [31:0] $end
    $var wire 32 o! x(22) [31:0] $end
    $var wire 32 p! x(23) [31:0] $end
    $var wire 32 q! x(24) [31:0] $end
    $var wire 32 r! x(25) [31:0] $end
    $var wire 32 s! x(26) [31:0] $end
    $var wire 32 t! x(27) [31:0] $end
    $var wire 32 u! x(28) [31:0] $end
    $var wire 32 v! x(29) [31:0] $end
    $var wire 32 \! x(3) [31:0] $end
    $var wire 32 w! x(30) [31:0] $end
    $var wire 32 x! x(31) [31:0] $end
    $var wire 32 ]! x(4) [31:0] $end
    $var wire 32 ^! x(5) [31:0] $end
    $var wire 32 _! x(6) [31:0] $end
    $var wire 32 `! x(7) [31:0] $end
    $var wire 32 a! x(8) [31:0] $end
    $var wire 32 b! x(9) [31:0] $end
   $upscope $end
   $scope module writeback0 $end
    $var wire  1 =" clk_i $end
    $var wire  5 K rd_addr_i [4:0] $end
    $var wire  5 Q rd_addr_o [4:0] $end
    $var wire 32 L rd_data_i [31:0] $end
    $var wire 32 R rd_data_o [31:0] $end
    $var wire  1 M rd_we_i $end
    $var wire  1 S rd_we_o $end
    $var wire  1 <" rst_i $end
    $var wire  1 ( stall_i $end
   $upscope $end
  $upscope $end
 $upscope $end
$enddefinitions $end


#5
0#
b00000000000000000000000000000000 $
0%
0&
0'
0(
0)
b00000000000000000000000000000000 *
b00000100100000000000000001101111 +
b00000000000000000000000000000000 ,
b00000000000000000000000000000000 -
b00000000000000000000000000000000 .
b00000000000000000000000000000000 /
b00000 0
b00000 1
b00000000000000000000000000000000 2
b00000000000000000000000000000000 3
b00000 4
05
b000 6
b000 7
08
09
0:
0;
0<
b00000000000000000000000000000000 =
b00000000000000000000000000000000 >
b00000 ?
b00000 @
0A
b00000000000000000000000000000000 B
b00000000000000000000000000000000 C
b00000 D
b00000000000000000000000000000000 E
0F
b00000000000000000000000000000000 G
0H
0I
b000 J
b00000 K
b00000000000000000000000000000000 L
0M
b00000000000000000000000000000000 N
b00000000000000000000000000000000 O
0P
b00000 Q
b00000000000000000000000000000000 R
0S
b0000000 T
b000 U
b0000000 V
b00000 W
b111 X
0Y
0Z
0[
b00000000000000000000000000000000 \
b00000000000000000000000000000000 ]
b00000000000000000000000000000000 ^
b00000000000000000000000000000000 _
b00000000000000000000000000000000 `
b00000000000000000000000000000000 a
0b
0c
0d
0e
0f
0g
0h
0i
0j
0k
0l
0m
0n
b00000000000000000000000000000000 o
b00000000000000000000000000000000 p
b00000000000000000000000000000000 q
b00000000000000000000000000000000 r
b00000000000000000000000000000000 s
b00000000000000000000000000000000 t
b00000000000000000000000000000000 u
b00000000000000000000000000000000 v
b0000000000000000000000000000000000000000000000000000000000000000 w
b0000000000000000000000000000000000000000000000000000000000000000 y
0{
0|
0}
0~
0!!
1"!
1#!
1$!
1%!
b00000000000000000000000000000000 &!
b00000000000000000000000000000000000000000000000000000000000000000 '!
b000000 *!
b000 +!
b011 ,!
0-!
b00000000000000000000000000000000 .!
b000000000000000000000000000000000 /!
b00000000000000000000000000000000000000000000000000000000000000000 1!
14!
15!
16!
b00000000000000000000000000000000 7!
b00000000000000000000000000000000000000000000000000000000000000000 8!
b000000 ;!
b00000000000000000000000000000000 <!
b00000000000000000000000000000000 =!
b000 >!
b000 ?!
1@!
b000000000000000000000000000000000 A!
b00000000000000000000000000000000000000000000000000000000000000000 C!
b00 F!
b00000000000000000000000000000000 G!
1H!
1I!
0J!
1K!
1L!
0M!
1N!
1O!
0P!
0Q!
0R!
0S!
0T!
0U!
0V!
b000000000000000000000 W!
b000000000000000000000 X!
b00000000000000000000000000000000 Y!
b00000000000000000000000000000000 Z!
b00000000000000000000000000000000 [!
b00000000000000000000000000000000 \!
b00000000000000000000000000000000 ]!
b00000000000000000000000000000000 ^!
b00000000000000000000000000000000 _!
b00000000000000000000000000000000 `!
b00000000000000000000000000000000 a!
b00000000000000000000000000000000 b!
b00000000000000000000000000000000 c!
b00000000000000000000000000000000 d!
b00000000000000000000000000000000 e!
b00000000000000000000000000000000 f!
b00000000000000000000000000000000 g!
b00000000000000000000000000000000 h!
b00000000000000000000000000000000 i!
b00000000000000000000000000000000 j!
b00000000000000000000000000000000 k!
b00000000000000000000000000000000 l!
b00000000000000000000000000000000 m!
b00000000000000000000000000000000 n!
b00000000000000000000000000000000 o!
b00000000000000000000000000000000 p!
b00000000000000000000000000000000 q!
b00000000000000000000000000000000 r!
b00000000000000000000000000000000 s!
b00000000000000000000000000000000 t!
b00000000000000000000000000000000 u!
b00000000000000000000000000000000 v!
b00000000000000000000000000000000 w!
b00000000000000000000000000000000 x!
b00000000000000000000000000000000 y!
b00000000000000000000000000000000 z!
b00000000000000000000000000000000 {!
b00000000000000000000000000000000 |!
b00000000000000000000000000000000 }!
b00000000000000000000000000000000 ~!
b00000000000000000000000000000000 !"
b00000000000000000000000000000000 ""
b00000000000000000000000000000000 #"
b00000000000000000000000000000000 $"
b00000000000000000000000000000000 %"
b00000000000000000000000000000000 &"
b00000000000000000000000000000000 '"
b00000000000000000000000000000000 ("
b00000000000000000000000000000000 )"
b00000000000000000000000000000000 *"
b00000000000000000000000000000000 +"
b00000000000000000000000000000000 ,"
b00000000000000000000000000000000 -"
b00000000000000000000000000000000 ."
b00000000000000000000000000000000 /"
b00000000000000000000000000000000 0"
b00000000000000000000000000000000 1"
b00000000000000000000000000000000 2"
b00000000000000000000000000000000 3"
b00000000000000000000000000000000 4"
b00000000000000000000000000000000 5"
b00000000000000000000000000000000 6"
b00000000000000000000000000000000 7"
b00000000000000000000000000000000 8"
b00000000000000000000000000000000 9"
0:"
b00000000000000000000000000000000 ;"
1<"
0="
0>"
b00000100100000000000000001101111 ?"
b000 @"
b001 A"
b011 B"
#10
b00000000000000000000000000100000 ;"
1="
#15
0="
#20
1="
#25
0="
#30
1="
#35
0="
#40
1="
#45
0="
#50
1="
#55
0<"
0="
#60
b00000000000000000000000000000100 *
b00000100100000000000000001101111 ,
b01000 1
b111 6
b1101111 T
b0000010 V
b110 X
1[
b00000000000000000000000001001000 \
b00000000000000000000000001001000 ]
b00000000000000000000000001000000 ^
b00000100100000000000000000000000 _
b00000000000000000000000001001000 `
b00000000000000000000000001000000 a
1g
1l
b00000000000000000000000001001000 o
b000000000000000000100 W!
1="
b00110100001000000010111101110011 ?"
#65
0="
#70
b00000000000000000000000001001000 $
1%
1)
b00000000000000000000000000001000 *
b00110100001000000010111101110011 ,
b00000000000000000000000000000100 -
b00010 1
b00000000000000000000000001001000 3
15
b110 6
1:
b01000 @
b1110011 T
b010 U
b0011010 V
b11110 W
b111 X
0[
b00000000000000000000001101000010 \
b00000000000000000000001101000010 ]
b00000000000000000000001101011110 ^
b00110100001000000010000000000000 _
b00000000000000000010001101000010 `
b00000000000000000000001101011110 a
0g
0l
b00000000000000000000000000000000 o
b00000000000000000000000000000100 r
b00000000000000000000000001001000 u
0I!
0L!
0O!
b000000000000000001000 W!
1="
b00000000100000000000111110010011 ?"
#75
0="
#80
b00000000000000000000000000000000 $
0%
0)
b00000000000000000000000001001000 *
b00000000000000000000000000000000 ,
b00000000000000000000000000000000 -
b00000 1
b00000000000000000000000000000000 3
05
b000 6
0:
b00000 @
b00000000000000000000000000000100 E
1F
b00000000000000000000000001001000 G
b0000000 T
b000 U
b0000000 V
b00000 W
b00000000000000000000000000000000 \
b00000000000000000000000000000000 ]
b00000000000000000000000000000000 ^
b00000000000000000000000000000000 _
b00000000000000000000000000000000 `
b00000000000000000000000000000000 a
b00000000000000000000000000000000 r
b00000000000000000000000000000000 u
b00000000000000000000000000000100 G!
1I!
1L!
1O!
b000000000000001001000 W!
1="
b00000000000000000000000010010011 ?"
#85
0="
#90
b00000000000000000000000001001100 *
b00000000000000000000000010010011 ,
b00000000000000000000000001001000 -
b111 6
b00000000000000000000000000000000 E
0F
b00000000000000000000000000000000 G
b00000000000000000000000000000100 L
1M
b0010011 T
b00001 W
b001 X
1[
b00000000000000000000000000000001 ^
b00000000000000000000100000000000 a
1b
1m
b00000000000000000000000000000000 G!
b000000000000001001100 W!
1="
b00000000000000000000000100010011 ?"
#95
0="
#100
b00000000000000000000000001010000 *
b00000000000000000000000100010011 ,
b00000000000000000000000001001100 -
b00000000000000000000000001001000 2
b00001 4
15
b001 6
b00000000000000000000000000000000 L
0M
b00000000000000000000000000000100 R
1S
b00010 W
b00000000000000000000000000000010 ^
b00000000000000000000000000000010 a
0m
b000000000000001010000 W!
1="
b00000000000000000000000110010011 ?"
#105
0="
#110
b00000000000000000000000001010100 *
b00000000000000000000000110010011 ,
b00000000000000000000000001010000 -
b00000000000000000000000001001100 2
b00010 4
b00001 D
1F
b00000000000000000000000000000000 R
0S
b00011 W
b00000000000000000000000000000011 ^
b00000000000000000000100000000010 a
0H!
0I!
1J!
b000000000000001010100 W!
1="
b00000000000000000000001000010011 ?"
#115
0="
#120
b00000000000000000000000001011000 *
b00000000000000000000001000010011 ,
b00000000000000000000000001010100 -
b00000000000000000000000001010000 2
b00011 4
b00010 D
b00001 K
1M
b00100 W
b00000000000000000000000000000100 ^
b00000000000000000000000000000100 a
0K!
0L!
1M!
b000000000000001011000 W!
1="
b00000000000000000000001010010011 ?"
#125
0="
#130
b00000000000000000000000001011100 *
b00000000000000000000001010010011 ,
b00000000000000000000000001011000 -
b00000000000000000000000001010100 2
b00100 4
b00011 D
b00010 K
b00001 Q
1S
b00101 W
b00000000000000000000000000000101 ^
b00000000000000000000100000000100 a
0N!
0O!
1P!
b000000000000001011100 W!
1:"
1="
b00000000000000000000001100010011 ?"
#135
0="
#140
b00000000000000000000000001100000 *
b00000000000000000000001100010011 ,
b00000000000000000000000001011100 -
b00000000000000000000000001011000 2
b00101 4
b00100 D
b00011 K
b00010 Q
b00110 W
b00000000000000000000000000000110 ^
b00000000000000000000000000000110 a
b000000000000001100000 W!
1="
b00000000000000000000001110010011 ?"
#145
0="
#150
b00000000000000000000000001100100 *
b00000000000000000000001110010011 ,
b00000000000000000000000001100000 -
b00000000000000000000000001011100 2
b00110 4
b00101 D
b00100 K
b00011 Q
b00111 W
b00000000000000000000000000000111 ^
b00000000000000000000100000000110 a
b000000000000001100100 W!
1="
b00000000000000000000010000010011 ?"
#155
0="
#160
b00000000000000000000000001101000 *
b00000000000000000000010000010011 ,
b00000000000000000000000001100100 -
b00000000000000000000000001100000 2
b00111 4
b00110 D
b00101 K
b00100 Q
b01000 W
b00000000000000000000000000001000 ^
b00000000000000000000000000001000 a
b000000000000001101000 W!
1="
b00000000000000000000010010010011 ?"
#165
0="
#170
b00000000000000000000000001101100 *
b00000000000000000000010010010011 ,
b00000000000000000000000001101000 -
b00000000000000000000000001100100 2
b01000 4
b00111 D
b00110 K
b00101 Q
b01001 W
b00000000000000000000000000001001 ^
b00000000000000000000100000001000 a
b000000000000001101100 W!
1="
b00000000000000000000010100010011 ?"
#175
0="
#180
b00000000000000000000000001110000 *
b00000000000000000000010100010011 ,
b00000000000000000000000001101100 -
b00000000000000000000000001101000 2
b01001 4
b01000 D
b00111 K
b00110 Q
b01010 W
b00000000000000000000000000001010 ^
b00000000000000000000000000001010 a
b000000000000001110000 W!
1="
b00000000000000000000010110010011 ?"
#185
0="
#190
b00000000000000000000000001110100 *
b00000000000000000000010110010011 ,
b00000000000000000000000001110000 -
b00000000000000000000000001101100 2
b01010 4
b01001 D
b01000 K
b00111 Q
b01011 W
b00000000000000000000000000001011 ^
b00000000000000000000100000001010 a
b000000000000001110100 W!
1="
b00000000000000000000011000010011 ?"
#195
0="
#200
b00000000000000000000000001111000 *
b00000000000000000000011000010011 ,
b00000000000000000000000001110100 -
b00000000000000000000000001110000 2
b01011 4
b01010 D
b01001 K
b01000 Q
b01100 W
b00000000000000000000000000001100 ^
b00000000000000000000000000001100 a
b000000000000001111000 W!
1="
b00000000000000000000011010010011 ?"
#205
0="
#210
b00000000000000000000000001111100 *
b00000000000000000000011010010011 ,
b00000000000000000000000001111000 -
b00000000000000000000000001110100 2
b01100 4
b01011 D
b01010 K
b01001 Q
b01101 W
b00000000000000000000000000001101 ^
b00000000000000000000100000001100 a
b000000000000001111100 W!
1="
b00000000000000000000011100010011 ?"
#215
0="
#220
b00000000000000000000000010000000 *
b00000000000000000000011100010011 ,
b00000000000000000000000001111100 -
b00000000000000000000000001111000 2
b01101 4
b01100 D
b01011 K
b01010 Q
b01110 W
b00000000000000000000000000001110 ^
b00000000000000000000000000001110 a
b000000000000010000000 W!
1="
b00000000000000000000011110010011 ?"
#225
0="
#230
b00000000000000000000000010000100 *
b00000000000000000000011110010011 ,
b00000000000000000000000010000000 -
b00000000000000000000000001111100 2
b01110 4
b01101 D
b01100 K
b01011 Q
b01111 W
b00000000000000000000000000001111 ^
b00000000000000000000100000001110 a
b000000000000010000100 W!
1="
b00000000000000000000100000010011 ?"
#235
0="
#240
b00000000000000000000000010001000 *
b00000000000000000000100000010011 ,
b00000000000000000000000010000100 -
b00000000000000000000000010000000 2
b01111 4
b01110 D
b01101 K
b01100 Q
b10000 W
b00000000000000000000000000010000 ^
b00000000000000000000000000010000 a
b000000000000010001000 W!
1="
b00000000000000000000100010010011 ?"
#245
0="
#250
b00000000000000000000000010001100 *
b00000000000000000000100010010011 ,
b00000000000000000000000010001000 -
b00000000000000000000000010000100 2
b10000 4
b01111 D
b01110 K
b01101 Q
b10001 W
b00000000000000000000000000010001 ^
b00000000000000000000100000010000 a
b000000000000010001100 W!
1="
b00000000000000000000100100010011 ?"
#255
0="
#260
b00000000000000000000000010010000 *
b00000000000000000000100100010011 ,
b00000000000000000000000010001100 -
b00000000000000000000000010001000 2
b10001 4
b10000 D
b01111 K
b01110 Q
b10010 W
b00000000000000000000000000010010 ^
b00000000000000000000000000010010 a
b000000000000010010000 W!
1="
b00000000000000000000100110010011 ?"
#265
0="
#270
b00000000000000000000000010010100 *
b00000000000000000000100110010011 ,
b00000000000000000000000010010000 -
b00000000000000000000000010001100 2
b10010 4
b10001 D
b10000 K
b01111 Q
b10011 W
b00000000000000000000000000010011 ^
b00000000000000000000100000010010 a
b000000000000010010100 W!
1="
b00000000000000000000101000010011 ?"
#275
0="
