FiveStage_RIS/wave.vcd
$version Generated by VerilatedVcd $end
$date Tue Jan 31 17:22:41 2023 $end
$timescale 1s $end

 $scope module top $end
  $var wire  1 [! clk_i $end
  $var wire  1 Z! rst_i $end
  $scope module coretop $end
   $var wire  1 [! clk_i $end
   $var wire 32 ? exemem_memaddr [31:0] $end
   $var wire  1 @ exemem_memre $end
   $var wire  1 A exemem_memwe $end
   $var wire  3 B exemem_opfunc3 [2:0] $end
   $var wire  5 < exemem_rdaddr [4:0] $end
   $var wire 32 = exemem_rddata [31:0] $end
   $var wire  1 > exemem_we $end
   $var wire 32 : fwdexe_rs1 [31:0] $end
   $var wire 32 ; fwdexe_rs2 [31:0] $end
   $var wire  1 3 idexe_addsubsel $end
   $var wire 32 - idexe_imm [31:0] $end
   $var wire  1 5 idexe_memre $end
   $var wire  1 4 idexe_memwe $end
   $var wire  3 1 idexe_opfunc3 [2:0] $end
   $var wire  3 0 idexe_optype [2:0] $end
   $var wire 32 , idexe_pc [31:0] $end
   $var wire  5 . idexe_rdaddr [4:0] $end
   $var wire  1 2 idexe_shiftsel $end
   $var wire  1 / idexe_we $end
   $var wire  5 8 idfwd_addr1 [4:0] $end
   $var wire  5 9 idfwd_addr2 [4:0] $end
   $var wire 32 6 idfwd_rs1 [31:0] $end
   $var wire 32 7 idfwd_rs2 [31:0] $end
   $var wire  1 # idpipectrl_loadusehazard $end
   $var wire  5 * idreg_addr1 [4:0] $end
   $var wire  5 + idreg_addr2 [4:0] $end
   $var wire 32 & ifid_inst [31:0] $end
   $var wire 32 ' ifid_pc [31:0] $end
   $var wire  1 H memrom_memwe $end
   $var wire 32 F memrom_ramaddr [31:0] $end
   $var wire 32 G memrom_ramdata [31:0] $end
   $var wire  5 C memwb_rdaddr [4:0] $end
   $var wire 32 D memwb_rddata [31:0] $end
   $var wire  1 E memwb_we $end
   $var wire 32 $ pc_wire [31:0] $end
   $var wire  1 # pipectrl_flushid $end
   $var wire  1 # pipectrl_loaduse_stall $end
   $var wire 32 ( regid_data1 [31:0] $end
   $var wire 32 ) regid_data2 [31:0] $end
   $var wire 32 \! romif_inst [31:0] $end
   $var wire 32 $ romif_pc [31:0] $end
   $var wire 32 % rommem_ramdata [31:0] $end
   $var wire  1 Z! rst_i $end
   $var wire  5 I wbreg_rdaddr [4:0] $end
   $var wire 32 J wbreg_rddata [31:0] $end
   $var wire  1 K wbreg_we $end
   $scope module decode0 $end
    $var wire  1 \ AUPICtype $end
    $var wire  1 ]! Btype $end
    $var wire  1 Y Itype $end
    $var wire  1 [ LUItype $end
    $var wire  1 S Ltype $end
    $var wire  1 Z Rtype $end
    $var wire  1 T Stype $end
    $var wire  1 R addsubsel $end
    $var wire  1 3 addsubsel_o $end
    $var wire  1 [! clk_i $end
    $var wire  1 # flush_i $end
    $var wire  5 8 fwd_raddr1_o [4:0] $end
    $var wire  5 9 fwd_raddr2_o [4:0] $end
    $var wire 32 _ imm [31:0] $end
    $var wire 32 V immI [31:0] $end
    $var wire 32 V immL [31:0] $end
    $var wire 32 W immS [31:0] $end
    $var wire 32 X immU [31:0] $end
    $var wire 32 - imm_o [31:0] $end
    $var wire 32 & inst_i [31:0] $end
    $var wire  1 # loaduse_hazard_o $end
    $var wire  1 S mem_re $end
    $var wire  1 5 mem_re_o $end
    $var wire  1 T mem_we $end
    $var wire  1 4 mem_we_o $end
    $var wire  7 L opcode [6:0] $end
    $var wire  3 M opfunc3 [2:0] $end
    $var wire  3 1 opfunc3_o [2:0] $end
    $var wire  7 N opfunc7 [6:0] $end
    $var wire  3 P optype [2:0] $end
    $var wire  3 0 optype_o [2:0] $end
    $var wire 32 ' pc_i [31:0] $end
    $var wire 32 , pc_o [31:0] $end
    $var wire  1 ] raddr1_thesame $end
    $var wire  1 ^ raddr2_thesame $end
    $var wire  5 O rd_addr [4:0] $end
    $var wire  5 . rd_addr_o [4:0] $end
    $var wire  1 / rd_we_o $end
    $var wire 32 ( reg_data1_i [31:0] $end
    $var wire 32 ) reg_data2_i [31:0] $end
    $var wire  1 U reg_we $end
    $var wire  5 * rs1_addr_o [4:0] $end
    $var wire 32 6 rs1_o [31:0] $end
    $var wire  5 + rs2_addr_o [4:0] $end
    $var wire 32 7 rs2_o [31:0] $end
    $var wire  1 Z! rst_i $end
    $var wire 32 & rv32inst [31:0] $end
    $var wire  1 Q shiftsel $end
    $var wire  1 2 shiftsel_o $end
   $upscope $end
   $scope module exe0 $end
    $var wire  1 3 addsubsel_i $end
    $var wire  1 [! clk_i $end
    $var wire 32 - imm_i [31:0] $end
    $var wire 32 c mem_addr [31:0] $end
    $var wire 32 ? mem_addr_o [31:0] $end
    $var wire  1 5 mem_re_i $end
    $var wire  1 @ mem_re_o $end
    $var wire  1 4 mem_we_i $end
    $var wire  1 A mem_we_o $end
    $var wire 32 ` op1 [31:0] $end
    $var wire 32 a op2 [31:0] $end
    $var wire 32 b op_result [31:0] $end
    $var wire  3 1 opfunc3_i [2:0] $end
    $var wire  3 B opfunc3_o [2:0] $end
    $var wire  3 0 optype_i [2:0] $end
    $var wire 32 , pc_i [31:0] $end
    $var wire  5 . rd_addr_i [4:0] $end
    $var wire  5 < rd_addr_o [4:0] $end
    $var wire 32 = rd_data_o [31:0] $end
    $var wire  1 / rd_we_i $end
    $var wire  1 > rd_we_o $end
    $var wire 32 : rs1_i [31:0] $end
    $var wire 32 ; rs2_i [31:0] $end
    $var wire  1 Z! rst_i $end
    $var wire  1 2 shiftsel_i $end
   $upscope $end
   $scope module forwarding0 $end
    $var wire  1 h exe_addr_not0 $end
    $var wire  5 < exe_rdaddr_i [4:0] $end
    $var wire 32 = exe_rddata_i [31:0] $end
    $var wire  1 > exe_rdwe $end
    $var wire  1 o exedata1_forward $end
    $var wire  1 p exedata2_forward $end
    $var wire  1 f exeid_addr1_same $end
    $var wire  1 g exeid_addr2_same $end
    $var wire  1 k mem_addr_not0 $end
    $var wire  5 C mem_rdaddr_i [4:0] $end
    $var wire 32 D mem_rddata_i [31:0] $end
    $var wire  1 E mem_rdwe $end
    $var wire  1 q memdata1_forward $end
    $var wire  1 r memdata2_forward $end
    $var wire  1 i memid_addr1_same $end
    $var wire  1 j memid_addr2_same $end
    $var wire  5 8 rs1_addr_i [4:0] $end
    $var wire 32 6 rs1_data_i [31:0] $end
    $var wire 32 : rs1_data_o [31:0] $end
    $var wire  5 9 rs2_addr_i [4:0] $end
    $var wire 32 7 rs2_data_i [31:0] $end
    $var wire 32 ; rs2_data_o [31:0] $end
    $var wire  1 n wb_addr_not0 $end
    $var wire  5 I wb_rdaddr_i [4:0] $end
    $var wire 32 J wb_rddata_i [31:0] $end
    $var wire  1 K wb_rdwe $end
    $var wire  1 s wbdata1_forward $end
    $var wire  1 t wbdata2_forward $end
    $var wire  1 l wbid_addr1_same $end
    $var wire  1 m wbid_addr2_same $end
   $upscope $end
   $scope module inst_fetch0 $end
    $var wire  1 [! clk_i $end
    $var wire 32 \! inst_i [31:0] $end
    $var wire 32 & inst_o [31:0] $end
    $var wire 32 $ pc_i [31:0] $end
    $var wire 32 ' pc_o [31:0] $end
    $var wire  1 Z! rst_i $end
    $var wire  1 # stall_i $end
   $upscope $end
   $scope module mem0 $end
    $var wire  1 [! clk_i $end
    $var wire 32 ? mem_addr_i [31:0] $end
    $var wire  1 @ mem_re_i $end
    $var wire  1 A mem_we_i $end
    $var wire  3 B opfunc3_i [2:0] $end
    $var wire 32 F ram_addr_o [31:0] $end
    $var wire  2 d ram_addr_offset [1:0] $end
    $var wire 32 % ram_data_i [31:0] $end
    $var wire 32 G ram_data_o [31:0] $end
    $var wire  1 H ram_we_o $end
    $var wire  5 < rd_addr_i [4:0] $end
    $var wire  5 C rd_addr_o [4:0] $end
    $var wire 32 e rd_data [31:0] $end
    $var wire 32 = rd_data_i [31:0] $end
    $var wire 32 D rd_data_o [31:0] $end
    $var wire  1 > rd_we_i $end
    $var wire  1 E rd_we_o $end
    $var wire  1 Z! rst_i $end
   $upscope $end
   $scope module pipectrl0 $end
    $var wire  1 # flushid_o $end
    $var wire  1 # loaduse_hazard_i $end
    $var wire  1 # loaduse_hazard_o $end
   $upscope $end
   $scope module program_counter0 $end
    $var wire  1 [! clk_i $end
    $var wire 32 $ pc_o [31:0] $end
    $var wire  1 Z! rst_i $end
    $var wire  1 # stall_i $end
   $upscope $end
   $scope module regfiles0 $end
    $var wire 32 B! a0 [31:0] $end
    $var wire 32 C! a1 [31:0] $end
    $var wire 32 D! a2 [31:0] $end
    $var wire 32 E! a3 [31:0] $end
    $var wire 32 F! a4 [31:0] $end
    $var wire 32 G! a5 [31:0] $end
    $var wire 32 H! a6 [31:0] $end
    $var wire 32 I! a7 [31:0] $end
    $var wire  1 [! clk_i $end
    $var wire 32 ;! gp [31:0] $end
    $var wire 32 Y! i [31:0] $end
    $var wire 32 9! ra [31:0] $end
    $var wire  5 I rd_addr_i [4:0] $end
    $var wire 32 J rd_data_i [31:0] $end
    $var wire  1 K rd_we_i $end
    $var wire  5 * rs1_addr_i [4:0] $end
    $var wire 32 ( rs1_data_o [31:0] $end
    $var wire  5 + rs2_addr_i [4:0] $end
    $var wire 32 ) rs2_data_o [31:0] $end
    $var wire  1 Z! rst_i $end
    $var wire 32 @! s0 [31:0] $end
    $var wire 32 A! s1 [31:0] $end
    $var wire 32 R! s10 [31:0] $end
    $var wire 32 S! s11 [31:0] $end
    $var wire 32 J! s2 [31:0] $end
    $var wire 32 K! s3 [31:0] $end
    $var wire 32 L! s4 [31:0] $end
    $var wire 32 M! s5 [31:0] $end
    $var wire 32 N! s6 [31:0] $end
    $var wire 32 O! s7 [31:0] $end
    $var wire 32 P! s8 [31:0] $end
    $var wire 32 Q! s9 [31:0] $end
    $var wire 32 :! sp [31:0] $end
    $var wire 32 =! t0 [31:0] $end
    $var wire 32 >! t1 [31:0] $end
    $var wire 32 ?! t2 [31:0] $end
    $var wire 32 T! t3 [31:0] $end
    $var wire 32 U! t4 [31:0] $end
    $var wire 32 V! t5 [31:0] $end
    $var wire 32 W! t6 [31:0] $end
    $var wire 32 <! tp [31:0] $end
    $var wire  1 X! we $end
    $var wire 32 w x(0) [31:0] $end
    $var wire 32 x x(1) [31:0] $end
    $var wire 32 #! x(10) [31:0] $end
    $var wire 32 $! x(11) [31:0] $end
    $var wire 32 %! x(12) [31:0] $end
    $var wire 32 &! x(13) [31:0] $end
    $var wire 32 '! x(14) [31:0] $end
    $var wire 32 (! x(15) [31:0] $end
    $var wire 32 )! x(16) [31:0] $end
    $var wire 32 *! x(17) [31:0] $end
    $var wire 32 +! x(18) [31:0] $end
    $var wire 32 ,! x(19) [31:0] $end
    $var wire 32 y x(2) [31:0] $end
    $var wire 32 -! x(20) [31:0] $end
    $var wire 32 .! x(21) [31:0] $end
    $var wire 32 /! x(22) [31:0] $end
    $var wire 32 0! x(23) [31:0] $end
    $var wire 32 1! x(24) [31:0] $end
    $var wire 32 2! x(25) [31:0] $end
    $var wire 32 3! x(26) [31:0] $end
    $var wire 32 4! x(27) [31:0] $end
    $var wire 32 5! x(28) [31:0] $end
    $var wire 32 6! x(29) [31:0] $end
    $var wire 32 z x(3) [31:0] $end
    $var wire 32 7! x(30) [31:0] $end
    $var wire 32 8! x(31) [31:0] $end
    $var wire 32 { x(4) [31:0] $end
    $var wire 32 | x(5) [31:0] $end
    $var wire 32 } x(6) [31:0] $end
    $var wire 32 ~ x(7) [31:0] $end
    $var wire 32 !! x(8) [31:0] $end
    $var wire 32 "! x(9) [31:0] $end
   $upscope $end
   $scope module rom0 $end
    $var wire 21 u addr4 [20:0] $end
    $var wire 32 $ addr_i [31:0] $end
    $var wire  1 [! clk_i $end
    $var wire 32 \! inst_o [31:0] $end
    $var wire  1 H mem_we_i $end
    $var wire 32 $ pc_o [31:0] $end
    $var wire 32 F ram_addr_i [31:0] $end
    $var wire 32 G ram_data_i [31:0] $end
    $var wire 32 % ram_data_o [31:0] $end
    $var wire 21 v ramaddr4 [20:0] $end
   $upscope $end
   $scope module writeback0 $end
    $var wire  1 [! clk_i $end
    $var wire  5 C rd_addr_i [4:0] $end
    $var wire  5 I rd_addr_o [4:0] $end
    $var wire 32 D rd_data_i [31:0] $end
    $var wire 32 J rd_data_o [31:0] $end
    $var wire  1 E rd_we_i $end
    $var wire  1 K rd_we_o $end
    $var wire  1 Z! rst_i $end
   $upscope $end
  $upscope $end
 $upscope $end
$enddefinitions $end


#5
0#
b00000000000000000000000000000000 $
b11111111111111110001000110110111 %
b00000000000000000000000000000000 &
b00000000000000000000000000000000 '
b00000000000000000000000000000000 (
b00000000000000000000000000000000 )
b00000 *
b00000 +
b00000000000000000000000000000000 ,
b00000000000000000000000000000000 -
b00000 .
0/
b000 0
b000 1
02
03
04
05
b00000000000000000000000000000000 6
b00000000000000000000000000000000 7
b00000 8
b00000 9
b00000000000000000000000000000000 :
b00000000000000000000000000000000 ;
b00000 <
b00000000000000000000000000000000 =
0>
b00000000000000000000000000000000 ?
0@
0A
b000 B
b00000 C
b00000000000000000000000000000000 D
0E
b00000000000000000000000000000000 F
b00000000000000000000000000000000 G
0H
b00000 I
b00000000000000000000000000000000 J
0K
b0000000 L
b000 M
b0000000 N
b00000 O
b110 P
0Q
0R
0S
0T
0U
b00000000000000000000000000000000 V
b00000000000000000000000000000000 W
b00000000000000000000000000000000 X
0Y
0Z
0[
0\
0]
0^
b00000000000000000000000000000000 _
b00000000000000000000000000000000 `
b00000000000000000000000000000000 a
b00000000000000000000000000000000 b
b00000000000000000000000000000000 c
b00 d
b00000000000000000000000000000000 e
1f
1g
0h
1i
1j
0k
1l
1m
0n
0o
0p
0q
0r
0s
0t
b000000000000000000000 u
b000000000000000000000 v
b00000000000000000000000000000000 w
b00000000000000000000000000000000 x
b00000000000000000000000000000000 y
b00000000000000000000000000000000 z
b00000000000000000000000000000000 {
b00000000000000000000000000000000 |
b00000000000000000000000000000000 }
b00000000000000000000000000000000 ~
b00000000000000000000000000000000 !!
b00000000000000000000000000000000 "!
b00000000000000000000000000000000 #!
b00000000000000000000000000000000 $!
b00000000000000000000000000000000 %!
b00000000000000000000000000000000 &!
b00000000000000000000000000000000 '!
b00000000000000000000000000000000 (!
b00000000000000000000000000000000 )!
b00000000000000000000000000000000 *!
b00000000000000000000000000000000 +!
b00000000000000000000000000000000 ,!
b00000000000000000000000000000000 -!
b00000000000000000000000000000000 .!
b00000000000000000000000000000000 /!
b00000000000000000000000000000000 0!
b00000000000000000000000000000000 1!
b00000000000000000000000000000000 2!
b00000000000000000000000000000000 3!
b00000000000000000000000000000000 4!
b00000000000000000000000000000000 5!
b00000000000000000000000000000000 6!
b00000000000000000000000000000000 7!
b00000000000000000000000000000000 8!
b00000000000000000000000000000000 9!
b00000000000000000000000000000000 :!
b00000000000000000000000000000000 ;!
b00000000000000000000000000000000 <!
b00000000000000000000000000000000 =!
b00000000000000000000000000000000 >!
b00000000000000000000000000000000 ?!
b00000000000000000000000000000000 @!
b00000000000000000000000000000000 A!
b00000000000000000000000000000000 B!
b00000000000000000000000000000000 C!
b00000000000000000000000000000000 D!
b00000000000000000000000000000000 E!
b00000000000000000000000000000000 F!
b00000000000000000000000000000000 G!
b00000000000000000000000000000000 H!
b00000000000000000000000000000000 I!
b00000000000000000000000000000000 J!
b00000000000000000000000000000000 K!
b00000000000000000000000000000000 L!
b00000000000000000000000000000000 M!
b00000000000000000000000000000000 N!
b00000000000000000000000000000000 O!
b00000000000000000000000000000000 P!
b00000000000000000000000000000000 Q!
b00000000000000000000000000000000 R!
b00000000000000000000000000000000 S!
b00000000000000000000000000000000 T!
b00000000000000000000000000000000 U!
b00000000000000000000000000000000 V!
b00000000000000000000000000000000 W!
0X!
b00000000000000000000000000000000 Y!
1Z!
0[!
b11111111111111110001000110110111 \!
0]!
#10
b00000000000000000000000000100000 Y!
1[!
#15
0[!
#20
1[!
#25
0[!
#30
1[!
#35
0[!
#40
1[!
#45
0[!
#50
1[!
#55
0Z!
0[!
#60
b00000000000000000000000000000100 $
b11111111111111110001000110110111 &
b11110 *
b11111 +
b110 0
b0110111 L
b1111111 N
b00011 O
b100 P
1U
b11111111111111111111111111111111 V
b11111111111111111111111111100011 W
b11111111111111110001000000000000 X
1[
b11111111111111110001000000000000 _
b000000000000000000100 u
1[!
b11110000101100011000000110010011 \!
#65
0[!
#70
b00000000000000000000000000001000 $
b11110000101100011000000110010011 &
b00000000000000000000000000000100 '
b00011 *
b01011 +
b11111111111111110001000000000000 -
b00011 .
1/
b100 0
b11110 8
b11111 9
b0010011 L
b1111000 N
b001 P
b11111111111111111111111100001011 V
b11111111111111111111111100000011 W
b11110000101100011000000000000000 X
1Y
0[
1]
b11111111111111111111111100001011 _
b11111111111111110001000000000000 a
b11111111111111110001000000000000 b
b11111111111111110001000000000000 c
0f
0g
0i
0j
0l
0m
b000000000000000001000 u
1[!
b00000000000000001111001000110111 \!
#75
0[!
#80
b00000000000000000000000000001100 $
b00000000000000001111001000110111 &
b00000000000000000000000000001000 '
b00001 *
b00000 +
b00000000000000000000000000000100 ,
b11111111111111111111111100001011 -
b001 0
b00011 8
b01011 9
b11111111111111110001000000000000 :
b00011 <
b11111111111111110001000000000000 =
1>
b11111111111111110001000000000000 ?
b0110111 L
b0000000 N
b00100 O
b100 P
b00000000000000000000000000000000 V
b00000000000000000000000000000100 W
b00000000000000001111000000000000 X
0Y
1[
0]
b00000000000000001111000000000000 _
b11111111111111110001000000000000 `
b11111111111111111111111100001011 a
b11111111111111110000111100001011 b
b11111111111111110000111100001011 c
b11111111111111110001000000000000 e
1f
1h
1o
b000000000000000001100 u
1[!
b00001010101100100000001000010011 \!
#85
0[!
#90
b00000000000000000000000000010000 $
b00001010101100100000001000010011 &
b00000000000000000000000000001100 '
b00100 *
b01011 +
b00000000000000000000000000001000 ,
b00000000000000001111000000000000 -
b00100 .
b100 0
b00001 8
b00000 9
b00000000000000000000000000000000 :
b11111111111111110000111100001011 =
b11111111111111110000111100001011 ?
b00011 C
b11111111111111110001000000000000 D
1E
b0010011 L
b0000101 N
b001 P
b00000000000000000000000010101011 V
b00000000000000000000000010100100 W
b00001010101100100000000000000000 X
1Y
0[
1]
b00000000000000000000000010101011 _
b00000000000000000000000000000000 `
b00000000000000001111000000000000 a
b00000000000000001111000000000000 b
b00000000000000001111000000000000 c
b11 d
b11111111111111110000111100001011 e
0f
1k
1m
0o
b000000000000000010000 u
1[!
b00000000000000000000001010010111 \!
#95
0[!
#100
b00000000000000000000000000010100 $
b00000000000000000000001010010111 &
b00000000000000000000000000010000 '
b00000 *
b00000 +
b00000000000000000000000000001100 ,
b00000000000000000000000010101011 -
b001 0
b00100 8
b01011 9
b00000000000000001111000000000000 :
b00100 <
b00000000000000001111000000000000 =
b00000000000000001111000000000000 ?
b11111111111111110000111100001011 D
b00011 I
b11111111111111110001000000000000 J
1K
b0010111 L
b0000000 N
b00101 O
b101 P
b00000000000000000000000000000000 V
b00000000000000000000000000000101 W
b00000000000000000000000000000000 X
0Y
1\
0]
b00000000000000000000000000000000 _
b00000000000000001111000000000000 `
b00000000000000000000000010101011 a
b00000000000000001111000010101011 b
b00000000000000001111000010101011 c
b00 d
b00000000000000001111000000000000 e
1f
0m
1n
1o
b000000000000000010100 u
1X!
1[!
b00000001110000101000001010010011 \!
#105
0[!
#110
b00000000000000000000000000011000 $
b00000001110000101000001010010011 &
b00000000000000000000000000010100 '
b00101 *
b11100 +
b00000000000000000000000000010000 ,
b00000000000000000000000000000000 -
b00101 .
b101 0
b00000 8
b00000 9
b00000000000000000000000000000000 :
b00000000000000001111000010101011 =
b00000000000000001111000010101011 ?
b00100 C
b00000000000000001111000000000000 D
b11111111111111110000111100001011 J
b0010011 L
b001 P
b00000000000000000000000000011100 V
b00000001110000101000000000000000 X
1Y
0\
1]
b00000000000000000000000000011100 _
b00000000000000000000000000000000 `
b00000000000000000000000000000000 a
b00000000000000000000000000010000 b
b00000000000000000000000000000000 c
b11 d
b00000000000000001111000010101011 e
0f
0o
b000000000000000011000 u
b11111111111111110001000000000000 z
b11111111111111110001000000000000 ;!
1[!
b00000000000000101001001000000011 \!
#115
0[!
#120
b00000000000000000000000000011100 $
b00000000000000101001001000000011 &
b00000000000000000000000000011000 '
b00000 +
b00000000000000000000000000010100 ,
b00000000000000000000000000011100 -
b001 0
b00101 8
b11100 9
b00000000000000000000000000010000 :
b00101 <
b00000000000000000000000000010000 =
b00000000000000000000000000000000 ?
b00000000000000001111000010101011 D
b00100 I
b00000000000000001111000000000000 J
b0000011 L
b001 M
b00100 O
b010 P
1S
b00000000000000000000000000000000 V
b00000000000000000000000000000100 W
b00000000000000101001000000000000 X
0Y
0]
b00000000000000000000000000000000 _
b00000000000000000000000000010000 `
b00000000000000000000000000011100 a
b00000000000000000000000000101100 b
b00000000000000000000000000101100 c
b00 d
b00000000000000000000000000010000 e
1f
1o
b000000000000000011100 u
b11111111111111110000111100001011 z
b11111111111111110000111100001011 ;!
1[!
b00000000001100100000000000100011 \!
#125
0[!
#130
1#
b00000000000000000000000000100000 $
b00000000001100100000000000100011 &
b00000000000000000000000000011100 '
b00000000000000001111000010101011 (
b11111111111111110000111100001011 )
b00100 *
b00011 +
b00000000000000000000000000011000 ,
b00000000000000000000000000000000 -
b00100 .
b010 0
b001 1
15
b00000 9
b00000000000000000000000000101100 :
b00000000000000000000000000101100 =
b00000000000000000000000000101100 ?
b00101 C
b00000000000000000000000000010000 D
b00000000000000001111000010101011 J
b0100011 L
b000 M
b00000 O
b011 P
0S
1T
0U
b00000000000000000000000000000011 V
b00000000000000000000000000000000 W
b00000000001100100000000000000000 X
1]
b00000000000000000000000000101100 `
b00000000000000000000000000000000 a
b00000000000000000000000000000000 b
b00000000000000000000000000101100 e
1i
1q
b000000000000000100000 u
b00000000000000001111000000000000 {
b00000000000000001111000000000000 <!
1[!
b00000000101000000000000100010011 \!
#135
0[!
#140
0#
b00000000001100000010000000010000 %
b00000000000000000000000000000000 ,
b00000 .
0/
b000 0
b000 1
05
b00000 8
b00000000000000000000000000000000 :
b00100 <
b00000000000000000000000000000000 =
1@
b001 B
b00000000000000000000000000101100 D
b00000000000000000000000000101100 F
b00101 I
b00000000000000000000000000010000 J
0]
b00000000000000000000000000000000 `
b00000000000000000000000000000000 c
b00000000000000000010000000010000 e
0f
0i
0o
0q
b000000000000000101100 v
b00000000000000001111000010101011 {
b00000000000000001111000010101011 <!
1[!
#145
0[!
#150
b00000000000000000000000000100100 $
b00000000101000000000000100010011 &
b00000000000000000000000000100000 '
b00000000000000000000000000000000 (
b00000000000000000000000000000000 )
b00000 *
b01010 +
b00000000000000000000000000011100 ,
b011 0
14
b00000000000000001111000010101011 6
b11111111111111110000111100001011 7
b00100 8
b00011 9
b00000000000000000010000000010000 :
b11111111111111110000111100001011 ;
b00000 <
0>
b00000000000000000000000000000000 ?
0@
b000 B
b00100 C
b00000000000000000010000000010000 D
b00000000000000000000000000101100 J
b0010011 L
b00010 O
b001 P
0T
1U
b00000000000000000000000000001010 V
b00000000000000000000000000000010 W
b00000000101000000000000000000000 X
1Y
1]
b00000000000000000000000000001010 _
b00000000000000000010000000010000 `
b11111111111111110000111100001011 a
b11111111111111110000111100001011 b
b00000000000000000010000000010000 c
b00000000000000000000000000000000 e
0h
1i
1q
b000000000000000100100 u
b00000000000000000000000000010000 |
b00000000000000000000000000010000 =!
1[!
b00000000101000000000110100010011 \!
#155
0[!
#160
b00000000000000000000000000101000 $
b00000000000000000000000000000000 %
b00000000101000000000110100010011 &
b00000000000000000000000000100100 '
b00000000000000000000000000100000 ,
b00000000000000000000000000001010 -
b00010 .
1/
b001 0
04
b00000000000000000000000000000000 6
b00000000000000000000000000000000 7
b00000 8
b01010 9
b00000000000000000000000000000000 :
b00000000000000000000000000000000 ;
b11111111111111110000111100001011 =
b00000000000000000010000000010000 ?
1A
b00000 C
b00000000000000000000000000000000 D
0E
b00000000000000000010000000010000 F
b00000000000000000000000000001011 G
1H
b00100 I
b00000000000000000010000000010000 J
b11010 O
b00000000000000000000000000011010 W
0]
b00000000000000000000000000000000 `
b00000000000000000000000000001010 a
b00000000000000000000000000001010 b
b00000000000000000000000000001010 c
b11111111111111110000111100001011 e
1f
0k
0q
b000000000000000101000 u
b000000010000000010000 v
b00000000000000000000000000101100 |
b00000000000000000000000000101100 =!
1[!
b00000000101000000000110110010011 \!
#165
0[!
#170
b00000000000000000000000000101100 $
b00000000000000000000000000001011 %
b00000000101000000000110110010011 &
b00000000000000000000000000101000 '
b00000000000000000000000000100100 ,
b11010 .
b00010 <
b00000000000000000000000000001010 =
1>
b00000000000000000000000000001010 ?
0A
b11111111111111110000111100001011 D
b00000 I
b00000000000000000000000000000000 J
0K
b11011 O
b00000000000000000000000000011011 W
b10 d
b00000000000000000000000000001010 e
0f
1h
1l
0n
b000000000000000101100 u
b00000000000000000010000000010000 {
b00000000000000000010000000010000 <!
0X!
1[!
b00000000001100000010000000010000 \!
#175
0[!
#180
b00000000000000000000000000110000 $
b00000000001100000010000000010000 &
b00000000000000000000000000101100 '
b11111111111111110000111100001011 )
b00011 +
b00000000000000000000000000101000 ,
b11011 .
b11010 <
b00010 C
b00000000000000000000000000001010 D
1E
b11111111111111110000111100001011 J
b0010000 L
b010 M
b00000 O
b110 P
0U
b00000000000000000000000000000011 V
b00000000000000000000000000000000 W
b00000000001100000010000000000000 X
0Y
b00000000000000000000000000000000 _
0i
1k
b000000000000000110000 u
1[!
b00000000000000000000000000000000 \!
#185
0[!
#190
b00000000000000000000000000110100 $
b00000000000000000000000000000000 &
b00000000000000000000000000110000 '
b00000000000000000000000000000000 )
b00000 +
b00000000000000000000000000101100 ,
b00000000000000000000000000000000 -
b00000 .
0/
b110 0
b010 1
b11111111111111110000111100001011 7
b00011 9
b11111111111111110000111100001011 ;
b11011 <
b11010 C
b00010 I
b00000000000000000000000000001010 J
1K
b0000000 L
b000 M
b00000000000000000000000000000000 V
b00000000000000000000000000000000 X
b11111111111111110000111100001011 a
b00000000000000000000000000000000 b
b00000000000000000000000000000000 c
0l
1n
b000000000000000110100 u
1X!
1[!
#195
0[!
#200
b00000000000000000000000000111000 $
b00000000000000000000000000110100 '
b00000000000000000000000000110000 ,
b000 1
b00000000000000000000000000000000 7
b00000 9
b00000000000000000000000000000000 ;
b00000 <
b00000000000000000000000000000000 =
0>
b00000000000000000000000000000000 ?
b010 B
b11011 C
b11010 I
b00000000000000000000000000000000 a
b00 d
b00000000000000000000000000000000 e
1f
1g
0h
b000000000000000111000 u
b00000000000000000000000000001010 y
b00000000000000000000000000001010 :!
1[!
#205
0[!
#210
b00000000000000000000000000111100 $
b00000000000000000000000000111000 '
b00000000000000000000000000110100 ,
b000 B
b00000 C
b00000000000000000000000000000000 D
0E
b11011 I
1i
1j
0k
b000000000000000111100 u
b00000000000000000000000000001010 3!
b00000000000000000000000000001010 R!
1[!
#215
0[!
#220
b00000000000000000000000001000000 $
b00000000000000000000000000111100 '
b00000000000000000000000000111000 ,
b00000 I
b00000000000000000000000000000000 J
0K
1l
1m
0n
b000000000000001000000 u
b00000000000000000000000000001010 4!
b00000000000000000000000000001010 S!
0X!
1[!
#225
0[!
#230
b00000000000000000000000001000100 $
b00000000000000000000000001000000 '
b00000000000000000000000000111100 ,
b000000000000001000100 u
1[!
#235
0[!
#240
b00000000000000000000000001001000 $
b00000000000000000000000001000100 '
b00000000000000000000000001000000 ,
b000000000000001001000 u
1[!
#245
0[!
#250
b00000000000000000000000001001100 $
b00000000000000000000000001001000 '
b00000000000000000000000001000100 ,
b000000000000001001100 u
1[!
#255
0[!
#260
b00000000000000000000000001010000 $
b00000000000000000000000001001100 '
b00000000000000000000000001001000 ,
b000000000000001010000 u
1[!
#265
0[!
#270
b00000000000000000000000001010100 $
b00000000000000000000000001010000 '
b00000000000000000000000001001100 ,
b000000000000001010100 u
1[!
#275
0[!
#280
b00000000000000000000000001011000 $
b00000000000000000000000001010100 '
b00000000000000000000000001010000 ,
b000000000000001011000 u
1[!
#285
0[!
#290
b00000000000000000000000001011100 $
b00000000000000000000000001011000 '
b00000000000000000000000001010100 ,
b000000000000001011100 u
1[!
#295
0[!
#300
b00000000000000000000000001100000 $
b00000000000000000000000001011100 '
b00000000000000000000000001011000 ,
b000000000000001100000 u
1[!
#305
0[!
#310
b00000000000000000000000001100100 $
b00000000000000000000000001100000 '
b00000000000000000000000001011100 ,
b000000000000001100100 u
1[!
#315
0[!
#320
b00000000000000000000000001101000 $
b00000000000000000000000001100100 '
b00000000000000000000000001100000 ,
b000000000000001101000 u
1[!
#325
0[!
#330
b00000000000000000000000001101100 $
b00000000000000000000000001101000 '
b00000000000000000000000001100100 ,
b000000000000001101100 u
1[!
#335
0[!
#340
b00000000000000000000000001110000 $
b00000000000000000000000001101100 '
b00000000000000000000000001101000 ,
b000000000000001110000 u
1[!
#345
0[!
#350
b00000000000000000000000001110100 $
b00000000000000000000000001110000 '
b00000000000000000000000001101100 ,
b000000000000001110100 u
1[!
#355
0[!
#360
b00000000000000000000000001111000 $
b00000000000000000000000001110100 '
b00000000000000000000000001110000 ,
b000000000000001111000 u
1[!
#365
0[!
#370
b00000000000000000000000001111100 $
b00000000000000000000000001111000 '
b00000000000000000000000001110100 ,
b000000000000001111100 u
1[!
#375
0[!
#380
b00000000000000000000000010000000 $
b00000000000000000000000001111100 '
b00000000000000000000000001111000 ,
b000000000000010000000 u
1[!
#385
0[!
#390
b00000000000000000000000010000100 $
b00000000000000000000000010000000 '
b00000000000000000000000001111100 ,
b000000000000010000100 u
1[!
#395
0[!
#400
b00000000000000000000000010001000 $
b00000000000000000000000010000100 '
b00000000000000000000000010000000 ,
b000000000000010001000 u
1[!
#405
0[!
