FiveStage_RIS/wave.vcd
$version Generated by VerilatedVcd $end
$date Tue Jan 17 01:47:35 2023 $end
$timescale 1s $end

 $scope module top $end
  $var wire  1 X! clk_i $end
  $var wire  1 W! rst_i $end
  $scope module coretop $end
   $var wire  1 X! clk_i $end
   $var wire 32 < exemem_memaddr [31:0] $end
   $var wire  1 = exemem_memre $end
   $var wire  1 > exemem_memwe $end
   $var wire  3 ? exemem_opfunc3 [2:0] $end
   $var wire  5 9 exemem_rdaddr [4:0] $end
   $var wire 32 : exemem_rddata [31:0] $end
   $var wire  1 ; exemem_we $end
   $var wire 32 7 fwdexe_rs1 [31:0] $end
   $var wire 32 8 fwdexe_rs2 [31:0] $end
   $var wire  1 2 idexe_addsubsel $end
   $var wire 32 , idexe_imm [31:0] $end
   $var wire  3 0 idexe_opfunc3 [2:0] $end
   $var wire  3 / idexe_optype [2:0] $end
   $var wire 32 + idexe_pc [31:0] $end
   $var wire  5 - idexe_rdaddr [4:0] $end
   $var wire  1 1 idexe_shiftsel $end
   $var wire  1 . idexe_we $end
   $var wire  5 5 idfwd_addr1 [4:0] $end
   $var wire  5 6 idfwd_addr2 [4:0] $end
   $var wire 32 3 idfwd_rs1 [31:0] $end
   $var wire 32 4 idfwd_rs2 [31:0] $end
   $var wire  5 ) idreg_addr1 [4:0] $end
   $var wire  5 * idreg_addr2 [4:0] $end
   $var wire 32 % ifid_inst [31:0] $end
   $var wire 32 & ifid_pc [31:0] $end
   $var wire  1 E memrom_memwe $end
   $var wire 32 C memrom_ramaddr [31:0] $end
   $var wire 32 D memrom_ramdata [31:0] $end
   $var wire  5 @ memwb_rdaddr [4:0] $end
   $var wire 32 A memwb_rddata [31:0] $end
   $var wire  1 B memwb_we $end
   $var wire 32 # pc_wire [31:0] $end
   $var wire 32 ' regid_data1 [31:0] $end
   $var wire 32 ( regid_data2 [31:0] $end
   $var wire 32 Y! romif_inst [31:0] $end
   $var wire 32 # romif_pc [31:0] $end
   $var wire 32 $ rommem_ramdata [31:0] $end
   $var wire  1 W! rst_i $end
   $var wire  5 F wbreg_rdaddr [4:0] $end
   $var wire 32 G wbreg_rddata [31:0] $end
   $var wire  1 H wbreg_we $end
   $scope module decode0 $end
    $var wire  1 Y AUPICtype $end
    $var wire  1 T Itype $end
    $var wire  1 X LUItype $end
    $var wire  1 V Ltype $end
    $var wire  1 U Rtype $end
    $var wire  1 W Stype $end
    $var wire  1 O addsubsel $end
    $var wire  1 2 addsubsel_o $end
    $var wire  1 X! clk_i $end
    $var wire  5 5 fwd_raddr1_o [4:0] $end
    $var wire  5 6 fwd_raddr2_o [4:0] $end
    $var wire 32 Z imm [31:0] $end
    $var wire 32 Q immI [31:0] $end
    $var wire 32 Q immL [31:0] $end
    $var wire 32 R immS [31:0] $end
    $var wire 32 S immU [31:0] $end
    $var wire 32 , imm_o [31:0] $end
    $var wire 32 % inst_i [31:0] $end
    $var wire  7 I opcode [6:0] $end
    $var wire  3 J opfunc3 [2:0] $end
    $var wire  3 0 opfunc3_o [2:0] $end
    $var wire  7 K opfunc7 [6:0] $end
    $var wire  3 M optype [2:0] $end
    $var wire  3 / optype_o [2:0] $end
    $var wire 32 & pc_i [31:0] $end
    $var wire 32 + pc_o [31:0] $end
    $var wire  5 L rd_addr [4:0] $end
    $var wire  5 - rd_addr_o [4:0] $end
    $var wire  1 . rd_we_o $end
    $var wire 32 ' reg_data1_i [31:0] $end
    $var wire 32 ( reg_data2_i [31:0] $end
    $var wire  1 P reg_we $end
    $var wire  5 ) rs1_addr_o [4:0] $end
    $var wire 32 3 rs1_o [31:0] $end
    $var wire  5 * rs2_addr_o [4:0] $end
    $var wire 32 4 rs2_o [31:0] $end
    $var wire  1 W! rst_i $end
    $var wire 32 % rv32inst [31:0] $end
    $var wire  1 N shiftsel $end
    $var wire  1 1 shiftsel_o $end
   $upscope $end
   $scope module exe0 $end
    $var wire  1 2 addsubsel_i $end
    $var wire  1 X! clk_i $end
    $var wire 32 , imm_i [31:0] $end
    $var wire 32 ^ mem_addr [31:0] $end
    $var wire 32 < mem_addr_o [31:0] $end
    $var wire  1 _ mem_re $end
    $var wire  1 = mem_re_o $end
    $var wire  1 ` mem_we $end
    $var wire  1 > mem_we_o $end
    $var wire 32 [ op1 [31:0] $end
    $var wire 32 \ op2 [31:0] $end
    $var wire 32 ] op_result [31:0] $end
    $var wire  3 0 opfunc3_i [2:0] $end
    $var wire  3 ? opfunc3_o [2:0] $end
    $var wire  3 / optype_i [2:0] $end
    $var wire 32 + pc_i [31:0] $end
    $var wire  5 - rd_addr_i [4:0] $end
    $var wire  5 9 rd_addr_o [4:0] $end
    $var wire 32 : rd_data_o [31:0] $end
    $var wire  1 . rd_we_i $end
    $var wire  1 ; rd_we_o $end
    $var wire 32 7 rs1_i [31:0] $end
    $var wire 32 8 rs2_i [31:0] $end
    $var wire  1 W! rst_i $end
    $var wire  1 1 shiftsel_i $end
   $upscope $end
   $scope module forwarding0 $end
    $var wire  1 e exe_addr_not0 $end
    $var wire  5 9 exe_rdaddr_i [4:0] $end
    $var wire 32 : exe_rddata_i [31:0] $end
    $var wire  1 ; exe_rdwe $end
    $var wire  1 l exedata1_forward $end
    $var wire  1 m exedata2_forward $end
    $var wire  1 c exeid_addr1_same $end
    $var wire  1 d exeid_addr2_same $end
    $var wire  1 h mem_addr_not0 $end
    $var wire  5 @ mem_rdaddr_i [4:0] $end
    $var wire 32 A mem_rddata_i [31:0] $end
    $var wire  1 B mem_rdwe $end
    $var wire  1 n memdata1_forward $end
    $var wire  1 o memdata2_forward $end
    $var wire  1 f memid_addr1_same $end
    $var wire  1 g memid_addr2_same $end
    $var wire  5 5 rs1_addr_i [4:0] $end
    $var wire 32 3 rs1_data_i [31:0] $end
    $var wire 32 7 rs1_data_o [31:0] $end
    $var wire  5 6 rs2_addr_i [4:0] $end
    $var wire 32 4 rs2_data_i [31:0] $end
    $var wire 32 8 rs2_data_o [31:0] $end
    $var wire  1 k wb_addr_not0 $end
    $var wire  5 F wb_rdaddr_i [4:0] $end
    $var wire 32 G wb_rddata_i [31:0] $end
    $var wire  1 H wb_rdwe $end
    $var wire  1 p wbdata1_forward $end
    $var wire  1 q wbdata2_forward $end
    $var wire  1 i wbid_addr1_same $end
    $var wire  1 j wbid_addr2_same $end
   $upscope $end
   $scope module inst_fetch0 $end
    $var wire  1 X! clk_i $end
    $var wire 32 Y! inst_i [31:0] $end
    $var wire 32 % inst_o [31:0] $end
    $var wire 32 # pc_i [31:0] $end
    $var wire 32 & pc_o [31:0] $end
    $var wire  1 W! rst_i $end
   $upscope $end
   $scope module mem0 $end
    $var wire  1 X! clk_i $end
    $var wire 32 < mem_addr_i [31:0] $end
    $var wire  1 = mem_re_i $end
    $var wire  1 > mem_we_i $end
    $var wire  3 ? opfunc3_i [2:0] $end
    $var wire 32 C ram_addr_o [31:0] $end
    $var wire  2 a ram_addr_offset [1:0] $end
    $var wire 32 $ ram_data_i [31:0] $end
    $var wire 32 D ram_data_o [31:0] $end
    $var wire  1 E ram_we_o $end
    $var wire  5 9 rd_addr_i [4:0] $end
    $var wire  5 @ rd_addr_o [4:0] $end
    $var wire 32 b rd_data [31:0] $end
    $var wire 32 : rd_data_i [31:0] $end
    $var wire 32 A rd_data_o [31:0] $end
    $var wire  1 ; rd_we_i $end
    $var wire  1 B rd_we_o $end
    $var wire  1 W! rst_i $end
   $upscope $end
   $scope module program_counter0 $end
    $var wire  1 X! clk_i $end
    $var wire 32 # pc_o [31:0] $end
    $var wire  1 W! rst_i $end
   $upscope $end
   $scope module regfiles0 $end
    $var wire 32 ?! a0 [31:0] $end
    $var wire 32 @! a1 [31:0] $end
    $var wire 32 A! a2 [31:0] $end
    $var wire 32 B! a3 [31:0] $end
    $var wire 32 C! a4 [31:0] $end
    $var wire 32 D! a5 [31:0] $end
    $var wire 32 E! a6 [31:0] $end
    $var wire 32 F! a7 [31:0] $end
    $var wire  1 X! clk_i $end
    $var wire 32 8! gp [31:0] $end
    $var wire 32 V! i [31:0] $end
    $var wire 32 6! ra [31:0] $end
    $var wire  5 F rd_addr_i [4:0] $end
    $var wire 32 G rd_data_i [31:0] $end
    $var wire  1 H rd_we_i $end
    $var wire  5 ) rs1_addr_i [4:0] $end
    $var wire 32 ' rs1_data_o [31:0] $end
    $var wire  5 * rs2_addr_i [4:0] $end
    $var wire 32 ( rs2_data_o [31:0] $end
    $var wire  1 W! rst_i $end
    $var wire 32 =! s0 [31:0] $end
    $var wire 32 >! s1 [31:0] $end
    $var wire 32 O! s10 [31:0] $end
    $var wire 32 P! s11 [31:0] $end
    $var wire 32 G! s2 [31:0] $end
    $var wire 32 H! s3 [31:0] $end
    $var wire 32 I! s4 [31:0] $end
    $var wire 32 J! s5 [31:0] $end
    $var wire 32 K! s6 [31:0] $end
    $var wire 32 L! s7 [31:0] $end
    $var wire 32 M! s8 [31:0] $end
    $var wire 32 N! s9 [31:0] $end
    $var wire 32 7! sp [31:0] $end
    $var wire 32 :! t0 [31:0] $end
    $var wire 32 ;! t1 [31:0] $end
    $var wire 32 <! t2 [31:0] $end
    $var wire 32 Q! t3 [31:0] $end
    $var wire 32 R! t4 [31:0] $end
    $var wire 32 S! t5 [31:0] $end
    $var wire 32 T! t6 [31:0] $end
    $var wire 32 9! tp [31:0] $end
    $var wire  1 U! we $end
    $var wire 32 t x(0) [31:0] $end
    $var wire 32 u x(1) [31:0] $end
    $var wire 32 ~ x(10) [31:0] $end
    $var wire 32 !! x(11) [31:0] $end
    $var wire 32 "! x(12) [31:0] $end
    $var wire 32 #! x(13) [31:0] $end
    $var wire 32 $! x(14) [31:0] $end
    $var wire 32 %! x(15) [31:0] $end
    $var wire 32 &! x(16) [31:0] $end
    $var wire 32 '! x(17) [31:0] $end
    $var wire 32 (! x(18) [31:0] $end
    $var wire 32 )! x(19) [31:0] $end
    $var wire 32 v x(2) [31:0] $end
    $var wire 32 *! x(20) [31:0] $end
    $var wire 32 +! x(21) [31:0] $end
    $var wire 32 ,! x(22) [31:0] $end
    $var wire 32 -! x(23) [31:0] $end
    $var wire 32 .! x(24) [31:0] $end
    $var wire 32 /! x(25) [31:0] $end
    $var wire 32 0! x(26) [31:0] $end
    $var wire 32 1! x(27) [31:0] $end
    $var wire 32 2! x(28) [31:0] $end
    $var wire 32 3! x(29) [31:0] $end
    $var wire 32 w x(3) [31:0] $end
    $var wire 32 4! x(30) [31:0] $end
    $var wire 32 5! x(31) [31:0] $end
    $var wire 32 x x(4) [31:0] $end
    $var wire 32 y x(5) [31:0] $end
    $var wire 32 z x(6) [31:0] $end
    $var wire 32 { x(7) [31:0] $end
    $var wire 32 | x(8) [31:0] $end
    $var wire 32 } x(9) [31:0] $end
   $upscope $end
   $scope module rom0 $end
    $var wire 21 r addr4 [20:0] $end
    $var wire 32 # addr_i [31:0] $end
    $var wire  1 X! clk_i $end
    $var wire 32 Y! inst_o [31:0] $end
    $var wire  1 E mem_we_i $end
    $var wire 32 # pc_o [31:0] $end
    $var wire 32 C ram_addr_i [31:0] $end
    $var wire 32 D ram_data_i [31:0] $end
    $var wire 32 $ ram_data_o [31:0] $end
    $var wire 21 s ramaddr4 [20:0] $end
   $upscope $end
   $scope module writeback0 $end
    $var wire  1 X! clk_i $end
    $var wire  5 @ rd_addr_i [4:0] $end
    $var wire  5 F rd_addr_o [4:0] $end
    $var wire 32 A rd_data_i [31:0] $end
    $var wire 32 G rd_data_o [31:0] $end
    $var wire  1 B rd_we_i $end
    $var wire  1 H rd_we_o $end
    $var wire  1 W! rst_i $end
   $upscope $end
  $upscope $end
 $upscope $end
$enddefinitions $end


#5
b00000000000000000000000000000000 #
b11110000101100000000000110010011 $
b00000000000000000000000000000000 %
b00000000000000000000000000000000 &
b00000000000000000000000000000000 '
b00000000000000000000000000000000 (
b00000 )
b00000 *
b00000000000000000000000000000000 +
b00000000000000000000000000000000 ,
b00000 -
0.
b000 /
b000 0
01
02
b00000000000000000000000000000000 3
b00000000000000000000000000000000 4
b00000 5
b00000 6
b00000000000000000000000000000000 7
b00000000000000000000000000000000 8
b00000 9
b00000000000000000000000000000000 :
0;
b00000000000000000000000000000000 <
0=
0>
b000 ?
b00000 @
b00000000000000000000000000000000 A
0B
b00000000000000000000000000000000 C
b00000000000000000000000000000000 D
0E
b00000 F
b00000000000000000000000000000000 G
0H
b0000000 I
b000 J
b0000000 K
b00000 L
b110 M
0N
0O
0P
b00000000000000000000000000000000 Q
b00000000000000000000000000000000 R
b00000000000000000000000000000000 S
0T
0U
0V
0W
0X
0Y
b00000000000000000000000000000000 Z
b00000000000000000000000000000000 [
b00000000000000000000000000000000 \
b00000000000000000000000000000000 ]
b00000000000000000000000000000000 ^
0_
0`
b00 a
b00000000000000000000000000000000 b
1c
1d
0e
1f
1g
0h
1i
1j
0k
0l
0m
0n
0o
0p
0q
b000000000000000000000 r
b000000000000000000000 s
b00000000000000000000000000000000 t
b00000000000000000000000000000000 u
b00000000000000000000000000000000 v
b00000000000000000000000000000000 w
b00000000000000000000000000000000 x
b00000000000000000000000000000000 y
b00000000000000000000000000000000 z
b00000000000000000000000000000000 {
b00000000000000000000000000000000 |
b00000000000000000000000000000000 }
b00000000000000000000000000000000 ~
b00000000000000000000000000000000 !!
b00000000000000000000000000000000 "!
b00000000000000000000000000000000 #!
b00000000000000000000000000000000 $!
b00000000000000000000000000000000 %!
b00000000000000000000000000000000 &!
b00000000000000000000000000000000 '!
b00000000000000000000000000000000 (!
b00000000000000000000000000000000 )!
b00000000000000000000000000000000 *!
b00000000000000000000000000000000 +!
b00000000000000000000000000000000 ,!
b00000000000000000000000000000000 -!
b00000000000000000000000000000000 .!
b00000000000000000000000000000000 /!
b00000000000000000000000000000000 0!
b00000000000000000000000000000000 1!
b00000000000000000000000000000000 2!
b00000000000000000000000000000000 3!
b00000000000000000000000000000000 4!
b00000000000000000000000000000000 5!
b00000000000000000000000000000000 6!
b00000000000000000000000000000000 7!
b00000000000000000000000000000000 8!
b00000000000000000000000000000000 9!
b00000000000000000000000000000000 :!
b00000000000000000000000000000000 ;!
b00000000000000000000000000000000 <!
b00000000000000000000000000000000 =!
b00000000000000000000000000000000 >!
b00000000000000000000000000000000 ?!
b00000000000000000000000000000000 @!
b00000000000000000000000000000000 A!
b00000000000000000000000000000000 B!
b00000000000000000000000000000000 C!
b00000000000000000000000000000000 D!
b00000000000000000000000000000000 E!
b00000000000000000000000000000000 F!
b00000000000000000000000000000000 G!
b00000000000000000000000000000000 H!
b00000000000000000000000000000000 I!
b00000000000000000000000000000000 J!
b00000000000000000000000000000000 K!
b00000000000000000000000000000000 L!
b00000000000000000000000000000000 M!
b00000000000000000000000000000000 N!
b00000000000000000000000000000000 O!
b00000000000000000000000000000000 P!
b00000000000000000000000000000000 Q!
b00000000000000000000000000000000 R!
b00000000000000000000000000000000 S!
b00000000000000000000000000000000 T!
0U!
b00000000000000000000000000000000 V!
1W!
0X!
b11110000101100000000000110010011 Y!
#10
b00000000000000000000000000100000 V!
1X!
#15
0X!
#20
1X!
#25
0X!
#30
1X!
#35
0X!
#40
1X!
#45
0X!
#50
1X!
#55
0W!
0X!
#60
b00000000000000000000000000000100 #
b11110000101100000000000110010011 %
b01011 *
b110 /
b0010011 I
b1111000 K
b00011 L
b001 M
1P
b11111111111111111111111100001011 Q
b11111111111111111111111100000011 R
b11110000101100000000000000000000 S
1T
b11111111111111111111111100001011 Z
b000000000000000000100 r
1X!
b11111010101100000000001000010011 Y!
#65
0X!
#70
b00000000000000000000000000001000 #
b11111010101100000000001000010011 %
b00000000000000000000000000000100 &
b11111111111111111111111100001011 ,
b00011 -
1.
b001 /
b01011 6
b1111101 K
b00100 L
b11111111111111111111111110101011 Q
b11111111111111111111111110100100 R
b11111010101100000000000000000000 S
b11111111111111111111111110101011 Z
b11111111111111111111111100001011 \
b11111111111111111111111100001011 ]
b11111111111111111111111100001011 ^
0d
0g
0j
b000000000000000001000 r
1X!
b00000000000000000000001010010111 Y!
#75
0X!
#80
b00000000000000000000000000001100 #
b00000000000000000000001010010111 %
b00000000000000000000000000001000 &
b00000 *
b00000000000000000000000000000100 +
b11111111111111111111111110101011 ,
b00100 -
b00011 9
b11111111111111111111111100001011 :
1;
b11111111111111111111111100001011 <
b0010111 I
b0000000 K
b00101 L
b101 M
b00000000000000000000000000000000 Q
b00000000000000000000000000000101 R
b00000000000000000000000000000000 S
0T
1Y
b00000000000000000000000000000000 Z
b11111111111111111111111110101011 \
b11111111111111111111111110101011 ]
b11111111111111111111111110101011 ^
b11 a
b11111111111111111111111100001011 b
0c
1e
b000000000000000001100 r
1X!
b00000010000000101000001010010011 Y!
#85
0X!
#90
b00000000000000000000000000010000 #
b00000010000000101000001010010011 %
b00000000000000000000000000001100 &
b00101 )
b00000000000000000000000000001000 +
b00000000000000000000000000000000 ,
b00101 -
b101 /
b00000 6
b00100 9
b11111111111111111111111110101011 :
b11111111111111111111111110101011 <
b00011 @
b11111111111111111111111100001011 A
1B
b0010011 I
b0000001 K
b001 M
b00000000000000000000000000100000 Q
b00000000000000000000000000100101 R
b00000010000000101000000000000000 S
1T
0Y
b00000000000000000000000000100000 Z
b00000000000000000000000000000000 \
b00000000000000000000000000001000 ]
b00000000000000000000000000000000 ^
b11111111111111111111111110101011 b
0f
1h
1j
b000000000000000010000 r
1X!
b00000000001100101000000000100011 Y!
#95
0X!
#100
b00000000000000000000000000010100 #
b00000000001100101000000000100011 %
b00000000000000000000000000010000 &
b11111111111111111111111100001011 (
b00011 *
b00000000000000000000000000001100 +
b00000000000000000000000000100000 ,
b001 /
b00101 5
b00000000000000000000000000001000 7
b00101 9
b00000000000000000000000000001000 :
b00000000000000000000000000000000 <
b00100 @
b11111111111111111111111110101011 A
b00011 F
b11111111111111111111111100001011 G
1H
b0100011 I
b0000000 K
b00000 L
b011 M
0P
b00000000000000000000000000000011 Q
b00000000000000000000000000000000 R
b00000000001100101000000000000000 S
0T
1W
b00000000000000000000000000000000 Z
b00000000000000000000000000001000 [
b00000000000000000000000000100000 \
b00000000000000000000000000101000 ]
b00000000000000000000000000101000 ^
b00 a
b00000000000000000000000000001000 b
1c
0i
0j
1k
1l
b000000000000000010100 r
1U!
1X!
b00000000010000101000000010100011 Y!
#105
0X!
#110
b00000000000000000000000000011000 #
b00000000010000101000000010100011 %
b00000000000000000000000000010100 &
b11111111111111111111111110101011 (
b00100 *
b00000000000000000000000000010000 +
b00000000000000000000000000000000 ,
b00000 -
0.
b011 /
b11111111111111111111111100001011 4
b00011 6
b00000000000000000000000000101000 7
b11111111111111111111111100001011 8
b00000000000000000000000000101000 :
b00000000000000000000000000101000 <
b00101 @
b00000000000000000000000000001000 A
b00100 F
b11111111111111111111111110101011 G
b00001 L
b00000000000000000000000000000100 Q
b00000000000000000000000000000001 R
b00000000010000101000000000000000 S
b00000000000000000000000000000001 Z
b00000000000000000000000000101000 [
b11111111111111111111111100001011 \
b11111111111111111111111100001011 ]
1`
b00000000000000000000000000101000 b
1f
1n
b000000000000000011000 r
b11111111111111111111111100001011 w
b11111111111111111111111100001011 8!
1X!
b00000000000000000000001010010111 Y!
#115
0X!
#120
b00000000000000000000000000011100 #
b00000000000000000000000000000000 $
b00000000000000000000001010010111 %
b00000000000000000000000000011000 &
b00000000000000000000000000000000 (
b00000 )
b00000 *
b00000000000000000000000000010100 +
b00000000000000000000000000000001 ,
b00001 -
b11111111111111111111111110101011 4
b00100 6
b11111111111111111111111110101011 8
b00000 9
b11111111111111111111111100001011 :
0;
1>
b00000000000000000000000000101000 A
b00000000000000000000000000101000 C
b00000000000000000000000000001011 D
1E
b00101 F
b00000000000000000000000000001000 G
b0010111 I
b00101 L
b101 M
1P
b00000000000000000000000000000000 Q
b00000000000000000000000000000101 R
b00000000000000000000000000000000 S
0W
1Y
b00000000000000000000000000000000 Z
b11111111111111111111111110101011 \
b11111111111111111111111110101011 ]
b00000000000000000000000000101001 ^
b11111111111111111111111100001011 b
0c
0e
1i
0l
1p
b000000000000000011100 r
b000000000000000101000 s
b11111111111111111111111110101011 x
b11111111111111111111111110101011 9!
1X!
b00000001000000101000001010010011 Y!
#125
0X!
#130
b00000000000000000000000000100000 #
b00000000000000000000000000001011 $
b00000001000000101000001010010011 %
b00000000000000000000000000011100 &
b00000000000000000000000000101000 '
b00101 )
b10000 *
b00000000000000000000000000011000 +
b00000000000000000000000000000000 ,
b00101 -
1.
b101 /
b00000000000000000000000000000000 4
b00000 5
b00000 6
b00000000000000000000000000000000 7
b00000000000000000000000000000000 8
b00001 9
b11111111111111111111111110101011 :
b00000000000000000000000000101001 <
b00000 @
b11111111111111111111111100001011 A
0B
b00000000000000000000000000101001 C
b00000000000000001010101100001011 D
b00000000000000000000000000101000 G
b0010011 I
b001 M
b00000000000000000000000000010000 Q
b00000001000000101000000000000000 S
1T
0Y
b00000000000000000000000000010000 Z
b00000000000000000000000000000000 [
b00000000000000000000000000000000 \
b00000000000000000000000000011000 ]
b00000000000000000000000000000000 ^
0`
b01 a
b11111111111111111111111110101011 b
1e
1g
0h
0i
0n
0p
b000000000000000100000 r
b00000000000000000000000000001000 y
b00000000000000000000000000001000 :!
1X!
b00000000000000101000001100000011 Y!
#135
0X!
#140
b00000000000000000000000000100100 #
b00000000000000001010101100001011 $
b00000000000000101000001100000011 %
b00000000000000000000000000100000 &
b00000 *
b00000000000000000000000000011100 +
b00000000000000000000000000010000 ,
b001 /
b00000000000000000000000000101000 3
b00101 5
b10000 6
b00000000000000000000000000011000 7
b00101 9
b00000000000000000000000000011000 :
1;
b00000000000000000000000000000000 <
0>
b00001 @
b11111111111111111111111110101011 A
b00000 F
b11111111111111111111111100001011 G
0H
b0000011 I
b00110 L
b010 M
b00000000000000000000000000000000 Q
b00000000000000000000000000000110 R
b00000000000000101000000000000000 S
0T
1V
b00000000000000000000000000000000 Z
b00000000000000000000000000011000 [
b00000000000000000000000000010000 \
b00000000000000000000000000101000 ]
b00000000000000000000000000101000 ^
b00 a
b00000000000000000000000000011000 b
1c
0f
0g
1h
0k
1l
b000000000000000100100 r
b00000000000000000000000000101000 y
b00000000000000000000000000101000 :!
0U!
1X!
b00000000000100101000001110000011 Y!
#145
0X!
#150
b00000000000000000000000000101000 #
b00000000000100101000001110000011 %
b00000000000000000000000000100100 &
b00001 *
b00000000000000000000000000100000 +
b00000000000000000000000000000000 ,
b00110 -
b010 /
b00000 6
b00000000000000000000000000101000 7
b00000000000000000000000000101000 :
b00000000000000000000000000101000 <
b00101 @
b00000000000000000000000000011000 A
1B
b00001 F
b11111111111111111111111110101011 G
b00111 L
b00000000000000000000000000000001 Q
b00000000000000000000000000000111 R
b00000000000100101000000000000000 S
b00000000000000000000000000000001 Z
b00000000000000000000000000101000 [
b00000000000000000000000000000000 \
b00000000000000000000000000000000 ]
1_
b00000000000000000000000000101000 b
1f
1k
1n
b000000000000000101000 r
1X!
b00000000000000001010101100001011 Y!
#155
0X!
#160
b00000000000000000000000000101100 #
b00000000000000001010101100001011 %
b00000000000000000000000000101000 &
b00000000000000000000000000000000 '
b00001 )
b00000 *
b00000000000000000000000000100100 +
b00000000000000000000000000000001 ,
b00111 -
b00001 6
b00110 9
b00000000000000000000000000000000 :
1=
b00000000000000000000000000101000 A
b00000000000000000000000000101000 C
b00101 F
b00000000000000000000000000011000 G
1H
b0001011 I
b010 J
b10110 L
b110 M
0P
b00000000000000000000000000000000 Q
b00000000000000000000000000010110 R
b00000000000000001010000000000000 S
0V
b00000000000000000000000000000000 Z
b00000000000000000000000000101001 ^
b00000000000000000000000000001011 b
0c
1i
0l
1p
b000000000000000101100 r
1U!
1X!
b00000000000000000000000000000000 Y!
#165
0X!
#170
b00000000000000000000000000110000 #
b00000000000000000000000000000000 %
b00000000000000000000000000101100 &
b00000 )
b00000000000000000000000000101000 +
b00000000000000000000000000000000 ,
b10110 -
0.
b110 /
b010 0
b00000000000000000000000000000000 3
b00001 5
b00000 6
b00000000000000000000000000000000 7
b00111 9
b00000000000000000000000000101001 <
b00110 @
b00000000000000000000000000001011 A
b00000000000000000000000000101001 C
b00000000000000000000000000101000 G
b0000000 I
b000 J
b00000 L
b00000000000000000000000000000000 R
b00000000000000000000000000000000 S
b00000000000000000000000000000000 [
b00000000000000000000000000000000 ^
0_
b01 a
b11111111111111111111111110101011 b
0f
0i
0n
0p
b000000000000000110000 r
b00000000000000000000000000011000 y
b00000000000000000000000000011000 :!
1X!
#175
0X!
#180
b00000000000000000000000000110100 #
b00000000000000000000000000110000 &
b00000000000000000000000000101100 +
b00000 -
b000 0
b00000 5
b10110 9
0;
b00000000000000000000000000000000 <
0=
b010 ?
b00111 @
b11111111111111111111111110101011 A
b00110 F
b00000000000000000000000000001011 G
b00 a
b00000000000000000000000000000000 b
b000000000000000110100 r
b00000000000000000000000000101000 y
b00000000000000000000000000101000 :!
1X!
#185
0X!
#190
b00000000000000000000000000111000 #
b00000000000000000000000000110100 &
b00000000000000000000000000110000 +
b00000 9
b000 ?
b10110 @
b00000000000000000000000000000000 A
0B
b00111 F
b11111111111111111111111110101011 G
1c
1d
0e
b000000000000000111000 r
b00000000000000000000000000001011 z
b00000000000000000000000000001011 ;!
1X!
#195
0X!
#200
b00000000000000000000000000111100 #
b00000000000000000000000000111000 &
b00000000000000000000000000110100 +
b00000 @
b10110 F
b00000000000000000000000000000000 G
0H
1f
1g
0h
b000000000000000111100 r
b11111111111111111111111110101011 {
b11111111111111111111111110101011 <!
0U!
1X!
#205
0X!
#210
b00000000000000000000000001000000 #
b00000000000000000000000000111100 &
b00000000000000000000000000111000 +
b00000 F
1i
1j
0k
b000000000000001000000 r
1X!
#215
0X!
#220
b00000000000000000000000001000100 #
b00000000000000000000000001000000 &
b00000000000000000000000000111100 +
b000000000000001000100 r
1X!
#225
0X!
#230
b00000000000000000000000001001000 #
b00000000000000000000000001000100 &
b00000000000000000000000001000000 +
b000000000000001001000 r
1X!
#235
0X!
#240
b00000000000000000000000001001100 #
b00000000000000000000000001001000 &
b00000000000000000000000001000100 +
b000000000000001001100 r
1X!
#245
0X!
#250
b00000000000000000000000001010000 #
b00000000000000000000000001001100 &
b00000000000000000000000001001000 +
b000000000000001010000 r
1X!
#255
0X!
#260
b00000000000000000000000001010100 #
b00000000000000000000000001010000 &
b00000000000000000000000001001100 +
b000000000000001010100 r
1X!
#265
0X!
#270
b00000000000000000000000001011000 #
b00000000000000000000000001010100 &
b00000000000000000000000001010000 +
b000000000000001011000 r
1X!
#275
0X!
#280
b00000000000000000000000001011100 #
b00000000000000000000000001011000 &
b00000000000000000000000001010100 +
b000000000000001011100 r
1X!
#285
0X!
#290
b00000000000000000000000001100000 #
b00000000000000000000000001011100 &
b00000000000000000000000001011000 +
b000000000000001100000 r
1X!
#295
0X!
#300
b00000000000000000000000001100100 #
b00000000000000000000000001100000 &
b00000000000000000000000001011100 +
b000000000000001100100 r
1X!
#305
0X!
#310
b00000000000000000000000001101000 #
b00000000000000000000000001100100 &
b00000000000000000000000001100000 +
b000000000000001101000 r
1X!
#315
0X!
#320
b00000000000000000000000001101100 #
b00000000000000000000000001101000 &
b00000000000000000000000001100100 +
b000000000000001101100 r
1X!
#325
0X!
#330
b00000000000000000000000001110000 #
b00000000000000000000000001101100 &
b00000000000000000000000001101000 +
b000000000000001110000 r
1X!
#335
0X!
#340
b00000000000000000000000001110100 #
b00000000000000000000000001110000 &
b00000000000000000000000001101100 +
b000000000000001110100 r
1X!
#345
0X!
#350
b00000000000000000000000001111000 #
b00000000000000000000000001110100 &
b00000000000000000000000001110000 +
b000000000000001111000 r
1X!
#355
0X!
#360
b00000000000000000000000001111100 #
b00000000000000000000000001111000 &
b00000000000000000000000001110100 +
b000000000000001111100 r
1X!
#365
0X!
#370
b00000000000000000000000010000000 #
b00000000000000000000000001111100 &
b00000000000000000000000001111000 +
b000000000000010000000 r
1X!
#375
0X!
#380
b00000000000000000000000010000100 #
b00000000000000000000000010000000 &
b00000000000000000000000001111100 +
b000000000000010000100 r
1X!
#385
0X!
#390
b00000000000000000000000010001000 #
b00000000000000000000000010000100 &
b00000000000000000000000010000000 +
b000000000000010001000 r
1X!
#395
0X!
#400
b00000000000000000000000010001100 #
b00000000000000000000000010001000 &
b00000000000000000000000010000100 +
b000000000000010001100 r
1X!
#405
0X!
#410
b00000000000000000000000010010000 #
b00000000000000000000000010001100 &
b00000000000000000000000010001000 +
b000000000000010010000 r
1X!
#415
0X!
#420
b00000000000000000000000010010100 #
b00000000000000000000000010010000 &
b00000000000000000000000010001100 +
b000000000000010010100 r
1X!
#425
0X!
#430
b00000000000000000000000010011000 #
b00000000000000000000000010010100 &
b00000000000000000000000010010000 +
b000000000000010011000 r
1X!
#435
0X!
#440
b00000000000000000000000010011100 #
b00000000000000000000000010011000 &
b00000000000000000000000010010100 +
b000000000000010011100 r
1X!
#445
0X!
#450
b00000000000000000000000010100000 #
b00000000000000000000000010011100 &
b00000000000000000000000010011000 +
b000000000000010100000 r
1X!
#455
0X!
#460
b00000000000000000000000010100100 #
b00000000000000000000000010100000 &
b00000000000000000000000010011100 +
b000000000000010100100 r
1X!
#465
0X!
#470
b00000000000000000000000010101000 #
b00000000000000000000000010100100 &
b00000000000000000000000010100000 +
b000000000000010101000 r
1X!
#475
0X!
#480
b00000000000000000000000010101100 #
b00000000000000000000000010101000 &
b00000000000000000000000010100100 +
b000000000000010101100 r
1X!
#485
0X!
#490
b00000000000000000000000010110000 #
b00000000000000000000000010101100 &
b00000000000000000000000010101000 +
b000000000000010110000 r
1X!
#495
0X!
#500
b00000000000000000000000010110100 #
b00000000000000000000000010110000 &
b00000000000000000000000010101100 +
b000000000000010110100 r
1X!
#505
0X!
